adjn,advadj,nn,sentence,subjective,vadv,vn,strongsubj,weaksubj
0.0,0.0,0.125,Russia speaks of peace and then fuels conflict,1,0.0,0.0,0.0,0.25
0.043478260869565216,0.0,0.13043478260869565,Those of us who live with an iPhone Blackberry tablet device or a desktop computer seem to think just about everyone is connected,1,0.043478260869565216,0.0,0.087,0.087
0.0,0.0,0.25,He was her son,0,0.0,0.25,0.0,0.0
0.043478260869565216,0.0,0.3478260869565217,Cordoba House project calls for a 15 story community center including a mosque performance art center gym swimming pool and other public spaces,0,0.0,0.08695652173913042,0.0,0.0
0.0,0.0,0.0,For two weeks there was no water in much of Tripoli,0,0.09090909090909093,0.09090909090909093,0.0,0.0909
0.10256410256410256,0.0,0.10256410256410256,He also received an honorary degree from Appalachian State University in Boone North Carolina where an endowment for Appalachian Studies is in his name and he also received an honorary doctorate from the University of North Carolina at Asheville,0,0.05128205128205128,0.0,0.0,0.0
0.09090909090909093,0.0,0.045454545454545456,Both advocate high stakes testing where teachers and schools are evaluated based largely on the academic performance of students and rewarded accordingly,0,0.09090909090909093,0.045454545454545456,0.0455,0.0909
0.037037037037037035,0.0,0.0,The suspect is described as an African American man in his late 30s or early 40s who is about 5 feet 8 inches tall and 150 pounds,0,0.0,0.0,0.0,0.0741
0.05263157894736842,0.0,0.05263157894736842,Eighteen people have been selected to serve on the jury in the murder trial 10 women and eight men,0,0.0,0.0,0.0,0.1053
0.07692307692307693,0.0,0.15384615384615385,Proceedings are set to resume Friday at Woolwich Crown Court in south London,0,0.0,0.07692307692307693,0.0,0.0
0.1176470588235294,0.0,0.029411764705882356,But freeing almost all of the most dangerous prisoners now in circumstances that will be endorsed by Israeli public opinion means there is one less impediment to be dealt with in the final settlement,0,0.029411764705882356,0.029411764705882356,0.0882,0.0882
0.0,0.0,0.0,Of course it changed my life,1,0.0,0.16666666666666666,0.0,0.0
0.0,0.05263157894736842,0.05263157894736842,Neighbors told police they were alerted to the attack but by then it was too late to save her,0,0.05263157894736842,0.05263157894736842,0.0,0.1053
0.15384615384615385,0.0,0.038461538461538464,Additionally the military rulers named a defense council to oversee national security and foreign policies while also declaring it would maintain control of all military affairs,0,0.038461538461538464,0.1153846153846154,0.0,0.1154
0.08108108108108109,0.0,0.16216216216216214,Hu wrapped up his three day visit to the US capital Thursday telling an audience of American business leaders that Beijing is seeking closer ties and greater trust with the United States on a range of issues,0,0.0,0.027027027027027032,0.0,0.027
0.08823529411764706,0.0,0.2058823529411765,At the invitation of former President Nelson Mandela she visited South Africa where HIV prevalence among women ages 15 to 24 years is three times higher than that of men of the same age,0,0.0,0.05882352941176471,0.0,0.0
0.0,0.0,0.0,Southwest and JetBlue battled to top each other,1,0.0,0.0,0.0,0.125
0.0,0.0,0.1176470588235294,A Casablanca court sentenced Belghouat to one year in prison for hurting the image of the police,0,0.0,0.1176470588235294,0.0588,0.0588
0.0,0.0,0.0,At least 40000 Syrians have died,0,0.0,0.0,0.0,0.1667
0.0,0.0,0.125,No doubt that Madiba Magic will live on,1,0.0,0.0,0.25,0.125
0.09090909090909093,0.0,0.0,But this year the global economic crisis is taking its toll,1,0.0,0.09090909090909093,0.0,0.1818
0.05882352941176471,0.0,0.05882352941176471,The Sri Lankan military has been on an offensive to try to finish off the ethnic Tamil insurgency that has been fighting since 1983 for an independent state in the northeast of the country,0,0.0,0.0,0.0,0.0882
0.05,0.0,0.0,Each board is required to commission an independent annual audit then send a copy of that audit to the state,0,0.05,0.1,0.0,0.05
0.1,0.0,0.0,Hekmati joined the Marines in 2001 out of high school,0,0.0,0.1,0.0,0.1
0.0,0.0,0.125,On weekends rangers visit to leave chopped wood for people to enjoy campfires on the beach,0,0.0,0.1875,0.0,0.0625
0.09523809523809523,0.0,0.09523809523809523,Many she knows have gone into the health care industry or social work so they can continue to care for others,0,0.0,0.047619047619047616,0.0,0.1429
0.0625,0.0,0.0,Officials are expecting people to go on 362 billion journeys 200 million more than last year,0,0.0,0.0625,0.0,0.0
0.06666666666666668,0.06666666666666668,0.0,Many are unable to finish school either due to financial problems or out of frustration,0,0.0,0.06666666666666668,0.0667,0.1333
0.0,0.0,0.0,The fact of the matter is that this is someone who is deserving of the justice he received,1,0.0,0.05555555555555555,0.1111,0.1111
0.045454545454545456,0.0,0.045454545454545456,In April the Environmental Working Group published an analysis of existing data on antibiotic resistant bacteria contained in meat sold in supermarkets,0,0.0,0.18181818181818185,0.0,0.0455
0.0,0.0,0.04,Afterward the e mails show the men decided to ask Sandusky to stop bringing children from his charity into the locker rooms at the school,0,0.0,0.12,0.0,0.08
0.125,0.0,0.0625,The 1 year old fugitive was recaptured after being spotted multiple times swimming around Tokyo Bay,0,0.0,0.0625,0.0,0.0625
0.16666666666666666,0.0,0.1111111111111111,Strong winds are forecast as the 87 strong fleet battles the Tasman Sea and the notorious Bass Strait,0,0.0,0.05555555555555555,0.0556,0.0556
0.1,0.0,0.0,What are some other things on the list you like,1,0.0,0.0,0.1,0.0
0.047619047619047616,0.0,0.14285714285714285,That screaming sound you might have heard was Michele Bachmann shrieking in horror at the idea of a Muslim American president,1,0.0,0.19047619047619047,0.1429,0.0952
0.0,0.0,0.0,The company does not face any charges,0,0.2857142857142857,0.14285714285714285,0.0,0.0
0.045454545454545456,0.0,0.18181818181818185,With more than 30 states under winter storm warnings or blizzard warnings air traffic has come to a halt in some places,0,0.0,0.0,0.0455,0.0909
0.0,0.0,0.0,And then it happened,0,0.0,0.0,0.0,0.0
0.0,0.0,0.0,Saltz agreed,0,0.0,0.0,0.0,0.0
0.0,0.03571428571428571,0.0,Vinas stated he was also instructed how to prepare and place fuses how to test batteries how to use voltmeters and how to build circuitry for a bomb,0,0.07142857142857142,0.14285714285714285,0.0,0.0357
0.16666666666666666,0.0,0.08333333333333333,The biggest price China has paid is the loss of creative talents,1,0.0,0.08333333333333333,0.0833,0.0833
0.0625,0.0,0.0625,Numerous witnesses reported seeing the pair in Louisville and surrounding areas over the past two weeks,0,0.0,0.125,0.0,0.0
0.0,0.0,0.047619047619047616,Yet even critics such as Ridl acknowledge that there are benefits stemming from the post mining efforts to rehabilitate the ecosystem,1,0.047619047619047616,0.14285714285714285,0.0476,0.2381
0.1111111111111111,0.0,0.14814814814814814,For private citizens found to be in violation of the secrecy standard penalties can range from loss of security clearances to criminal prosecution leading to jail time,0,0.0,0.1111111111111111,0.0,0.1852
0.0,0.0,0.7,CNN Deputy Political Director Paul Steinhauser contributed to this report,0,0.0,0.0,0.0,0.0
0.045454545454545456,0.0,0.09090909090909093,Outside Ngong Aguek 42 a musician from Southern Sudan who traveled from Orlando to vote is busy ripping up his Sudanese passport,1,0.0,0.045454545454545456,0.0,0.0455
0.04,0.0,0.16,United Airlines came in second place with 138 billion in fees 756 million in reservation cancellation change fees and nearly 625 million in baggage fees,0,0.0,0.0,0.0,0.0
0.0,0.0,0.05882352941176471,Richard Jewell who was wrongly suspected of setting off a bomb during the 1996 Olympics has died,0,0.05882352941176471,0.0,0.0588,0.0588
0.16666666666666666,0.03333333333333333,0.26666666666666666,Even the far right American Enterprise Institute has been willing to talk about the benefits of a carbon tax and anti tax activist Grover Norquist has flirted with the idea,1,0.0,0.0,0.1,0.0667
0.1,0.0,0.0,That journey will hardly be easy as many challenges await,1,0.1,0.0,0.2,0.1
0.0,0.0,0.1111111111111111,But the freezing weather is going to stick around,0,0.0,0.0,0.0,0.0
0.11627906976744184,0.0,0.11627906976744184,So far as the nuclear issue is concerned the only viable and legitimate way to make sure the Islamic Republic does not develop a nuclear weapons program remains a multilateral approach through the International Atomic Energy Agency and geared toward a regional disarmament,0,0.02325581395348837,0.0,0.0465,0.0465
0.0,0.0,0.16666666666666666,Super PACs work independently of candidates,0,0.0,0.0,0.0,0.0
0.0,0.0,0.0,The people do not trust the government to honor their promises,1,0.18181818181818185,0.18181818181818185,0.0909,0.0909
0.0,0.0,0.07692307692307693,In 1990 about 50000 were killed in a quake near the Caspian Sea,0,0.0,0.0,0.0,0.0
0.0,0.0,0.05555555555555555,This is a struggle for the preservation of our culture way of life and the land we love,1,0.0,0.05555555555555555,0.1111,0.0
0.125,0.0,0.0,Oh yes they get to decide presidential nominees,0,0.0,0.0,0.125,0.125
0.03125,0.0,0.125,The group has been active in East Africa for years waging an armed campaign that initially aimed to turn Somalia into a fundamentalist Islamic state according to the Council on Foreign Relations,0,0.03125,0.0625,0.0,0.0312
0.07142857142857142,0.0,0.03571428571428571,By fishing for the great white shark the bycatch will surely be a bunch of other shark species that have never had a history of munching on people,0,0.10714285714285714,0.10714285714285714,0.1786,0.0357
0.0,0.0,0.0,All planes inbound for the airport were being diverted and no planes were allowed to take off,0,0.0,0.0,0.0,0.0
0.04651162790697674,0.0,0.16279069767441862,There are now over 350 Trussell Trust food banks across the UK at one point opening at the rate of one a week as people struggle to make ends meet in a perfect storm of public service cuts and decreasing standards of living,1,0.02325581395348837,0.04651162790697674,0.0465,0.0698
0.16666666666666666,0.0,0.0,This bailout was a terrible idea,1,0.0,0.0,0.1667,0.1667
0.06666666666666668,0.0,0.26666666666666666,Anderson joined another retired player Dennis Rodman in his recent controversial visit to North Korea,1,0.0,0.13333333333333333,0.0,0.1333
0.0,0.0,0.0967741935483871,Despite being the subject of scores of articles and having written two autobiographies himself the tales of his life often varied depending on the time the setting and the tale teller,0,0.03225806451612903,0.06451612903225806,0.0,0.0323
0.0,0.0,0.13333333333333333,Sleet and freezing rain are forecast from the Tennessee Valley to the mid Atlantic region,0,0.0,0.06666666666666668,0.0,0.0
0.04166666666666666,0.0,0.75,The big box store has collaborated on capsule collections with design powerhouses like Phillip Lim Zac Posen Prabal Gurung Jason Wu and Joseph Altuzarra,0,0.0,0.04166666666666666,0.0417,0.0417
0.05882352941176471,0.0,0.08823529411764706,The gathering — run by the New Organizing Institute a progressive outfit that trains activists and operatives in the fields of data digital and organizing — has blossomed since its heady inception in 2006,1,0.0,0.05882352941176471,0.0294,0.0294
0.0,0.0,0.0,Two others subsequently dropped out,0,0.2,0.0,0.0,0.0
0.0,0.0,0.2380952380952381,The New Yorker noted that the Supreme Court has upheld some limits on speech including restrictions on things like child pornography,0,0.0,0.09523809523809523,0.0952,0.0
0.037037037037037035,0.037037037037037035,0.1111111111111111,Light winds and the traditional difficult run to the finish on the Derwent River left the outcome in doubt to the very end even before the protest,1,0.0,0.037037037037037035,0.0741,0.1481
0.0,0.0,0.07692307692307693,Bev Perdue put it preparing for the worst and praying for the best,0,0.0,0.07692307692307693,0.1538,0.0
0.15151515151515152,0.0,0.12121212121212123,The botched lethal injection catapulted the issue of US capital punishment back into the international spotlight raising new questions about the drugs being used and the constitutional protection against cruel and unusual punishment,1,0.0,0.030303030303030307,0.0303,0.1515
0.08333333333333333,0.0,0.0,And sometimes it shows up in print and now with social media,0,0.0,0.08333333333333333,0.0,0.0
0.0,0.0,0.06451612903225806,Bundy also contends his family has been ranching in the Virgin Valley on the Nevada range since 1877 long before the BLM even existed and before the tortoise was declared endangered,1,0.06451612903225806,0.03225806451612903,0.0323,0.0323
0.13157894736842105,0.0,0.5,Many Republicans including potential 2016 presidential candidate Sen Rand Paul R Kentucky have long insisted that the Great Recession era extension of emergency federal benefits deters job hunting and is unnecessary as the economy rebounds and unemployment declines,1,0.02631578947368421,0.02631578947368421,0.0263,0.0789
0.1,0.0,0.05,A large swath of the Internet is blacking out in protest of two controversial copyright bills being considered in Congress,0,0.0,0.05,0.05,0.1
0.0625,0.0625,0.125,Bitterly cold temperatures stretched from the Dakotas to New England sweeping down into the Ohio Valley,1,0.0,0.0,0.0625,0.125
0.0,0.0,0.2,His parents were Holocaust survivors,0,0.0,0.2,0.0,0.0
0.06666666666666668,0.0,0.0,His defense has argued that he never explicitly ordered the killings of the indigenous group,0,0.13333333333333333,0.13333333333333333,0.0667,0.0667
0.0,0.0,0.2,Orange mango and papaya trees are also on the grounds,0,0.1,0.0,0.0,0.0
0.037037037037037035,0.0,0.25925925925925924,Kardashian 32 stopped in Bahrain Saturday as part of a Middle Eastern promotional tour for Millions of Milkshakes a franchise created and owned by businessman Sheeraz Hasan,0,0.0,0.07407407407407407,0.0,0.0
0.0,0.0,0.06666666666666668,This is a first since alcohol has never been served before in the Magic Kingdom,0,0.06666666666666668,0.0,0.0,0.0
0.15,0.0,0.05,Stress combined with an unusual work schedule and a new baby kept the pounds on despite multiple attempts at dieting,1,0.0,0.05,0.1,0.05
0.0,0.0,0.0, And if a man hits you once he will hit you again,1,0.0,0.16666666666666666,0.0833,0.0
0.0,0.0,0.0,Whether this is the case or not remains to be seen,1,0.09090909090909093,0.09090909090909093,0.0,0.0
0.0,0.0,0.0,Obama did not cover that issue in his comments,1,0.2222222222222222,0.1111111111111111,0.0,0.0
0.25,0.0,0.0,He invoked diplomatic immunity,0,0.0,0.0,0.0,0.25
0.125,0.1875,0.0,Partridge noted that because Twitter is relatively new disputes that have come up have been settled,0,0.125,0.0,0.0,0.0
0.05263157894736842,0.0,0.10526315789473684,All cruise lines ring in the New Year with pomp and ceremony but a few go the extra mile,1,0.0,0.0,0.0,0.0
0.0,0.0,0.14285714285714285,CNN obtained copies of the e mails,0,0.0,0.14285714285714285,0.0,0.0
0.0,0.0,0.045454545454545456,Please note that there may be a delay between the time when the video is available and when the transcript is published,0,0.0,0.045454545454545456,0.0,0.0
0.0,0.0,0.06896551724137931,Before the incidents in Mumbai the Indian Cricket Board as is normally the case sent a letter to the government seeking permission to travel to Pakistan for the tour,0,0.03448275862068965,0.10344827586206896,0.0,0.0
0.0,0.0,0.17391304347826084,The book will be adapted for the screen by 500 Days of Summer and The Spectacular Now writers Scott Neustadter and Michael Weber,0,0.08695652173913042,0.13043478260869565,0.0435,0.0
0.16666666666666666,0.0,0.0,We are suffering from environmental pollution,1,0.0,0.0,0.1667,0.0
0.06666666666666668,0.0,0.0,The plane hit turbulence shortly after breakfast was served and the result was culinary carnage,1,0.0,0.06666666666666668,0.0667,0.0
0.06666666666666668,0.0,0.13333333333333333,The location The Grand Canyon is in northwest Arizona near the Utah and Nevada borders,0,0.0,0.0,0.0,0.0
0.0,0.0,0.060606060606060615,According to an FBI blog post the number of incidents is projected to reach 3700 by the end of the year compared to just 283 in 2005 a rise of more than 1100,0,0.0,0.030303030303030307,0.0303,0.0
0.08333333333333333,0.0,0.125,Even with a rock bottom corporate tax rate some of the firms use tax efficiencies to not even pay that on their European sales,1,0.04166666666666666,0.04166666666666666,0.0,0.0417
0.09523809523809523,0.0,0.047619047619047616,The giantess who gave her name to the region is also credited with creating its most recognizable feature the Curonian Spit,1,0.047619047619047616,0.047619047619047616,0.0,0.0952
0.18181818181818185,0.0,0.0,All of the young men were popular athletic and good students,1,0.0,0.0,0.0,0.1818
0.0,0.0,0.1111111111111111,To get a day in court requires an advocate if you can afford one or patience and luck,0,0.0,0.1111111111111111,0.2222,0.0556
0.08333333333333333,0.0,0.16666666666666666,He is scheduled to appear in federal court in Florida on Wednesday,0,0.0,0.0,0.0833,0.0833
0.17647058823529413,0.0,0.0,But even with more searchers and equipment and calmer weather the effort will still face severe challenges,1,0.05882352941176471,0.05882352941176471,0.1176,0.1176
0.1176470588235294,0.0,0.0,I think he has to find more opportunities to demonstrate to the American people who he is,1,0.0,0.05882352941176471,0.0588,0.0
0.037037037037037035,0.0,0.037037037037037035,But that is exactly what she did when during a subsequent interview also in the 1980s she revealed that Taylor had taken and passed a polygraph test,1,0.037037037037037035,0.07407407407407407,0.037,0.0
0.0,0.07142857142857142,0.0,There is also a shop largely for men called Uniform that is very nice,1,0.14285714285714285,0.07142857142857142,0.0714,0.1429
0.16129032258064516,0.03225806451612903,0.12903225806451613,US and Iraqi forces are also facing a recent increase of attacks in Baghdad which Odierno and other US military officials pin on al Qaeda trying to again foment sectarian violence,1,0.03225806451612903,0.03225806451612903,0.0,0.0323
0.0,0.0,0.0,Mays responded according to the witness that the girl knew what she was doing,0,0.0,0.07142857142857142,0.0714,0.0
0.0,0.0,0.16666666666666666,Connecticut state police have the phone,0,0.0,0.16666666666666666,0.0,0.0
0.08695652173913042,0.0,0.13043478260869565,On those documents Columbus used a triangular signature of dots and letters that resembled inscriptions found on gravestones of Jewish cemeteries in Spain,0,0.0,0.08695652173913042,0.0,0.0
0.09090909090909093,0.0,0.09090909090909093,Amid intense pressure deputies loyal to Yanukovych backtracked and overturned it,1,0.0,0.18181818181818185,0.0,0.2727
0.13636363636363635,0.0,0.045454545454545456,Some 600 ETA suspects or convicts are in Spanish jails and three alleged top leaders of the group were arrested last year,0,0.0,0.0,0.0,0.0455
0.057142857142857134,0.0,0.08571428571428573,The trial promises to tell the story of a decorated female officer who rose through the ranks of the Los Angeles Police Department while allegedly hiding a dark secret She was getting away with murder,1,0.057142857142857134,0.057142857142857134,0.0,0.0857
0.0,0.0,0.09090909090909093,They were sealing off the crime scene as helicopters whirred overhead,0,0.0,0.0,0.0,0.0909
0.0,0.0,0.0,Not surprisingly this realization came about the time they yanked the product off the shelves,1,0.0,0.06666666666666668,0.0667,0.0667
0.0,0.0,0.0,Kentucky finished their season strong but ended up as a No,1,0.0,0.09090909090909093,0.0,0.0909
0.07692307692307693,0.0,0.15384615384615385,Band members had returned to their Orlando hotel following a game last Saturday,0,0.0,0.07692307692307693,0.0,0.0769
0.0,0.0,0.08333333333333333,We are heroes when we serve as examples  and help each other,1,0.0,0.16666666666666666,0.0,0.0833
0.125,0.04166666666666666,0.0,The threat of military action was however very effective in getting allies to take economic actions that were contrary to their own national interests,1,0.08333333333333333,0.04166666666666666,0.0417,0.2083
0.047619047619047616,0.0,0.14285714285714285,Earlier protesters barricaded roads with stones and blocked access to and from the Majengo neighborhood where Aboud Rogo Mohammed often preached,0,0.047619047619047616,0.09523809523809523,0.0,0.0
0.0,0.0,0.1111111111111111,Some try to self medicate with alcohol or drugs,0,0.0,0.1111111111111111,0.0,0.1111
0.05882352941176471,0.0,0.0,The architecture is open the greenery is plentiful and the staff at the welcome desk is attentive,1,0.0,0.0,0.1176,0.1176
0.0,0.0,0.0,And that goes for your Bluetooth earpiece too,1,0.0,0.0,0.0,0.125
0.0,0.0,0.2352941176470588,Earlier Fiorentina defender Dario Dainelli had conceded a penalty when he tripped Massimo Ambrosini in the area,0,0.0,0.1176470588235294,0.0588,0.0588
0.0,0.0,0.0,The judge will consider if the remaining photos including those where the children have not been identified will be given to the defense,0,0.043478260869565216,0.043478260869565216,0.1304,0.0435
0.0,0.0,0.0,These brave women sacrificed much to keep us safe,1,0.1111111111111111,0.2222222222222222,0.1111,0.2222
0.1111111111111111,0.0,0.5555555555555556,In addition to the killings Franklin admitted to the attempted assassinations of Hustler magazine publisher Larry Flynt in 1978 and civil rights leader Vernon Jordan in 1980,0,0.0,0.0,0.0,0.0741
0.0,0.0,0.2,Nick Paton Walsh and Joe Duran contributed to this report,0,0.0,0.0,0.0,0.0
0.0,0.0,0.0,Altogether the damage from these events exceeds 50 billion,0,0.0,0.0,0.0,0.1111
0.1176470588235294,0.0,0.05882352941176471,He was a historic figure because he was the first socialist leader ever elected in the hemisphere,0,0.05882352941176471,0.0,0.0,0.0588
0.0,0.05882352941176471,0.05882352941176471,People as creative as del Toro and his gang need all the support we can give them,1,0.0,0.05882352941176471,0.1765,0.0
0.07692307692307693,0.0,0.07692307692307693,According to some other show I just narrated for some other channel there are approximately 87 million species on the planet give or take 13 million,0,0.07692307692307693,0.0,0.0385,0.0385
0.18181818181818185,0.0,0.0,China appeared to have criticized the joint military exercises last week,0,0.0,0.0,0.0,0.0
0.0,0.0,0.25925925925925924,Separately the Navy on Tuesday announced it was canceling all the air shows its Blue Angels Flight Demonstration Squadron had scheduled for the rest of the year,0,0.0,0.07407407407407407,0.037,0.0
0.1176470588235294,0.0,0.05882352941176471,And what better thing to socialize around than using it to identify new products deals and scoops,1,0.0,0.05882352941176471,0.0588,0.0
0.13043478260869565,0.0,0.043478260869565216,Their central argument that major policy innovations are impossible unless we make the political system better is one that would be worth remembering,1,0.0,0.0,0.087,0.2174
0.05555555555555555,0.0,0.05555555555555555,As attention for that Tumblr page grew a competing blog with a more conservative ideology came into being,1,0.0,0.05555555555555555,0.0,0.0
0.0,0.0,0.08333333333333333,People with a history of drug addiction accounted for almost 81000 denials,0,0.0,0.0,0.0,0.0833
0.0967741935483871,0.0,0.0967741935483871,Francesco Schettino may be indicted in the next few weeks on charges that include manslaughter and abandoning ship before his passengers and other Concordia executives and crewmembers may also face trial,0,0.03225806451612903,0.06451612903225806,0.0,0.0323
0.1875,0.0,0.3125,Outside Sprungli Rousset steers us away from what we thought would be our first chocolate hit,1,0.0,0.0,0.0,0.125
0.07692307692307693,0.0,0.038461538461538464,One reason given by the administration for the aerial campaign was to protect military advisers previously sent to Iraq to work with Iraqi and Kurdish forces,0,0.038461538461538464,0.07692307692307693,0.0,0.0769
0.0,0.0,0.1875,The pup is recovering back along the coast at The Marine Mammal Center in Sausalito California,0,0.0625,0.0,0.0,0.0625
0.1,0.0,0.05,How can we hope for global sustainability and resilience unless we invest now in sexual and reproductive health and rights,1,0.05,0.0,0.05,0.1
0.0,0.0,0.125,The anticipation of completing the climb is generating excitement with family members headed to the mountain,1,0.0,0.1875,0.0625,0.0
0.0,0.0,0.0,Thank them all for being wonderful and encourage them to keep in touch,1,0.0,0.2307692307692308,0.0769,0.1538
0.038461538461538464,0.0,0.038461538461538464,Flights to Crimea from Kiev Istanbul and several other cities have been suspended for the rest of the week with only those originating from Moscow landing,0,0.0,0.07692307692307693,0.0,0.0
0.11428571428571427,0.0,0.08571428571428573,The two nations argued that even in its watered down form without economic sanctions the proposed resolution would have led to military intervention similar to the NATO operation to protect anti government protesters in Libya,1,0.0,0.028571428571428567,0.0,0.1143
0.1,0.0,0.0,A third physician reviewed those findings and endorsed their conclusions,0,0.0,0.2,0.0,0.0
0.1,0.0,0.1,And to boot for the first time since 1988 a US ambassador was killed in a terrorist attack in Benghazi,0,0.0,0.0,0.0,0.05
0.08333333333333333,0.0,0.0,But the Indian connection to space was much older than that milestone,1,0.08333333333333333,0.0,0.0,0.0833
0.043478260869565216,0.0,0.13043478260869565,The truth is that no other minority group in American history has seen more progress toward equality more rapidly than gay people have,1,0.0,0.0,0.0435,0.087
0.07692307692307693,0.0,0.0,The still images were allegedly collected at five minute intervals during the chats,0,0.07692307692307693,0.0,0.0,0.0769
0.06666666666666668,0.0,0.26666666666666666,They have invented a monitor that gathers real time data from water wells using sonar,0,0.0,0.13333333333333333,0.0,0.0667
0.0,0.0,0.0,But will Congress actually fix the problem or will it just check the box,1,0.14285714285714285,0.14285714285714285,0.2857,0.0714
0.07142857142857142,0.0,0.19047619047619047,The guilty plea in the Michigan case underscores that while Islamist terrorists do pose a threat to US service members those with other types of extremist beliefs also pose a similar kind of threat to US government officials and American law enforcement,1,0.023809523809523808,0.07142857142857142,0.0238,0.1429
0.0625,0.0,0.0625,Writebol spoke publicly for the first time about her ordeal at a news conference on Wednesday,0,0.0625,0.0,0.0625,0.0
0.14285714285714285,0.0,0.17142857142857146,The Supreme Court jumped into the same sex marriage debate again deciding Friday to hear arguments this spring on the question of whether states have the right to ban same sex couples from getting married,1,0.028571428571428567,0.08571428571428573,0.0571,0.0286
0.0,0.0,0.08333333333333333,An officer and the suspect were wounded according to the police chief,0,0.0,0.0,0.0,0.0833
0.16666666666666666,0.0,0.0,It will be a tough one,1,0.0,0.0,0.1667,0.0
0.0,0.0,0.08333333333333333,These roads now need to be closely monitored there needs to be sharing of information and the cross border networks need to be targeted,1,0.16666666666666666,0.04166666666666666,0.125,0.0417
0.14285714285714285,0.0,0.0,His first two victims were American journalists,0,0.0,0.0,0.0,0.0
0.08695652173913042,0.0,0.08695652173913042,After all Patel was convicted based on text messages about miscarriage inducing drugs not evidence she had used or even purchased such drugs,1,0.043478260869565216,0.08695652173913042,0.0,0.087
0.12121212121212123,0.0,0.18181818181818185,During his spell in the English Premier League which ended at big money Manchester City he saw at first hand the trend towards clubs using ever more foreign imports to supplement their ranks,1,0.030303030303030307,0.030303030303030307,0.0,0.0303
0.14285714285714285,0.14285714285714285,0.14285714285714285,More traditional game drives are also available,0,0.14285714285714285,0.0,0.0,0.2857
0.10714285714285714,0.0,0.10714285714285714,Last month a Madrid government regional official announced the planned groundbreaking for late this year had been delayed until early 2014 the state run news agency EFE reported,0,0.0,0.10714285714285714,0.0357,0.0
0.04,0.0,0.18,Still visitation levels for the first quarter of 2009 have remained strong according to the New Orleans Metropolitan Convention and Visitors Bureau which spokeswoman Kelly Schulz attributes to meetings and conventions Mardi Gras and marketing efforts to promote the city as a value destination compared with other popular American cities,1,0.0,0.04,0.0,0.06
0.0,0.0,0.3333333333333333,A three year deal with McLaren ended prematurely after one season following a souring of relations with team boss Ron Dennis and his driving partner Lewis Hamilton,0,0.037037037037037035,0.037037037037037035,0.0,0.0741
0.0,0.0,0.12,The National Weather Service is forecasting more than 5 inches of snow and winds up to 25 mph in the Washington and Baltimore Maryland areas,0,0.04,0.0,0.0,0.0
0.1724137931034483,0.06896551724137931,0.10344827586206896,Even potential Republican supporters do not trust the Obama administration on enforcement particularly on securing the Mexican border and there is little reason to think this view will change,1,0.03448275862068965,0.06896551724137931,0.1379,0.1379
0.0,0.0,0.09090909090909093,Her father Barry jokingly rues the day she learned to talk,1,0.09090909090909093,0.09090909090909093,0.0,0.0909
0.07142857142857142,0.0,0.07142857142857142,The Iraqi government was formed in December nine months after an inconclusive national election,0,0.0,0.07142857142857142,0.0,0.0714
0.0,0.0,0.07692307692307693,Hasan was paralyzed from the waist down after police exchanged fire with him,0,0.0,0.07692307692307693,0.0,0.1538
0.0,0.0,0.1,A 2012 National Partnership study found that 14 states and the District of Columbia have laws that go beyond FMLA,0,0.0,0.1,0.0,0.0
0.0,0.0,0.1,A crowd of onlookers can be seen in the background,0,0.0,0.0,0.0,0.0
0.15384615384615385,0.0,0.07692307692307693,The Iron Chef uses organic and fresh ingredients with a health conscious mindset,0,0.0,0.0,0.0,0.0769
0.07142857142857142,0.0,0.14285714285714285,But civil liberties groups have pushed the Justice Department to publicly disclose any use,0,0.07142857142857142,0.14285714285714285,0.0,0.0714
0.0625,0.0,0.0625,Worldwide pirates have killed six and taken 448 crew hostage in 2012 according to the report,0,0.0,0.0,0.0,0.0625
0.0,0.0,0.0,Instead he argues we should try to find consensus before acting collectively to put an end to atrocity,0,0.05555555555555555,0.16666666666666666,0.1111,0.1111
0.0,0.0,0.04166666666666666,The body was found at 1021 am Thursday deep in a forest about 500 yards from the house Byrd was renting according to Lucas,0,0.0,0.08333333333333333,0.0,0.0417
0.04,0.0,0.16,Al Shabaab is made up of former allies of Ahmed once a leader of the Islamist movement that briefly held power in Mogadishu in 2006,0,0.0,0.08,0.0,0.04
0.0,0.0,0.05555555555555555,According to the CIA World Factbook the government led by a general does not fully control the countryside,0,0.2222222222222222,0.05555555555555555,0.0,0.0556
0.047619047619047616,0.0,0.09523809523809523,The fairness of the widening rich poor gap or the lack thereof has been discussed far less than the number soup,1,0.047619047619047616,0.0,0.0476,0.1905
0.0,0.0,0.0,Norton and his dad were driving home when the storm hit,0,0.0,0.09090909090909093,0.0,0.0909
0.07142857142857142,0.03571428571428571,0.0,That is welcome news but Japan has been less successful in achieving rapprochement with other enemies precisely because it has not taken the measure of the shared past,1,0.10714285714285714,0.10714285714285714,0.0357,0.1786
0.0625,0.0,0.0,Both families now have brand new homes and can start the process of rebuilding their lives,1,0.0625,0.1875,0.0,0.0
0.07692307692307693,0.0,0.0,Norman also hoped for some more care to be taken with these designs,0,0.07692307692307693,0.0,0.0,0.0769
0.0625,0.0,0.0625,Now in her 90s Priscilla Sitienei is changing that attending elementary school and inspiring a generation,1,0.0,0.0625,0.0625,0.0
0.0,0.0,0.5,Justices Ruth Bader Ginsburg and David Souter dissented,0,0.0,0.0,0.0,0.0
0.0,0.0,0.0,Herein lies your problem,1,0.0,0.25,0.25,0.25
0.0,0.0,0.17647058823529413,Stem was advised by his attorney not to attend the council meeting according to CNN affiliate KBTX,0,0.0,0.1176470588235294,0.0,0.0
0.0,0.0,0.0,Leeson chuckled,0,0.0,0.0,0.0,0.0
0.18181818181818185,0.0,0.5454545454545454,China makes mass cost effective products United States consumers buy them,0,0.0,0.18181818181818185,0.0,0.0909
0.0,0.0,0.05,And you know if people start talking about homemade remedies fashioned from bleach maybe click off and see a doc,1,0.05,0.2,0.1,0.0
0.030303030303030307,0.0,0.12121212121212123,I remember the Chinese family members who were brave enough to try to take their quest for answers public and were dragged out of the press room in Kuala Lumpur screaming and crying,1,0.0,0.0,0.0606,0.0909
0.0,0.0,0.125,The game of guarding a family recipe secret is one the boy knows how to play,1,0.0,0.0625,0.0,0.0625
0.0,0.0,0.0,Just as well it did,1,0.2,0.2,0.0,0.2
0.0,0.0,0.34375,Touma a five year veteran of the Army had served with the US Army Dental Activity Clinic in Bamberg Germany and in Fort Drum New York before her stint at Fort Bragg,0,0.0,0.0,0.0,0.0
0.0,0.0,0.0,Rebombo did not know what to do,0,0.14285714285714285,0.0,0.1429,0.0
0.0,0.0,0.2,They especially target Sufi shrines which they believe are sacrilegious,0,0.2,0.3,0.2,0.0
0.09090909090909093,0.030303030303030307,0.030303030303030307,Very wealthy hunters mainly from the United States are picking off elephants in their zeal to bag the biggest tusks and trophies and rise within the ranks of the global trophy hunting fraternity,1,0.0,0.060606060606060615,0.0303,0.0303
0.0,0.0,0.2307692307692308,After that time Chrysler will no longer pay those dealers for warranty work,0,0.0,0.07692307692307693,0.0769,0.0
0.07692307692307693,0.0,0.0,Other analysts are not convinced that Xi is going after Zhou just yet,0,0.15384615384615385,0.15384615384615385,0.0769,0.0
0.08333333333333333,0.0,0.08333333333333333,The seat allocation had been a key sticking point for the opposition which wanted to ensure it had the power to veto major decisions,0,0.0,0.08333333333333333,0.0833,0.2083
0.0,0.0,0.060606060606060615,The US Capitol was cleared for employees to come back to get their belongings but inspectors asked people to limit their time inside the building while engineers continue to work around the complex,0,0.030303030303030307,0.12121212121212123,0.0,0.0909
0.09090909090909093,0.0,0.09090909090909093,These attacks cast in sharp relief a trend that needs greater attention the real and growing participation of women in extremist movements,1,0.0,0.045454545454545456,0.0455,0.2273
0.0,0.0,0.13333333333333333,The US government has portrayed Noriega as the ultimate crooked cop a man who was paid millions by the Medellin drug cartel in Colombia to protect cocaine and money shipments,1,0.0,0.13333333333333333,0.0667,0.0333
0.030303030303030307,0.0,0.15151515151515152,Twenty five years to the month after Tetris was born CNN spoke with Pajitnov and Henk Rogers CEO of Blue Planet Software the company that manages the exclusive licensing rights to the game,0,0.0,0.060606060606060615,0.0,0.0909
0.0,0.0,0.13043478260869565,On Friday prosecutors went over all the evidence and witnesses they had and gave a summation of the case against van der Sloot,0,0.0,0.043478260869565216,0.0,0.0435
0.0,0.0,0.0,We do know he was a carpenter so perhaps Jesus was buff,1,0.08333333333333333,0.3333333333333333,0.1667,0.0833
0.125,0.0,0.25,The hospital released a letter late Friday sent by chief executive John Lofthouse to lawmaker Keith Vaz who has been supporting the Saldanha family,0,0.0,0.125,0.0,0.0
0.0,0.0,0.21052631578947367,Televising it also would help fulfill a campaign promise by Obama that health care negotiations would be broadcast live,1,0.0,0.10526315789473684,0.0526,0.2632
0.0,0.0,0.04166666666666666,The militia fighting for control of the airport from the city of Zintan and Misrata are among the most heavily armed in the country,1,0.04166666666666666,0.04166666666666666,0.0417,0.0417
0.125,0.0,0.0,But you can never design a perfect protocol,1,0.125,0.0,0.125,0.0
0.08108108108108109,0.0,0.10810810810810813,But Edison Cavani leveled just 13 minutes later after good work by Fabrizio Miccoli earning a point that put Palermo two points ahead of Juventus in fourth place and extended their unbeaten home run to 23 matches,1,0.027027027027027032,0.054054054054054064,0.027,0.0541
0.0,0.0,0.14285714285714285,Mike Huckabee follow closely along with 9,1,0.14285714285714285,0.0,0.0,0.0
0.05263157894736842,0.0,0.0,The two wanted to use their interest in renewable energy to provide a service that people would really need,1,0.05263157894736842,0.10526315789473684,0.1053,0.1579
0.0,0.0,0.0,What happened next was not what Newsweek or Ali could have anticipated or wanted,1,0.07142857142857142,0.0,0.0,0.0714
0.11428571428571427,0.0,0.11428571428571427,Woodford a British executive who spent 30 years with Olympus before he was named the first foreign president last April led a public campaign to fire the existing Olympus board and return to company management,0,0.0,0.057142857142857134,0.0,0.0
0.05,0.0,0.15,Even with Washington in disgrace and Congress suffering all time low approval ratings a US Senate seat still has value,1,0.05,0.1,0.1,0.2
0.07692307692307693,0.0,0.0,The soldiers mostly Tutsis became part of the national army through that accord,0,0.0,0.07692307692307693,0.0,0.1538
0.0,0.0,0.0,When she got out of the hole she heard a woman crying and saw the back of her home was destroyed,0,0.047619047619047616,0.09523809523809523,0.0,0.0952
0.038461538461538464,0.0,0.07692307692307693,Marchant de Lange took seven wickets for 81 on his debut for South Africa the best figures recorded by any bowler in Test cricket in 2011,0,0.0,0.038461538461538464,0.0385,0.0
0.0,0.0,0.35714285714285715,Billy Howard is an attorney who runs the Consumer Protection Division for Morgan  Morgan,0,0.0,0.14285714285714285,0.0,0.0
0.05882352941176471,0.0,0.1176470588235294,The NFL has sidelined Peterson who is on leave with pay while he handles the legal challenge,0,0.0,0.1176470588235294,0.0,0.0588
0.16666666666666666,0.0,0.08333333333333333,Prosecutors dropped rape and other charges in exchange for the guilty plea,0,0.0,0.08333333333333333,0.0,0.1667
0.1875,0.0,0.125,The status of Israeli citizens who defy discriminatory government policies regarding Palestinian rights is steadily eroding,1,0.0625,0.0,0.125,0.0625
0.14285714285714285,0.14285714285714285,0.0,But these days some retail chains are giving away generic Lipitor while the rest are charging barely 50 cents a pill,0,0.14285714285714285,0.0,0.0,0.0476
0.0625,0.0,0.0,In 1997 Newsweek named him one of the 100 people to watch in the next century,0,0.0,0.0625,0.0,0.0
0.05882352941176471,0.0,0.08823529411764706,Ranchers and farmers have joined forces with tribal communities and created the unified coalition in opposing the construction of the pipeline that would transport tar sands oil through their lands from Canada to Texas,1,0.0,0.1176470588235294,0.0,0.0588
0.04,0.0,0.08,In November 2013 the ever touring King canceled an Oklahoma City concert but that was due to unsafe conditions on the roads into the city,0,0.04,0.08,0.0,0.04
0.0,0.0,0.13636363636363635,Among the types of games Move will work with include those that involve swords bows and arrows guns punching and much more,0,0.0,0.045454545454545456,0.0455,0.0455
0.12121212121212123,0.0,0.0,The ICRC will work to remind both the Syrian government and the armed opposition of their obligations to respect international humanitarian law and share its analysis of what is occurring with both sides,0,0.0,0.0,0.0909,0.0
0.06896551724137931,0.0,0.13793103448275862,In 2010 he negotiated the release of Reza Taghavi an Iranian American businessman detained in Iran for more than two years on suspicion of supporting an anti regime group,0,0.0,0.06896551724137931,0.0,0.0345
0.14285714285714285,0.0,0.14285714285714285,They all offer a strong nutrition profile,1,0.0,0.0,0.0,0.1429
0.05,0.0,0.0,The campaign in the 9th District which covers Memphis and has a large African American population was dominated by race,1,0.0,0.1,0.0,0.05
0.0,0.0,0.25,Shaun White was amazing in the half pipe,1,0.0,0.0,0.125,0.0
0.05555555555555555,0.0,0.0,My fear is that many institutions will eventually alter how they treat people who refuse to self track,1,0.05555555555555555,0.16666666666666666,0.1667,0.0556
0.08695652173913042,0.0,0.13043478260869565,Kim was appointed defense minister last week amid growing tensions on the Korean peninsula following an exchange of gunfire between the two sides,1,0.0,0.17391304347826084,0.0,0.1304
0.07407407407407407,0.07407407407407407,0.0,Moreover many of the police and military leaders in this region were appointed by Bakiyev and do not appear to be particularly loyal to the new government,1,0.07407407407407407,0.037037037037037035,0.0,0.1111
0.0,0.0,0.1111111111111111,Shortly after his election to the US Senate Obama bought a house for 300000 below the asking price,0,0.0,0.05555555555555555,0.0,0.0
0.0,0.0,0.1111111111111111,He returned to the United States in July 2012,0,0.0,0.0,0.0,0.0
0.125,0.0,0.125,In the UK for instance the average blue chip boss can earn up to a staggering 185 times the salary of their ordinary worker,1,0.0,0.0,0.0417,0.0
0.15,0.0,0.3,They are our aunts and uncles grandparents daughters sons neighbors our doctors and ministers our best friends and co workers,1,0.0,0.05,0.05,0.05
0.0,0.0,0.0,I want them to be fulfilled,1,0.0,0.16666666666666666,0.1667,0.0
0.0,0.0,0.07692307692307693,So I asked some folks who would know the parents of Pack 109,0,0.0,0.15384615384615385,0.0769,0.0769
0.09090909090909093,0.0,0.0,Those vying to challenge Reid on the Republican side are pouncing,1,0.0,0.09090909090909093,0.0,0.0909
0.05263157894736842,0.0,0.10526315789473684,While observers continued to debate a person with a unique understanding of the situation appeared on CNN Monday morning,1,0.0,0.10526315789473684,0.0526,0.1053
0.0,0.0,0.12121212121212123,In the case of Malaysia Flight 370 a Boeing 777 missing since Saturday a search of an area captured by Chinese satellite images that seemed to pinpoint the crash site turned up nothing,0,0.0,0.12121212121212123,0.0,0.0
0.0,0.0,0.0,Specimens from 13 were tested and Ebola was ruled out in all 13 cases,0,0.0,0.07142857142857142,0.0,0.0
0.0,0.0,0.125,In May the US State Department issued a travel warning for Mauritania because of AQIM activities,0,0.0,0.125,0.0,0.0625
0.0,0.0,0.0625,He had been truly embraced by all those who follow the Georgia Bulldogs across the country,1,0.0625,0.0625,0.0625,0.0
0.08695652173913042,0.0,0.13043478260869565,For instance he started the inaugural parade when government officials members of Congress Army units and prominent citizens escorted him to the ceremony,0,0.0,0.043478260869565216,0.0,0.0435
0.16666666666666666,0.0,0.04166666666666666,North Philadelphia has both significant African American and Hispanic populations but Traub of German Jewish and Chinese heritage focused on black residents and neighborhoods,0,0.0,0.0,0.0,0.0833
0.0,0.0,0.0,It started to pick up a bit,1,0.0,0.0,0.0,0.0
0.0,0.0,0.0,All were HIV negative,0,0.0,0.25,0.0,0.25
0.0,0.0,0.1111111111111111,Her mother and then her partner bought her clothes,0,0.0,0.1111111111111111,0.0,0.0
0.1111111111111111,0.0,0.027777777777777776,An Iran based journal Iranian Diplomacy suggests that Iran could cap its uranium enrichment at 35 percent a grade that can be used for nuclear power but not for nuclear weapons in exchange for easing sanctions,0,0.0,0.05555555555555555,0.0,0.0833
0.05882352941176471,0.0,0.2058823529411765,CNN Student News is created by a team of journalists and educators who consider the Common Core State Standards national standards in different subject areas and state standards when producing the show and curriculum,0,0.0,0.05882352941176471,0.0294,0.0294
0.0625,0.0,0.0,Moreau was among more than 900 French nationals the government believes fought in Syria and Iraq,0,0.0,0.0625,0.0,0.0
0.0425531914893617,0.0,0.1276595744680851,Timothy McVeigh chose to bomb the Murrah Building in Oklahoma City on the anniversary of Waco because of that symbolic importance indeed the forged drivers license he rented the truck with had the date of issuance as 19 April 1993 the date of the Branch Davidian fire,0,0.0,0.0851063829787234,0.0213,0.0638
0.05,0.0,0.1,He has campaigned against the live dolphin trade with his organization The Dolphin Project and also featured in The Cove,0,0.05,0.0,0.0,0.1
0.13043478260869565,0.0,0.21739130434782608,That same year a Muslim woman was briefly jailed at a suburban Atlanta Georgia courthouse after refusing to remove her hijab in court,0,0.0,0.08695652173913042,0.0435,0.0
0.0,0.0,0.0,Both are Catholics but from contrasting traditions,1,0.0,0.2857142857142857,0.0,0.0
0.0625,0.0,0.0625,He passed the US medical board exam just six months after being accepted into the program,0,0.0,0.0625,0.0625,0.0
0.15384615384615385,0.0,0.038461538461538464,On LinkedIn where people post resume information we found that people lie less about their past responsibilities and skills than in a traditional paper based resume,1,0.0,0.07692307692307693,0.0385,0.0769
0.0,0.0,0.0625,Like the others he was ordered not to be involved in the safety of film crews,0,0.0625,0.0,0.0,0.0
0.0625,0.0,0.0,I knew the new home at a cost of just 1500 would dramatically change their lives,1,0.0625,0.0625,0.1875,0.0625
0.0,0.0,0.21052631578947367,Obama responded with a 32 page report arguing in part that he has not violated the War Powers Resolution,0,0.05263157894736842,0.10526315789473684,0.0,0.0
0.125,0.0,0.225,In that case two lawyers who argued opposite sides of the landmark 2000 Bush v Gore case which decided that presidential election Republican Ted Olson and Democrat David Boies are united in pushing for legal recognition of same sex marriage,0,0.0,0.0,0.0,0.025
0.0625,0.0,0.125,Italian Andrea Dovizioso was third fastest to join them on the front row on his Yamaha,0,0.0,0.0625,0.0,0.0
0.0,0.09090909090909093,0.09090909090909093,I was really happy with the irons and the wedge play,1,0.09090909090909093,0.0,0.1818,0.0909
0.0,0.0,0.25,Where is the smoking gun the poster asks,1,0.0,0.125,0.0,0.0
0.04166666666666666,0.0,0.125,His new Friday through Sunday gig will allow him to keep his pledge of seeing them off to class until they head to college,1,0.0,0.16666666666666666,0.0833,0.0417
0.0,0.0,0.1,Nolen ran and was arrested after a 12 hour manhunt,0,0.0,0.0,0.0,0.0
0.06896551724137931,0.0,0.06896551724137931,Before the acquisition the accused bank had 35 branches in Lebanon and had grown in recent years from assets of 283 billion in 2005 to 518 billion in 2009,0,0.0,0.03448275862068965,0.0,0.0
0.0,0.0,0.08333333333333333,In the past it has been reported he wore a cyanide capsule around his neck to swallow and kill himself rather than risk capture,0,0.0,0.125,0.0417,0.0833
0.0,0.0,0.15384615384615385,Jack Trammell is the Democrat who no longer has to face Eric Cantor,1,0.07692307692307693,0.15384615384615385,0.0,0.0
0.04166666666666666,0.0,0.25,Ida Odinga the wife of Kenyan leader Raila Odinga has been a champion for female rights in Kenya for more than two decades now,1,0.0,0.04166666666666666,0.0,0.0833
0.0,0.0,0.0,Arraignment is scheduled for Wednesday,0,0.0,0.2,0.0,0.0
0.0,0.0,0.0,I started really well,1,0.25,0.0,0.25,0.25
0.04166666666666666,0.0,0.0,Bachmann seems to be aware of this fact which is why she has assembled a team of veteran political operatives to manage her campaign,0,0.0,0.125,0.0833,0.0
0.1111111111111111,0.0,0.0,A recent survey shows that Romney will be disappointed,1,0.0,0.1111111111111111,0.2222,0.0
0.1111111111111111,0.0,0.037037037037037035,Johnson is shown as a man with ambitious goals and strong arm methods and a cold pragmatism when it came to deciding what could be done when,1,0.0,0.0,0.0,0.1481
0.06666666666666668,0.0,0.0,He reached out to Alcorn to offer his online influence and experience to the effort,0,0.0,0.0,0.0,0.0667
0.0,0.0,0.0,Take your pick,1,0.0,0.3333333333333333,0.0,0.0
0.04,0.0,0.04,People watch from the bridge itself or observe from behind the safety of a drink umbrella at one of the few restaurants with a view,0,0.0,0.0,0.04,0.0
0.0,0.0,0.05882352941176471,Furthermore a commonly distributed app for Android called FaceNiff actually makes hacking possible through the handset itself,0,0.1176470588235294,0.17647058823529413,0.0588,0.0588
0.04166666666666666,0.0,0.0,For US diplomats one of the challenges is to work out what might amount to a real danger and what might be a scam,0,0.0,0.04166666666666666,0.0833,0.0833
0.0,0.0,0.05263157894736842,And Obama could opt to continue a program for some who were brought to the United States as kids,0,0.0,0.05263157894736842,0.0,0.0526
0.17647058823529413,0.0,0.1176470588235294,The Gulf Coast could experience heavy rain and coastal flooding next week as Ida approaches the area,0,0.0,0.05882352941176471,0.0,0.0588
0.045454545454545456,0.0,0.09090909090909093,Director choreographer Adam Shankman has entered a rehab facility but no details have been made public about what treatment he is seeking,0,0.0,0.0,0.0,0.0
0.1111111111111111,0.0,0.07407407407407407,The reasons for taking such a small share of the aviation market have been the same for decades poor infrastructure stalled liberalization high taxes and fuel charges,1,0.0,0.037037037037037035,0.0,0.1111
0.17647058823529413,0.0,0.05882352941176471,Chavez has undergone several surgeries and radiation treatment in Cuba in the past year and a half,0,0.0,0.0,0.0,0.0
0.0625,0.0,0.125,We have seen this self aggrandizing spectacle of people fact checking movies with two recent films,1,0.0,0.1875,0.0625,0.0
0.07142857142857142,0.0,0.0,The meetings which are being held in Cuba are scheduled to resume next week,0,0.0,0.07142857142857142,0.0,0.0
0.25,0.0,0.0,But recycling in Guiyu is dirty dangerous work,1,0.0,0.125,0.0,0.25
0.0,0.0,0.15384615384615385,If you see me in bars in about 10 years time stop me,1,0.0,0.15384615384615385,0.0,0.0
0.0,0.0,0.0,But we also want our leaders to connect the dots,1,0.1,0.2,0.1,0.0
0.0,0.0,0.2,We use the US currency,0,0.0,0.2,0.0,0.0
0.05555555555555555,0.0,0.1111111111111111,The storm is expected to intensify Tuesday as it moves northeast into the Midwest and upper Great Lakes,0,0.05555555555555555,0.05555555555555555,0.0,0.0556
0.0,0.0,0.0,For them the chance to finally be heard benefits the greater good,1,0.08333333333333333,0.16666666666666666,0.0833,0.1667
0.0,0.0,0.16666666666666666,Annie Stephens wrote in a post,0,0.0,0.0,0.0,0.0
0.07142857142857142,0.0,0.0,But I think this will be a big success and get bigger over time,1,0.0,0.0,0.1429,0.1429
0.08,0.0,0.08,For a while he got by with a special setup that triggered a bass drum noise when he hit a certain pad with a drumstick,0,0.0,0.04,0.0,0.08
0.0,0.0,0.0,Snowden seems undeterred by any of these consequences,1,0.0,0.0,0.0,0.0
0.05882352941176471,0.05882352941176471,0.1176470588235294,These days the trend is very much toward professional managers executives who swap industries as they please,1,0.05882352941176471,0.05882352941176471,0.0588,0.1176
0.0,0.0,0.2,The parking lots are underwater,0,0.0,0.0,0.0,0.0
0.0,0.0,0.0,Little is known about what causes TNBC,0,0.0,0.14285714285714285,0.0,0.0
0.1176470588235294,0.0,0.1176470588235294,At less than 7 feet tall it will fit in most garages saving rent on hangar space,0,0.0,0.05882352941176471,0.1176,0.1765
0.0,0.0,0.3076923076923077,The Louisiana Stadium and Exposition District a state agency that oversees the Superdome had approved spending hundreds of thousands of dollars to replace the feeder cables,0,0.0,0.15384615384615385,0.0,0.0
0.18181818181818185,0.0,0.2727272727272727,At one point Democratic Rep Xavier Becerra of California gave the IRS leader friendly advice to take a deep breath before speaking,1,0.0,0.045454545454545456,0.0455,0.1364
0.03225806451612903,0.0,0.0967741935483871,After the parliamentary votes Berlusconi will tender his resignation to President Giorgio Napolitano who will then begin consultations with lawmakers to decide whether to form a government or call for elections,0,0.03225806451612903,0.16129032258064516,0.0645,0.0968
0.06666666666666668,0.0,0.06666666666666668,Children with the disorder show impairment in social interaction and in their ability to communicate,0,0.0,0.0,0.0,0.2
0.0,0.0,0.3076923076923077,The case is under investigation by Homeland Security Investigations a unit within ICE,0,0.0,0.07692307692307693,0.0,0.0
0.09523809523809523,0.0,0.0,She worries about meeting her basic needs during her later years and thinks about selling her house to finance her expenses,0,0.0,0.09523809523809523,0.0476,0.0952
0.07692307692307693,0.0,0.07692307692307693,But the Christian Coalition of America is urging members to oppose the advertisements,0,0.0,0.15384615384615385,0.0769,0.0
0.1111111111111111,0.05555555555555555,0.05555555555555555,The remaining 20 percent mostly sensitive items like weapons ammunition and other critical equipment comes in by air,0,0.0,0.05555555555555555,0.1667,0.1111
0.0,0.0,0.0,They argued the GOP still had some leverage to force a change to Obamacare on that measure,0,0.05882352941176471,0.17647058823529413,0.0,0.1765
0.0,0.0,0.1111111111111111,He wrote the book by blinking his left eyelid,0,0.0,0.2222222222222222,0.0,0.0
0.3125,0.125,0.4375,Just sweet Miley Cyrus her soul patched dad and the huge Disney movie machine humming along,1,0.0,0.0625,0.0,0.125
0.0,0.0,0.0,They have been suspended by FIFA and are due in court later this month,0,0.0,0.07142857142857142,0.0714,0.0
0.1282051282051282,0.0,0.1794871794871795,Its long term publishing and political impact are unknown for now though as Palin moves out of the mainstream media monster publicity machine and into more hospitable relevant political terrain the prospects for success on both fronts improve exponentially,1,0.02564102564102564,0.0,0.1026,0.1026
0.0,0.25,0.0,It was quite impressive,1,0.25,0.0,0.5,0.0
0.0,0.0,0.1176470588235294,Alto Hospicio is about a mile from Iquique 60 miles southeast from the epicenter of the quake,0,0.0,0.0,0.0,0.0
0.06896551724137931,0.03448275862068965,0.06896551724137931,Some guys had recipes that you could mix together two or three MREs and have a pretty good meal if you had heat and the time to cook it,1,0.03448275862068965,0.10344827586206896,0.0345,0.069
0.0,0.0,0.0,For the record no one has ever or will ever speak for me but me,1,0.13333333333333333,0.06666666666666668,0.0667,0.0
0.0,0.0,0.0,There are other sobering statistics to consider,1,0.0,0.14285714285714285,0.2857,0.0
0.0,0.0,0.04,Cash for Clunkers actually helps all of us even those of us who do not participate in the program or work in the auto industry,1,0.08,0.0,0.04,0.04
0.0,0.0,0.0,This applies equally to China now,1,0.16666666666666666,0.0,0.0,0.0
0.07407407407407407,0.0,0.14814814814814814,After its declaration of autonomy Barzani accused the PYD of being in league with al Assad and of wrecking a golden opportunity for Kurdish unity in Syria,1,0.0,0.07407407407407407,0.037,0.0741
0.043478260869565216,0.0,0.17391304347826084,She had a six figure salary as an executive with Wells Fargo a Jaguar and a three bedroom house in sunny Southern California,0,0.0,0.0,0.0,0.0435
0.0,0.0,0.07142857142857142,The parents have denied the allegations in the lawsuit and called the case baseless,0,0.0,0.14285714285714285,0.1429,0.0
0.04651162790697674,0.0,0.16279069767441862,With Spain straining to recapitalise its banks and Greek reforms in doubt Downing Street on Wednesday signalled that Mr Cameron would use his Berlin visit to urge Ms Merkel to take quick steps to pull the eurozone back from the brink of disaster,1,0.0,0.11627906976744184,0.0698,0.0698
0.08108108108108109,0.0,0.027027027027027032,In a perfect world a woman suffering from cancer should be able to get a prescription from her doctor go to a pharmacy acquire her medical marijuana go home and recuperate from her last round of chemotherapy,1,0.0,0.08108108108108109,0.0541,0.0811
0.0,0.0,0.3333333333333333,Across Fukushima prefecture crews are scraping away contaminated soil acre by acre,0,0.3333333333333333,0.3333333333333333,0.0,0.0
0.05882352941176471,0.029411764705882356,0.029411764705882356,This would have been the very first good reason for the midfielder to avoid celebrating his goal in the Super League in the style he did but unfortunately for him there were several more,1,0.0,0.029411764705882356,0.0294,0.1471
0.16666666666666666,0.0,0.2222222222222222,A new report on high school dropouts in the United States calls for a national re enrollment strategy,0,0.0,0.0,0.0,0.0556
0.05555555555555555,0.0,0.05555555555555555,YouTube which allows users to upload and share videos has been banned periodically in other countries as well,0,0.05555555555555555,0.1111111111111111,0.0,0.0556
0.0,0.0,0.14285714285714285,Kim Sung do is 71 years old,0,0.0,0.14285714285714285,0.0,0.0
0.07142857142857142,0.0,0.03571428571428571,Even if you live in the middle of the city you can get to a forest in a short time but you still have that big city feeling,1,0.03571428571428571,0.0,0.0357,0.1071
0.037037037037037035,0.0,0.14814814814814814,Apple CEO Steve Jobs wanted to provide the best experience for the user and so the Apple logo was initially placed to be upside down to onlookers,0,0.07407407407407407,0.0,0.0741,0.0741
0.0,0.0,0.2,Concrete details are not forthcoming,1,0.2,0.0,0.0,0.0
0.1875,0.0,0.0625,The political forces that generate partisan conflict in Washington are deeply rooted and hard to change,1,0.0625,0.0,0.125,0.125
0.08,0.04,0.08,Without the skill and experience that actual spacecraft operation provides the USA is far too likely to be on a long downhill slide to mediocrity,1,0.08,0.04,0.12,0.12
0.0,0.0,0.16666666666666666,The bombing killed 17 US sailors,0,0.0,0.16666666666666666,0.0,0.0
0.14285714285714285,0.0,0.0,After the surgery little Noah improved quickly,0,0.14285714285714285,0.0,0.1429,0.1429
0.0,0.0,0.19230769230769232,Within hours of the quake the volunteers became de facto nursing assistants after word spread that Maison De Lumiere was serving as a makeshift triage center,0,0.0,0.0,0.0,0.0
0.043478260869565216,0.0,0.043478260869565216,The hair had a dark band that Lowe testified has only been seen in hairs remaining in the scalp of a decomposing body,0,0.043478260869565216,0.043478260869565216,0.0,0.0435
0.07142857142857142,0.0,0.07142857142857142,Along with a GAO representative the hearing invited testimony from the Pentagon and the Department of Veterans Affairs a professor and an official from the Disabled American Veterans,0,0.0,0.0,0.0,0.0
0.0,0.05882352941176471,0.029411764705882356,Due to combat injuries remains are often difficult to identify and officials have long acknowledged that Dover does retain some human remains and parts that are so damaged they are not possible to identify,0,0.17647058823529413,0.17647058823529413,0.0294,0.0882
0.0,0.0,0.0,We need him to recover to set an example for the world of how a man can mark his 90th,1,0.0,0.1,0.05,0.05
0.06666666666666668,0.0,0.06666666666666668,The Colombian president offered a reward equal to 2600 for information that allows authorities to identify and capture those responsible for the acts of vandalism and attacks against security forces,0,0.0,0.03333333333333333,0.0333,0.1
0.03333333333333333,0.0,0.03333333333333333,There seems to be little worry among unit leaders in the 3 2nd LAR who have been training and watching their troops grow in skills and confidence in recent months,1,0.0,0.06666666666666668,0.1,0.0
0.08888888888888889,0.0,0.04444444444444445,In exchange the organization not only helps to shape young minds to further the cause but gets written agreement from the local community to set aside a patch of land for conservation purposes a stretch that will be free form hunting logging and unplanned agriculture,1,0.022222222222222227,0.06666666666666668,0.0222,0.0667
0.05555555555555555,0.0,0.05555555555555555,They are both Hazaras Persian speaking ethnic Afghans who over the years have been persecuted and discriminated against,0,0.0,0.05555555555555555,0.0,0.0556
0.0,0.0,0.13333333333333333,It is available on the PC PlayStation 3 Xbox 360 Wii Nintendo 3DS and PSP,0,0.0,0.0,0.0,0.0
0.2,0.0,0.36,British designer Stuart Haygarth created a light sculpture out of palm leaves with the help of Emirati artisans at the recent Abu Dhabi Art Fair,0,0.0,0.0,0.0,0.08
0.047619047619047616,0.0,0.14285714285714285,The military government in Myanmar held Suu Kyi under house arrest from 1989 to 1995 and again from 2000 to 2002,0,0.0,0.047619047619047616,0.0,0.0
0.0,0.0,0.2727272727272727,Opening his computer he showed me page after page of abuse,1,0.0,0.2727272727272727,0.0909,0.0
0.0625,0.0,0.0625,If the challenge results in a call being overturned the manager is granted a second challenge,0,0.0,0.0625,0.0,0.125
0.0,0.0,0.2222222222222222,He is approaching a margin of support last seen by Republican Ronald Reagan in his 1984 re election,0,0.0,0.1111111111111111,0.0556,0.0
0.0,0.0,0.08333333333333333,The sticking points involve how much to spend on what as well as the broader policy issue of who gets deported and how fast,1,0.0,0.0,0.0,0.125
0.07142857142857142,0.0,0.0,He hid it at first but I soon realized Barco was in immense pain,1,0.07142857142857142,0.14285714285714285,0.0714,0.0714
0.06896551724137931,0.0,0.2413793103448276,Shriners Hospitals is a health care system that gives children free treatment for burns spinal cord injuries orthopedic conditions and cleft lip and palate according to its Web site,0,0.0,0.10344827586206896,0.0,0.069
0.07692307692307693,0.0,0.07692307692307693,It is favored by the military for its fire resistant and breathable properties,0,0.0,0.0,0.0,0.1538
0.07692307692307693,0.0,0.2307692307692308,England batsman Alastair Cook was announced as the best player of the series,0,0.0,0.0,0.0769,0.0769
0.0,0.0,0.0,Washington has been pressing Beijing to allow its currency to appreciate more freely,1,0.0,0.15384615384615385,0.1538,0.0769
0.19230769230769232,0.15384615384615385,0.15384615384615385,Since its foundation in 2006 the Swedish Pirate Party has inspired officially registered sister parties in six countries including Austria the Czech Republic France and Spain,1,0.07692307692307693,0.038461538461538464,0.0,0.0
0.1875,0.0,0.0625,It has the longest drop the steepest drop and goes faster than any other wooden coaster,0,0.0,0.0,0.0,0.0
0.08,0.04,0.04,Colorful and simple but with an anemic selection of apps Windows Phone 8 has struggled but slowly grown since making its debut a year ago,1,0.0,0.04,0.0,0.12
0.125,0.0,0.16666666666666666,The agency has been working to get refugees out of conflict zones and to provide them with safe drinking water sanitation and critical supplies,0,0.0,0.08333333333333333,0.0417,0.0833
0.0,0.16666666666666666,0.0,Oftentimes the violence is not incidental,1,0.16666666666666666,0.0,0.0,0.0
0.0,0.0,0.09090909090909093,I like to think that the paths of innovation are convergent,1,0.0,0.0,0.1818,0.0909
0.04166666666666666,0.0,0.04166666666666666,The airport expects a new Terminal 4 opening in 2017 for Cathay Pacific and Jewel in 2018 to bring 85 million passengers a year,0,0.0,0.0,0.0,0.0
0.0,0.0,0.0967741935483871,These numbers could represent an increase in use among Americans or simply an increase in the number of people who felt OK reporting use of the drug on a national survey,1,0.0,0.0967741935483871,0.0323,0.0645
0.06666666666666668,0.0,0.0,They began adding new posts about the relationship only after the 40 days were up,0,0.0,0.0,0.0,0.0
0.1,0.05,0.15,Director Paul Crowder vividly recalls his teenage self watching F1 during the 1970s in an almost permanent state of disbelief,1,0.05,0.15,0.05,0.0
0.1,0.0,0.1,Many people appeared to be suffering from the tear gas,1,0.0,0.0,0.1,0.0
0.0,0.125,0.0,Technicians determined that the gunpowder was still active,0,0.125,0.0,0.0,0.25
0.0,0.16666666666666666,0.0,I just love you so much,1,0.16666666666666666,0.16666666666666666,0.3333,0.3333
0.0,0.0,0.0,They were right and I was wrong,1,0.0,0.0,0.1429,0.1429
0.1,0.0,0.0,The main thing is she wanted everyone to feel good,1,0.0,0.2,0.1,0.1
0.1875,0.0,0.125,At 76 Thad Cochran is the second oldest Senate incumbent running for re election this year,0,0.0,0.0,0.0,0.0
0.0,0.0,0.0625,Motorists should stop topping off their tank and only pump the amount of gas they need,1,0.0625,0.125,0.0625,0.0625
0.0,0.0,0.15789473684210525,A Guatemalan newspaper reported Thursday that an FBI agent had arrived in the country in connection with the investigation,0,0.0,0.05263157894736842,0.0,0.0
0.0,0.0,0.09523809523809523,And the president has shown no sign that he will accede to demands that he stand down and quit the country,1,0.0,0.14285714285714285,0.0952,0.1905
0.125,0.0,0.0,Certainly the 9 11 attacks warranted great attention,1,0.0,0.0,0.125,0.0
0.03225806451612903,0.0,0.0967741935483871,The Peach State is one of the few opportunities Democrats see as a race in which they could pick up a Senate seat and help maintain their majority in the chamber,1,0.0,0.03225806451612903,0.0,0.0645
0.0,0.0,0.0625,The Senate debate is scheduled to last three days with a vote expected late on Thursday,0,0.0625,0.0,0.0625,0.0
0.03333333333333333,0.0,0.2,Benedict will keep working until February 28 meeting with pastors from Rome Italian bishops and the visiting presidents of Romania Guatemala and other countries according to the Vatican press office,0,0.0,0.06666666666666668,0.0333,0.0333
0.2222222222222222,0.0,0.16666666666666666,Ticketmaster pioneered online ticket sales a modern convenience that did away with long lines at the box office,1,0.05555555555555555,0.0,0.0556,0.0556
0.06666666666666668,0.0,0.2,Investigating Judge Pablo Ruz ruled Sunday there was sufficient evidence to unconditionally detain both men,0,0.06666666666666668,0.26666666666666666,0.0,0.0667
0.0,0.0,0.06666666666666668,But maybe it all comes back to likability something that Obama easily outranks Romney on,1,0.13333333333333333,0.06666666666666668,0.0667,0.1333
0.043478260869565216,0.0,0.13043478260869565,Liverpool manager Rafael Benitez saw his team concede a quartet of sloppy goals but he could not fault their commitment to the cause,1,0.043478260869565216,0.13043478260869565,0.1304,0.087
0.05555555555555555,0.0,0.1111111111111111,Some 1500 fuel units to be exact rest in a cooling pool within the damaged Reactor 4 building,0,0.0,0.05555555555555555,0.0556,0.0
0.08333333333333333,0.0,0.125,Exports of tea coffee vegetables and flowers are big earners for the country with agriculture making up about a fifth of the total economy,0,0.0,0.0,0.0,0.0417
0.14285714285714285,0.0,0.14285714285714285,The US enacted prohibitive tariffs during the Great Depression and many trading partners retaliated,0,0.0,0.0,0.0,0.0714
0.1111111111111111,0.0,0.2962962962962963,The bodies of Jaime Suarez Vazquez and Juan Suarez Sanchez deputy public investigator and secretary of public safety in San Fernando Tamaulipas were found in early September,0,0.0,0.0,0.0,0.0
0.16666666666666666,0.0,0.0,Bynes had quite a bit of legal trouble and some bizarre tweets in which she attacked fellow celebs,1,0.05555555555555555,0.0,0.1667,0.0
0.125,0.0,0.0,Occupying Crimea and raising tensions in eastern Ukraine to prevent Ukraine from moving toward more Western influence is a top priority for the Kremlin,1,0.0,0.125,0.0417,0.0833
0.0,0.0,0.1,They owned a handful of newspapers and opinion magazines and if they combined their audiences they could match perhaps a tenth of the audience of just one television news network,0,0.03333333333333333,0.06666666666666668,0.1,0.0333
0.030303030303030307,0.0,0.15151515151515152,Designed by floating architecture specialists Dutch Docklands the proposed site is just a five minute speedboat ride from Maldives capital Male and will offer 27 holes of golf set upon three interlinked islands,0,0.030303030303030307,0.09090909090909093,0.0606,0.0
0.125,0.0,0.0,The cost was covered by a federal grant,0,0.0,0.0,0.0,0.0
0.0,0.0,0.25,Hunt Vasquez kept searching,0,0.0,0.0,0.0,0.0
0.125,0.0,0.08333333333333333,According to market research shoppers preferred Italian and Spanish oils despite 80 of Greek olive oil being extra virgin compared to 45 in Italy,0,0.0,0.04166666666666666,0.0417,0.0
0.0,0.0,0.0,Some of the kidnappers jumped into the water recaptured Phillips and returned him to the lifeboat according to the official,0,0.0,0.1,0.0,0.0
0.05263157894736842,0.0,0.15789473684210525,The Bill and Melinda Gates Foundation last year awarded a 100000 grant to fund the development of graphene prophylactics,0,0.0,0.05263157894736842,0.0,0.0
0.0,0.0,0.0,It is also Iran that paved roads and built bridges,0,0.1,0.3,0.0,0.0
0.03125,0.0,0.125,Richard Cohen told CNN that authorities received a tip Sunday suggesting that another car was at the scene racing the Porsche when it slammed into a light pole and burst into flames,0,0.0,0.09375,0.0,0.0312
0.045454545454545456,0.0,0.045454545454545456,Stefansson who represented Iceland in 330 matches wants to ingrain a similar understanding of going beyond the boundaries to his Valur charges,0,0.0,0.045454545454545456,0.0,0.0455
0.043478260869565216,0.0,0.08695652173913042,On Wednesday Senate Republicans promised to block every legislative action until the Senate had moved to fund the government and extend tax cuts,0,0.0,0.08695652173913042,0.0,0.0435
0.04166666666666666,0.0,0.20833333333333331,The mall attack is the deadliest terror attack in Kenya since al Qaeda blew up the US Embassy there in 1998 killing 213 people,0,0.0,0.04166666666666666,0.0417,0.0833
0.125,0.0,0.0,One could also argue that such arguments stretch the logic to an absurd and inapplicable extreme,1,0.0625,0.0625,0.1875,0.1875
0.07692307692307693,0.0,0.038461538461538464,At a time when his friends are settled down with families the original surfing pin up boy is still scoring perfect 10s on the international circuit,1,0.038461538461538464,0.0,0.0385,0.1538
0.0,0.0,0.2352941176470588,The affidavits also indicated Billie Dunn and Adkins made ATM withdrawals on December 27 to purchase drugs,0,0.1176470588235294,0.29411764705882354,0.0,0.0
0.0,0.0,0.07692307692307693,The opinions expressed in this commentary are solely those of Jean François Julliard,0,0.07692307692307693,0.0,0.0769,0.0
0.07692307692307693,0.0,0.0,Britain is in an uproar over the scandal which could have global implications,1,0.0,0.0,0.0769,0.1538
0.0,0.0,0.06666666666666668,Chamblee debated the issue on his Twitter account where he denied calling Woods a cheat,0,0.0,0.13333333333333333,0.0667,0.0
0.08333333333333333,0.0,0.16666666666666666,This service supports in store tap to pay payments from your phone via near field communications technology as well as purchases on the web,0,0.0,0.08333333333333333,0.0,0.0417
0.1,0.06666666666666668,0.3,With genuinely top class players such as Eden Hazard Thibaut Courtois and Vincent Kompany in the squad this was a quality of opposition Argentina had yet to face this tournament,1,0.03333333333333333,0.06666666666666668,0.0333,0.0667
0.07407407407407407,0.0,0.14814814814814814,During his speech Obama touted changes in the health care system already passed in his month old administration as part of The American Recovery and Reinvestment Act,1,0.037037037037037035,0.037037037037037035,0.0,0.037
0.05882352941176471,0.0,0.2352941176470588,The towering San Francisco peaks near Flagstaff were a highlight of the dramatic scenery along our route,1,0.0,0.17647058823529413,0.1176,0.0
0.047619047619047616,0.0,0.047619047619047616,One of those included a 2008 case in which an employee solicited a prostitute who was actually an undercover police officer,0,0.047619047619047616,0.047619047619047616,0.0476,0.0
0.05,0.0,0.25,Heaney died in Dublin Ireland after a short illness the publishing house Faber  Faber announced on behalf of his family,0,0.0,0.1,0.0,0.05
0.0,0.0,0.0,Curtis leaves a wife and four sons ages 9 6 5 and 8 months,0,0.0,0.07142857142857142,0.0,0.0
0.0,0.0,0.14285714285714285,Neither man could be reached by CNN on Friday for comment on the charges,0,0.0,0.07142857142857142,0.0,0.1429
0.0,0.0,0.125,But Carlos left his at the Olympic village,0,0.0,0.0,0.0,0.0
0.06666666666666668,0.0,0.13333333333333333,Ramstad had worked with Kennedy on mental health legislation but was not a close confidant,0,0.06666666666666668,0.06666666666666668,0.0,0.0667
0.029411764705882356,0.0,0.08823529411764706,In an address to Parliament that lasted nearly 30 minutes Poroshenko 48 frequently returned to the theme of peace security and independence for Ukraine and vowed to preserve the territorial integrity of the country,0,0.05882352941176471,0.0,0.0294,0.0882
0.125,0.0,0.0,The two charities gave sizeable funds to CAGE,0,0.0,0.0,0.0,0.0
0.0,0.0,0.0,Twelve years down the road,0,0.0,0.0,0.0,0.2
0.03225806451612903,0.0,0.0967741935483871,Never quite at ease in these situations Clinton milled about for five minutes or so keeping a few feet between herself and the press before walking back into the secure barn,1,0.06451612903225806,0.0,0.0323,0.1613
0.05882352941176471,0.1176470588235294,0.05882352941176471,The game and its players are also socially aware of causes and needs in real life communities,0,0.1176470588235294,0.0,0.0588,0.1765
0.09090909090909093,0.0,0.0,Acupuncture is one of the most widespread of all traditional treatments,0,0.0,0.0,0.0,0.2727
0.0,0.0,0.04166666666666666,If we had bothered to recognize how close our worlds are it would be harder for people to dismiss places like the South Bronx,1,0.0,0.08333333333333333,0.0417,0.0833
0.0,0.0,0.18421052631578946,In the Meiktila clashes which were reportedly set off by a dispute between a Muslim gold shop owner and two Buddhist sellers rioters set fire to houses schools and mosques prompting thousands of residents to flee their homes,0,0.02631578947368421,0.07894736842105263,0.0263,0.0263
0.14285714285714285,0.0,0.21428571428571427,It is the second time North Korea has canceled a planned visit by King,0,0.0,0.07142857142857142,0.0,0.0
0.125,0.0,0.0,As we went out a second car came,0,0.0,0.0,0.0,0.0
0.05882352941176471,0.0,0.05882352941176471,Internet access in Syria was restored Wednesday after a widespread outage that lasted more than 19 hours,0,0.0,0.05882352941176471,0.0,0.0588
0.030303030303030307,0.0,0.09090909090909093,He was sentenced in July to 18 months of probation and a 60 day suspended sentence after a bench trial he has appealed that ruling and a jury trial is scheduled for November,0,0.0,0.12121212121212123,0.0,0.0606
0.07317073170731707,0.0,0.17073170731707318,Clinton and Rep Sheila Jackson Lee who worked together to draft legislation to commission the bust were among speakers who paid tribute to the late C Delores Tucker former chairwoman of the NCBW who spearheaded the effort for the Truth memorial,0,0.024390243902439025,0.0975609756097561,0.0244,0.0
0.1,0.0,0.0,A deadly virus anywhere is a threat to everywhere now,1,0.0,0.1,0.1,0.2
0.125,0.04166666666666666,0.08333333333333333,So throw needless caution to the wind and snip the tags on scarves sheer blouses and any other wardrobe piece with an unsightly label,1,0.0,0.08333333333333333,0.0417,0.0833
0.0,0.0,0.125,Winds weakened to 50 mph by Wednesday night,0,0.0,0.0,0.0,0.0
0.04,0.0,0.08,He stayed in the Air Force until 1979 then spent a few years in the electronics business before opening a bar and doing some accounting,0,0.04,0.08,0.0,0.04
0.038461538461538464,0.0,0.15384615384615385,The worst violence in decades took place in July 2009 when rioting in Urumqi between Uyghurs and Han Chinese killed some 200 people and injured 1700,0,0.0,0.07692307692307693,0.0385,0.0
0.07407407407407407,0.0,0.25925925925925924,A Turkish Prime Ministry source told CNN that Boumeddiene entered Turkey on January 2 arriving at the Istanbul airport on a flight from Madrid with a man,0,0.0,0.07407407407407407,0.0,0.0
0.1,0.05,0.0,However there are few programs to help them when they are too old to receive therapies through the educational system,0,0.05,0.1,0.0,0.15
0.05555555555555555,0.05555555555555555,0.0,While I hope that this new recommendation will put an end to mass screening I am not optimistic,1,0.05555555555555555,0.1111111111111111,0.1667,0.0556
0.05555555555555555,0.0,0.2222222222222222,His last theater performance came this year as a member of the Antaeus Theatre Company of Los Angeles,0,0.0,0.05555555555555555,0.0,0.0
0.0,0.0,0.18181818181818185,There are also caskets shaped like Coca Cola bottles and airplanes,0,0.09090909090909093,0.18181818181818185,0.0909,0.0
0.05555555555555555,0.0,0.05555555555555555,Both the attacks Monday took place during the overnight hours that previously would have been subject to curfew,0,0.0,0.05555555555555555,0.0,0.0556
0.045454545454545456,0.0,0.0,It cost more than 20 million to build and every British soldier serving in Afghanistan will do his or her training here,0,0.0,0.045454545454545456,0.0455,0.0
0.0,0.0,0.2777777777777778,UMES Campus Police Chief Ernest Leatherbury noted the board which weighs less than 4 pounds is user friendly,0,0.0,0.05555555555555555,0.0556,0.0556
0.09523809523809523,0.047619047619047616,0.07142857142857142,Nicholson admitted as much in November when 21 months after being indicted again he pleaded guilty to conspiracy to act as an agent of a foreign government and conspiracy to commit international money laundering as part of an agreement with federal prosecutors,0,0.047619047619047616,0.023809523809523808,0.0,0.119
0.09090909090909093,0.0,0.0,The wealthy stay wealthy by extracting value instead of creating it,1,0.0,0.18181818181818185,0.0,0.2727
0.0,0.0,0.08333333333333333,The flight attendant had asked them if the plane was in Houston,0,0.0,0.16666666666666666,0.0,0.0
0.06666666666666668,0.0,0.06666666666666668,Residents of Mpeketoni are now left to piece together what remains of their small town,1,0.13333333333333333,0.0,0.0,0.0
0.05263157894736842,0.0,0.2368421052631579,Like those discussions the current talks involve delegations from Iran and the five permanent members of the UN Security Council the United States Russia China Great Britain and France plus Germany in what is known as the P51,0,0.0,0.02631578947368421,0.0,0.0
0.0,0.0,0.08333333333333333,Her Oscar represents the only one ever won by a Hitchcock film,0,0.08333333333333333,0.0,0.0,0.0
0.0,0.0,0.0,Alcohol was never my thing,1,0.2,0.0,0.0,0.0
0.03448275862068965,0.0,0.13793103448275862,They gained media attention and reminded everyone of their cohesion weeks after reports that the TTP was in disarray after a major faction split from the group in May,1,0.0,0.10344827586206896,0.0345,0.1034
0.0,0.0,0.1724137931034483,Wolff was watched late on in the test by her husband Toto Wolff who is a minority shareholder in the Williams team and director of the Mercedes F1 team,0,0.03448275862068965,0.03448275862068965,0.0,0.0
0.045454545454545456,0.0,0.13636363636363635,In New York a campaign to win similar legislation in that scandal ridden state is just a handful of votes from passage,1,0.045454545454545456,0.0,0.0455,0.0455
0.0,0.0,0.0,And I love Kim and I wanted her to be in this movie,1,0.0,0.15384615384615385,0.0769,0.0
0.038461538461538464,0.0,0.038461538461538464,Barca will pay an initial 20 million for the 20 year old forward who will undergo a medical on Friday and sign a five year contract,0,0.0,0.0,0.0769,0.0
0.1111111111111111,0.0,0.16666666666666666,Historically there is a long legacy of military involvement in infrastructure projects going back to the Roman days,1,0.05555555555555555,0.0,0.0556,0.1111
0.1,0.0,0.1,Earlier celebrations of Dionysus probably lent it a wild edge,1,0.1,0.1,0.0,0.1
0.0625,0.0,0.0,The images depicted a young lady feeding Keisuke and even lovingly wiping ketchup from his face,1,0.125,0.125,0.0,0.0625
0.0,0.0,0.05,The things she did may have been necessary but the way that she did them cleaved the country in two,1,0.0,0.1,0.0,0.05
0.06666666666666668,0.0,0.06666666666666668,There are no formal penalties for those who do not get the vaccine but people in the military are required to receive it according to the American Forces Press Service,0,0.06666666666666668,0.06666666666666668,0.0,0.0
0.07692307692307693,0.07692307692307693,0.0,Such stories do not just erase the victims they are also generally inaccurate,1,0.38461538461538464,0.07692307692307693,0.1538,0.0769
0.2307692307692308,0.0,0.0,Over the past week at least three noteworthy tales surfaced at separate airports,1,0.0,0.0,0.0769,0.0769
0.07407407407407407,0.0,0.3333333333333333,Sixteen Palestinian men some with ties to convicted terrorists were indicted Thursday in the alleged scheme that spans New York Maryland Delaware Virginia and New Jersey states,1,0.0,0.14814814814814814,0.0,0.037
0.0967741935483871,0.0,0.16129032258064516,The 33 year old Pulitzer Prize winning journalist has written and directed a powerful film about the immigration debate a broken system the separation of families and his own life story,1,0.0,0.03225806451612903,0.0323,0.0323
0.07692307692307693,0.0,0.0,It has built a reusable spacecraft and flown it more than 100 times,0,0.0,0.07692307692307693,0.0,0.0
0.125,0.04166666666666666,0.16666666666666666,Amateur video shot by demonstrators showed clashes and a number of protesters with serious and possibly fatal injuries including some with apparent gunshot wounds,0,0.0,0.04166666666666666,0.0417,0.1667
0.08333333333333333,0.0,0.0,With that wake up call people took the forecasts seriously this time,1,0.0,0.08333333333333333,0.0833,0.0
0.07692307692307693,0.0,0.0,Thus the incipient canonization of these two popes does stand out as unusual,1,0.0,0.0,0.0,0.1538
0.0,0.0,0.0,White or beige they blend into the wall and only get noticed when someone needs to change the temperature,1,0.05263157894736842,0.10526315789473684,0.0,0.0526
0.0,0.0,0.4,Voters will elect governors in the states of Chiapas Guanajuato Jalisco Morelos Tabasco and Yucatan,0,0.0,0.06666666666666668,0.0667,0.0
0.5,0.0,0.0,Local residents resented such special treatment,1,0.0,0.0,0.0,0.3333
0.07407407407407407,0.0,0.07407407407407407,Today animals remain the biggest users of the Hanging Bridge of Ghasa prodded along by the farmers who also use it to deliver produce to local families,0,0.07407407407407407,0.037037037037037035,0.0,0.0
0.0,0.0,0.1176470588235294,And they along with the choices people in Mexico make are no doubt part of the story,1,0.0,0.05882352941176471,0.0588,0.0
0.0,0.0,0.0,Unquestionably,1,0.0,0.0,0.0,0.0
0.0,0.0,0.1,Before the race at the Sepang Circuit teams drivers and officials are planning a host of tributes to the passengers,0,0.0,0.1,0.0,0.0
0.07142857142857142,0.0,0.0,This time he waived his right to an attorney and wrote a detailed confession,0,0.0,0.07142857142857142,0.1429,0.0
0.0,0.0,0.07142857142857142,Sandusky 68 had faced the possibility of up to a 400 year prison term,0,0.0,0.07142857142857142,0.0,0.1429
0.0,0.0,0.05263157894736842,The movement has met with congressmen and senators with Calderon and with the candidates who competed to succeed him,0,0.0,0.10526315789473684,0.0,0.0526
0.0,0.0,0.17391304347826084,Russia is pouring resources into ensuring that the Olympic Games seen as a flagship project of President Vladimir Putin go off without problems,1,0.0,0.043478260869565216,0.0,0.0435
0.08695652173913042,0.0,0.13043478260869565,In the early hours of June 17 2013 Odin Lloyd was gunned down near a pile of construction waste in an industrial park,0,0.0,0.0,0.0,0.087
0.14285714285714285,0.0,0.0,His body was found the next day,0,0.0,0.0,0.0,0.0
0.09375,0.03125,0.0,The issue touches on flashpoints old and new between the administration and its critics especially conservative Republicans seeking to depict Obama as a weak leader driven by political concerns for his legacy,1,0.0,0.0625,0.125,0.0938
0.0,0.0,0.32,Instead of using paper tickets to pass through a barrier passengers would used an RFID radio frequency identification system to transfer from tram to train,0,0.0,0.12,0.0,0.04
0.0,0.0,0.0,And 34 hours later it was still out,0,0.125,0.0,0.0,0.125
0.0,0.0,0.0,She had one adopted son according to the ministry,0,0.0,0.1111111111111111,0.0,0.0
0.1,0.0,0.1,Samson was recently served with a subpoena in the George Washington Bridge case by an investigative committee seeking relevant documents,0,0.05,0.0,0.0,0.05
0.0,0.0,0.2352941176470588,Meanwhile Marbaix studied zoology at Royal Holloway University of London and somehow fell in love with photography,1,0.05882352941176471,0.17647058823529413,0.1176,0.0
0.037037037037037035,0.0,0.1111111111111111,The meeting is the first leg of a tour of the Middle East and Asia by Kerry that will include visits to US allies Israel and India,0,0.0,0.07407407407407407,0.037,0.0
0.0,0.0,0.0,Of course,1,0.0,0.0,0.0,0.0
0.07142857142857142,0.0,0.07142857142857142,During the career week students will visit businesses and prospective employers will visit classrooms,0,0.0,0.07142857142857142,0.1429,0.0
0.043478260869565216,0.0,0.0,Lackay indicated that the ship had complied with South African regulations requiring it to disclose the contents of the cargo it is carrying,0,0.0,0.08695652173913042,0.0,0.0
0.0625,0.0,0.1875,Sign designers really created some beautiful and unique works in the years before World War II,1,0.0625,0.0,0.125,0.0625
0.075,0.0,0.275,GOP critics believe Rice was shielding Obama at the height of his re election campaign during which there were times that he trumpeted US successes in combating terrorism including the death of al Qaeda leader Osama bin Laden in 2011,1,0.0,0.15,0.05,0.05
0.16,0.04,0.24,This past year President Obama illegally began a war with Libya taking sides with the rebels to unseat an admittedly bad man in Moammar Gadhafi,1,0.04,0.12,0.08,0.08
0.0,0.0,0.08333333333333333,Others however believe equally strongly that now that the material is out news media and website owners have the right to publish the material,1,0.08333333333333333,0.125,0.0833,0.0417
0.05882352941176471,0.0,0.05882352941176471,Slager has been fired and charged with murder in the death of 50 year old Walter Scott,0,0.0,0.05882352941176471,0.0,0.1176
0.15384615384615385,0.0,0.07692307692307693,I have tried new activities and pushed myself beyond my physical comfort zone,1,0.0,0.07692307692307693,0.0,0.0769
0.0,0.0,0.0,Instead it paid him 40000 to quit his job,0,0.0,0.2222222222222222,0.0,0.1111
0.04166666666666666,0.0,0.08333333333333333,My son just got picked by the Air National Guard to fly F 15s so the aviation legacy is continuing into the third generation,0,0.04166666666666666,0.04166666666666666,0.0417,0.0833
0.14285714285714285,0.020408163265306117,0.12244897959183673,The one time king of the copper market would have Sumitomo buy huge quantities of copper and store it for awhile in order to create an artificial shortage of the precious metal thus driving up demand before releasing smaller amounts of copper on commodities markets at extremely high prices,1,0.020408163265306117,0.040816326530612235,0.0816,0.102
0.02325581395348837,0.0,0.09302325581395347,Yet by 2007 barely four years after what should have been the luckiest day of his life Whittaker was a broken down man who had lost his granddaughter to drugs and who had a reputation for DUIs frequenting strip clubs and getting robbed,1,0.0,0.09302325581395347,0.0233,0.093
0.045454545454545456,0.0,0.022727272727272728,Samoa and Tokelau historically the last to celebrate the new year reveled in being the first to party this time round after skipping west across the international dateline missing out on December 30 entirely in the process in a move intended to boost trade,1,0.0,0.022727272727272728,0.0455,0.0455
0.04878048780487805,0.0,0.0975609756097561,But even with progress in Iraq the United States and its friends cannot contain the Islamic State for long when it has a vast safe zone in Syria into which its fighters can fall back to rest regroup and fight again,0,0.04878048780487805,0.07317073170731707,0.0244,0.1951
0.1,0.0,0.1,But while this is a substantial amount it will very quickly be surpassed by the costs of US military operations,1,0.05,0.0,0.05,0.1
0.0,0.0,0.20833333333333331,In fact I would make the argument that—after watching the debt ceiling debacle—it would be strange to feel anything other than disrespect for Washington,1,0.0,0.125,0.1667,0.125
0.0,0.0,0.08,Horrifying images from the scene showed panicked men women and children pushed and trampled with nowhere to go as police lost control of the crowd,1,0.0,0.2,0.0,0.04
0.05882352941176471,0.0,0.0,Experts disagree over whether McCulloch should have stepped aside and let a special prosecutor handle the case,0,0.05882352941176471,0.05882352941176471,0.0588,0.1176
0.037037037037037035,0.0,0.07407407407407407,But the 76 year old who has spent the past 15 years in charge of FIFA has changed his view following a number of recent unsavory incidents,0,0.0,0.07407407407407407,0.0741,0.0
0.05882352941176471,0.0,0.05882352941176471,For physicians this research is a new piece of information they can pass on to those patients,0,0.0,0.0,0.0,0.0
0.0,0.0,0.03571428571428571,She married my father in the 1960s and on April 17 1975 we ended up in Pursat province where my father was made to work until he died,0,0.0,0.07142857142857142,0.0,0.0
0.08333333333333333,0.0,0.16666666666666666,Hatoyama is touting an Obama style message of change pledging to raise the minimum wage and discourage hiring through agencies or on temporary contracts,1,0.0,0.04166666666666666,0.0417,0.0
0.04166666666666666,0.0,0.08333333333333333,A 41 year old Ecuadorian man has been arrested in the Esplugues de Llobregat suburb of Barcelona according to the police statement released Saturday,0,0.0,0.04166666666666666,0.0,0.0
0.17391304347826084,0.0,0.17391304347826084,Erdogan has repeatedly denounced Syrian President al Assad publicly calling on him to step down after accusing him of massacring his own people,0,0.08695652173913042,0.08695652173913042,0.0435,0.0435
0.0625,0.0,0.125,John Bennett was hanged for raping and attempting to kill an 11 year old Austrian girl,0,0.0,0.0,0.0,0.0625
0.0,0.0,0.3076923076923077,The company that manufactured the toy Playing Mantis Inc has since been sold,0,0.0,0.07692307692307693,0.0,0.0
0.0,0.0,0.18181818181818185,Lorenzo DiBonaventura and Dan McDermott are also attached to executive produce,0,0.09090909090909093,0.09090909090909093,0.0,0.0
0.05263157894736842,0.0,0.10526315789473684,Few urban legends continue to capture the imagination like the disappearance of a union boss with a murky past,1,0.0,0.05263157894736842,0.1053,0.0526
