ann,subjective
They want to hold us hostage,1
"It is our people who decide, who must say so,",1
thrown its weight behind,1
proves this beyond the shadow of a doubt.,1
is almost impossible,1
in the light of,1
the ideal of a world kingdom.,1
there is no chance,1
is himself a product of,1
must be adequate,1
"to the Venezuelan Armed Forces' misfortune,",1
systematic campaign of violence.,1
"would adhere to ""a pluralistic vision,",1
proved to be decisive.,1
Half the active population,1
return of balance,1
complicates any situation.,1
what no political or social force within America has ever been able to accomplish,1
would have to talk in depth,0
the sole purpose,1
"lacking good will,",1
"Action is more eloquent than words,",1
it may cloud my assessment,1
aren't even allowed,1
stood a good chance,1
dared not hope for,1
has never been any clearer.,1
worlds cracked apart;,1
are prepared to accept,1
"long and painful,",1
did not adequately allow the free and fair expression of will,1
"On top of this,",1
did not support,1
Unite To Defend,1
could not be hollowed out,1
"has to ""create a broad program",1
as soon as possible,1
are taking it,1
"must be banned,",1
the decision by,1
with great certainty,1
"young old man""",1
has many things,1
"for the most part,",1
was the message the people sent,0
had called in,0
"has given the ""appropriate assurances",1
"Let us even, sometimes, expect more",1
free and fair ballot will remain a mirage.,1
because of what they did,1
"his band of thugs that have brutalized the people of Zimbabwe,",1
continued its debate,1
a firm grounding in international human rights.,1
danger they pose,1
"not only prejudice,",1
Over $200 billion,1
went so far,1
"flighty, opportunistic and lacking in commitment to his job as a Member of Parliament.",1
free and fair.,1
not on very solid legal ground.,1
with a hope,1
"raises its head,",1
both ridiculous and odd because they all seemed to be playing games.,1
having any knowledge,1
performing their duties without fear or favour.,1
come out opposing,1
tried hard to establish,1
have a conviction,1
actively chimed in,1
even Mr. Mugabe's in-laws.,1
technically possible but more delicate,1
the earth-shaking changes,1
it is necessary,1
betrayed the hopes of his people.,1
just have to bash,1
"expressed ""admiration"" and ""surprise""",1
breaking their limbs,1
such highly technical,1
The real ringleader of evil,1
all sorts of,1
The important thing,1
underscored the vast differences between,1
will not mean,1
risked the full weight of the law.,1
has refused to bow,1
the debate on,1
"so-called 'high masses,' sometimes call for a reaction.",1
used the words,0
quick return to the negotiating table.,1
like the case of that pot who called the kettle black.,1
had in fact been,1
issued a dramatic request for help,1
serve its political purpose.,1
It is important to recall,1
is the right solution.,1
a civilised conduct,1
Now is the time to engage China in a positive manner.,1
"far, far away,",1
while destroying the instruments of his power.,1
the question arises as to whether,1
"mere reproduction of unverified and unsubstantiated reports""",1
assume its responsibilities,1
has not once,1
human rights reports,0
"used the word of ""axis of evil"" to label",1
would surely be higher still.,1
it is believed,1
an arrogant little fellow.,1
are clear and unambiguous:,1
wish to express our solidarity,1
"In his view,",1
"the need to deal with the Soviet Union,",1
have made every Israeli an enemy and a target.,1
"politically very difficult""",1
a true restructuring,1
"nor even the European Union,",1
are not expected,1
ushered in an era of stability.,1
It is time,1
"is reasonable, humane, legal, proper, and compatible",1
will not allow,1
said in a statement,0
carries considerable risk.,1
Europe must shoulder this task.,1
unusual briefing that stretched over an hour,1
This is the reason why,1
flavour of conspiracy,1
do not have rights,1
deprived Arab land,1
voiced his condolences,1
is giving the civil rights advocates a hearty thumbs up.,1
"three or four separate references to the same incidents,",1
was a stretch,1
"comforting sense of personal and national vindication,",1
as well as,1
"It's a step in the right direction,",1
creates the impression,1
Too much blood was shed and much suffering endured,1
was neither free nor fair.,1
"to determine the outcome of an African election in Europe,",1
all states without exception.,1
has lashed out,1
animated by a common cause:,1
"has ""the feeling",1
bold and fair,1
could think of nothing better,1
so and so.,1
One cannot be too philosophical or idealistic,1
peaceful way forward,1
those who sow the wind will reap a whirlwind.,1
"their confusion of ends and means,",1
"deeper the international crisis, the better",1
"for a spell,",1
may be asked,0
do not realize,1
"ever addicted to conspiracy theories,",1
Angry anti-US protests erupted,1
was unselfconsciously airing,1
"mastermind of the terror attacks,",1
will be regarded by,1
efforts to achieve a just peace.,1
"a puppet of London,",1
are the violators of human rights.,1
"want more money for themselves,""",1
richest and most powerful,1
such US policy.,1
will push for,1
deliberately misinterpreted to suppress the opposition.,1
weak or even nonexistant,1
It is striking,1
good naturedly shrugged off any problem.,1
has come out in support,1
Argentina will be more competitive,1
"fit of force,",1
has struck innocent women and children and defenseless civilians.,1
refused to send,1
such a bellicose president,1
might as well,1
"will be ""upward and downward price swings.",1
orders stretching all the way back to the Oval Office.,1
is foreseen to be accepted,1
is dependent on honoring,1
barely a day after,1
"He must think he can defy gravity,",1
had taken serious steps to ensure the personal safety,1
reflects the collapse,1
making fun of,1
might be guilty,1
avoid the need for it.,1
hard to find a justification,1
due to the fact,1
will employ a crafty trick,1
in a risk zone.,1
"puts every Jew and every Israeli to shame,",1
peaceful reunification and 'one country two systems',1
in a way that cannot be taken seriously,1
he was going to demand,1
seems to be,1
because they seek weapons of mass destruction and have links with terrorist groups.,1
formation of good economic neighborhood.,1
strategy calling for,1
would only have sharpened.,1
are being viewed,1
willing to overlook,1
"his career was like a ""rough sea,"" with highs and lows and never calm.",1
under the banner of fighting terror.,1
"illegal combatants, not prisoners of war,",1
crimes of war,1
e between the Hama,1
"under any convention,",1
is an unpopular means because,1
must be mass action,1
could create the impression,1
a slap on the wrist,1
"already placed him in the Evil camp,",1
leading the step backward in time,1
such a report,0
It is likely,1
chief opponent of,1
"In all likelihood,",1
poses a danger,1
tough but gratifying,1
evade its responsibility.,1
unlikely to have been enamoured,1
should not be a member,1
speaks for itself.,1
thousands of the living,1
did not indicate,0
It's a proud Freedom Day,1
have the benefit,1
pretext to crack down on legitimate dissent.,1
only create mistrust,1
will be an increasing number,1
have made a great progress,1
"If these statistics amount to anything,",1
This impression is reinforced by the fact,1
has come under pressure,1
straighten this mess out.,1
another approach is necessary,1
feeling of uncertainty,1
will have sown the seed,1
as long as it strikes a balance between,1
included an additional factor.,0
most of all,1
expressed his hope,1
let's support them,1
can be described,1
not in step with,1
are dangerous terrorists.,1
a lot better,1
they'd do anything,1
would be a reluctant financial firefighter,1
"would be targeted one by one,",1
as far as,1
aggression and terrorism,1
"monstrous criminal outrage,",1
does not lie in devious methods,1
unable to meet the minimum legitimate,1
is the problem.,1
individual acts of insubordination,1
picked a quarrel,1
biggest terrorist country.,1
seems to be a difference,1
has not announced,0
to do such a thing if,1
"even its closest allies,",1
It is also believed,1
not allowed to move freely.,1
but the alternatives are worse.,1
"With grim determination,",1
axis of evil,1
are not appropriate,1
subjected to sensory deprivation,1
help the Peronists in a national salvation government,1
"if they were dealt with properly,",1
was finally accepted,1
"You know us,",1
derived nothing but encouragement,1
in whose chests the fire of anger is blazing.,1
was being portrayed,1
We will bury,1
likely just an aggravating factor,1
is a perverse place.,1
may be inevitable:,1
"recklessly picked on our country,",1
it finally turns out,1
it will not be free and fair.,1
"by the look of it,",1
"highly"" in favor",1
without too many difficulties.,1
"one never knows,",1
"the ""best role model""",1
is entitled to receive answers.,1
a bid to save his presidency.,1
The other solution is the opposite,1
grief and sorrow,1
said the final communique,1
scenes of destruction,1
does not take any responsibility,1
Greenpeace is here to voice the concerns of millions of people.,1
is now objecting,1
The fact that,1
over the heads,1
refused to allow,1
fears and concern,1
at all costs,1
scupper any hope,1
Israel's superior ability to punish Palestinians,1
flaunt its hostility toward,1
"When will a ""coup"" not be called a ""coup""",1
"threatening America"" and its ""friends and allies""",1
we had no choice.,1
will certainly eat their own bitter fruit.,1
refuses to bow,1
riddled with irregularities.,1
want to go it alone,1
like the suffering,1
what impressed him most,1
took it upon himself,1
"own political fate,",1
preserve its dignity and national unity.,1
views expressed by,1
week that changed the world.,1
must launch its own,1
she has misplaced strategic priorities,1
Such an unfavorable report,1
little to offer,1
was very strong about this,1
proposed cut in child benefits,1
exactly the opposite,1
Either one pays attention to the will of the people or what happened will happen.,1
were blown up by ammunition,1
axis of evil.,1
"sooner or later,",1
as much land,1
"explosive political frustration,",1
can serve as a model,1
"confers a comforting sense of personal and national vindication, when no other prop can be found.",1
"That being the case,",1
taken the Israeli Government and consequently both the Israeli and Palestinian peoples hostage.,1
tremendous amount of progress,1
far worse than those prevailing in Camp X-Ray.,1
had not met SADC's norms and standards.,1
must take all precautions to prevent such a tragedy.,1
at the request,1
ready to intervene,1
"do not reflect the reality,",1
not in its favor.,1
a hidden subsidy.,1
"assassins, assassins, assassins,",1
that was horrible,1
should be at least,1
refused to say,0
the continent has not enjoyed in the past,1
"the future is clouded,",1
seems rather academic.,1
The ground must be shaking,1
"so many nightmares,",1
can only be,1
sending secret memoranda,0
"new Manichean world,",1
as all must now know,1
solution to the present impasse,1
the major points,1
an integral part,1
"a government mouthpiece,",1
was careful to refer,1
have long argued,1
few differences in sensitivity,1
are often regarded,1
attacking him with scathing criticisms,1
not devoid of slips of the tongue.,1
are still nostalgic,1
that's what happened in Argentina.,1
so as to,1
we know what,1
under such conditions.,1
"the game is continuing in Buenos Aires for now,",1
enacting of laws,1
"arrest thousands of innocent people,",1
none of the whistle-blowers seems to give a damn,1
because it believes in victory.,1
It goes without saying,1
"As a result,",1
but to understand,1
How am I supposed to,1
has provoked concern,1
feels constrained to reject,1
did his best to undermine confidence,1
the sense that,1
"a casualty"" of his own government's attempt to maintain favor in Washington.",1
It does not take a vivid imagination,1
the only superpower in history with a universal jurisdiction.,1
has expressed concern,1
use the excuse of,1
taken into consideration,1
"this is a fact known to all,",1
must stop war.,1
It continues to twist the logic of things by turning a blind eye to Israeli murderers and describing Palestinian victims as terrorists.,1
"mere unarmed citizens,",1
were singing and dancing to celebrate,1
have great confidence,1
declined to make any comments.,0
"saw it coming,",1
"is, more or less, untenable.",1
laboured to convince,1
in danger of removing,1
the prisoners should be considered prisoners of war.,1
"had been tainted by months of political violence and intimidation, last-minute changes to electoral laws, and the disenfranchisement of tens of thousands of voters in Harare",1
"issued a message, saying",0
lost their lives.,1
said in a statement,1
"when China, India, Brazil, and Indonesia are not committed to reduce anything.",1
said in a statement.,0
meant to intimidate,1
"but also a ""world war.""",1
double standard policy.,1
conflict of interests,1
have been muted in their criticism,1
discussing it in the abstract,0
makes Bush aware,1
The last few months have shown,1
"not you, sirs and not the one person in 10 Downing St., Tony Blair,",1
not inclined to give way to rapture,1
His dynamism is an asset.,1
principles are at stake,1
"I will have won,",1
"a terrorist act,",1
has already decided,1
was no report,0
"Chavez had to go,",1
abuses including torture,1
"who are highly respected within the society,",1
how many more,1
gives a clue,1
How accustomed they are to trickery!,1
will not withdraw,1
NASA has to clean up its act,1
loyal attitude of,1
to see how,1
Axis of Evil.,1
lacked conclusiveness and were not operational.,1
is indicative of,1
"the victim of ""state terrorism""",1
was not clear,1
not been named.,0
"would be ""unjust and counterproductive",1
"unlawful combatants"" not entitled to the protection",1
"that might become necessary,",1
satisfied in any way,1
"demanded heavy expenditure,",1
human characteristics to a lump of stone.,1
"may not be what everyone wants,",1
nothing will be achieved,1
do not have rights,1
not yet captivated the masses,1
drove the United States into a corner.,1
to help communicate,0
not what it is all about.,1
playing the part of a thug who is feared by all and who likes to punish anyone that complains about his behavior.,1
has no consensus,1
so to speak.,1
draw the ire of,1
making turns in favor of,1
"for the first time,",1
The opposition members have a loaded gun at their head with Mr. Mugabe's fingers on the trigger.,1
"axis of evil,",1
"At one time,",1
in death rather than staying alive under occupation.,1
print pundits have had time to ponder,1
serious criticism was made,1
not only shows,1
encompasses the very survival of democracy,1
"without help from the US,",1
"as if our country had a ""human rights problem.",1
"cannot be taken seriously,",1
offering a settlement,0
all options were on the table,1
the U.S. government ``is the source of evil'' in the world.,1
"Under these circumstances,",1
abandoned their push,1
smell of danger,1
before we jump into a new round.,1
victory of democracy,1
no longer quite ready to follow,1
should maintain sharp vigilance,1
"if one goes by the US logic, only the US spy plane is permitted to spy at other people's doorsteps;",1
"Axis of Evil""",1
could not understand,1
"the right direction,",1
at the expense,1
face the same tough choices,1
will have to,1
"As was to be expected,",1
"All this is one thing,",1
"There was no doubt,",1
to set the stage,1
one is going to be used,1
carries some cachet,1
will bear witness,1
"that Chavez has to be killed,",1
violation of the Palestinian people's human rights,1
an affirmation of,1
"history has given us a unique opportunity to defend freedom,",1
embrace of the past,1
the most reasonable path for the time being.,1
More curious still,1
Military morale is at stake,1
were going to do.,1
"free and fair,",1
look like a chicken farm run by a sadist,1
brings no good to world peace and economic development.,1
an earlier address,0
ideological fight against capitalism.,1
are also suggesting,1
Koizumi say 'No' to Bush: Stick to Kyoto Protocol.,1
"can only lead to bad decisions,",1
this distortion in its policies,1
are still worried,1
degeneration of the democratic process,1
dangerous course of action,1
then we will talk.,1
The statement was silent,0
"reduced to a series of Bantustans,",1
should not be afraid of persecution.,1
real secret of the ballot box,1
are increasingly concerned,1
"Given the stake at play,",1
manipulation of the subject domestically;,1
abandoning a longtime client,1
more concrete support,1
and not the contrary.,1
so great as to remove any sense of common ground,1
"whether there is a ceasefire or not""",1
battle of endurance that must follow.,1
"took to the streets,",1
would allow it,1
aligned himself and established a distinct cooperative stance,1
exists within millions of Palestinians,1
", which he describe",1
can bring security and stability to all the parties without exception.,1
"the charges were not just fabricated,",1
something sometimes go wrong.,1
could possibly want,1
known to be,1
"now is not ""the right moment""",1
"before it disappears,",1
works to abort his mission in advance by,1
are very critical,1
taking good care,1
in fact his government is illegitimate.,1
read some of the posters carried by,1
just a signal,1
it is inevitable for injustice to meet denunciation and rejection.,1
"go on an on,",1
"according to forecasts,",0
"to obey those in authority,",1
has also announced,0
as quickly as possible.,1
strong support expressed,1
"honored his commitment""",1
lighter than a normal Friday,1
goes against the facts,1
did not say,0
"history will judge""",1
"becoming more powerful by the day,",1
So have been,1
"ultimate effectiveness is in doubt,",1
would be handicapped,1
"agreed, under some duress,",1
how will they proceed?,1
"this arresting contrast,",1
only the US spy plane is permitted to spy at other people's doorsteps;,1
It so happens,1
"Axis of Evil""",1
refrain from violence.,1
This is because,1
human rights violations!,1
This is because,1
just for them:,1
small comfort to,1
it is anybody's guess.,1
has sought to define with clarity,1
would bring up,0
a defensive action,1
made the remark,0
have refused to serve,1
running my ass off chasing you guys around.,1
bastion of resistance,1
"should have been on the side of the smaller and weaker nations,",1
playing with fire.,1
in support of,1
"the use of strong measures,",1
spells serious trouble,1
at the very latest.,1
it was time,1
But in the future?,1
"axis of evil""",1
it is nothing more,1
expanding might of China.,1
"would not do is require anything of anybody,",1
not in keeping with,1
"full of ""cruelties"" and ""torture.",1
will not do or say anything that could damage,1
Day One: Brian decides it's finally time to learn how to diaper the baby.,1
"ZANU-PF's land policy,",1
have tended to side,1
"enemies of mankind,",1
"blatant campaign of violence, intimidation and manipulation",1
not up to him to decide who is a captive or who is not a captive.,1
had been accused,1
has not brought the Israeli public security.,1
suffering from difficulties.,1
has violated the rights of the minorities,1
kind of propaganda war.,1
affected by the lackluster economy.,1
"As if the crowd and people's nerves were already not enough to heat up the atmosphere,",1
the people of the world can no more be kept in dark.,1
kneel in submission.,1
victory of justice and freedom.,1
"at least in part,",1
"It's fair to say,",1
take the remark as,1
elevating the fight,1
among the countries that have pledged,1
spoke in defense,1
more impossible than ever,1
such baseless accusations,1
no more than an improved carbon copy,1
We cannot stand on the sidelines,1
Let us hope,1
an uneasy atmosphere reigns,1
only major obstacle,1
"not only just,",1
"nations that aren't transparent,",1
to keep Yasser Arafat stranded,1
the least that Mr. Bush should have done,1
sets a dangerous precedent,1
"there are a few ambiguous points,",1
"My fist carries a force,",1
"there will always be an ""Argentine risk.",1
"is not, in the first place, willing to recognize",1
call Bush's bluff?,1
was not against helping,1
could help strengthen,1
decision was adopted,1
not a price worth paying.,1
"The fire is raging at home,",1
knows very well,1
"is not shaping up as a romance,",1
collapse from within.,1
find nothing positive,1
would have been a joke,1
quite the contrary.,1
were at odds,1
take her on,1
whether the global ban on torture can be abused on that account is another matter.,1
so far only suspects.,1
But how could,1
might only mean,1
living in fear,1
will again attack,1
"a very sad day,",1
"in face of the economic and government paralysis,",1
opts for brute force,1
staged a protest,1
carried banners reading,1
we will go to war.,1
now have to brave gangs of ZANU-PF thugs,1
even more meteoric,1
to be passed,1
are so hated.,1
Brian gives up in confusion.,1
was a turning point,1
one of the most successful,1
axis of evil.,1
battle of good versus evil,1
only responsible course of action,1
sent an e-mail message,0
nor is the outcome illegitimate merely,1
made the remarks,0
will be presented,0
rule of law,1
"if it becomes more of a nuisance,",1
but also above,1
"Israeli ""expansionist plans""",1
"harmonious and close""",1
has long accused,1
"it is standing in one ditch with the United States against the violence of terrorism,",1
would seem to confirm,1
to say the least.,1
generally approved of,1
"the civilized world.""",1
top priority of,1
delivering further criticism.,1
as well as,1
criticism was toned down greatly,1
cut any routes,1
"not implemented in practice,",1
"the strength of the appeal of ZANU-PF's land policy,",1
begins to bear fruit.,1
protected from knocks,1
does not recognize,1
the model to follow.,1
a little bit surprised,1
"contradiction between the enemy and itself,",1
"a naive, patently stupid young man who chose the wrong heroes.",1
"But America is at war,",1
"peace and stability of the world,",1
had been addressed,1
pressure upon pressure,1
"axis of evil""",1
"What is more,",1
as a human being.,1
it is a positive development,1
"undoubtedly the most logical,",1
"set aside the notion of cynicism, skepticism, that things will not work out,",1
inhumane and degrading,1
don't anticipate any trouble,1
likely to grow.,1
failed to take decisive action,1
prepare public opinion,1
the warning was not heeded.,1
What is clear,1
is adamantly against,1
"will treat them as it pleases,",1
The entire world -- not the Palestinians alone,1
have no intention,1
can never be right to indulge this disease.,1
has been praised,1
will not stand idly by if,1
only superpower in today's world,1
"certainty approaching perfection,",1
Other losers could well be,1
it should not disregard the message of the crises,1
"violations or shortcomings,",1
"the approach should not be the traditional one,",1
only scant possibility,1
"in the light of what has happened afterwards,",1
should have been,1
was the response,0
acts of insubordination,1
"a tremendously serious process""",1
have saved all of their praise,1
having those kinds of conversations.,0
are in no way in favor,1
despite government intimidation.,1
"Despite these shortcomings,",1
his weekly radio address,0
constructive political dialogue,1
has always been,1
become a major power,1
"Axis of Evil"" theory",1
accomplice in the destruction,1
proved to be,1
would like to extend,1
holding his tongue,1
to voice his concern,1
"to threaten the stability and security of the world,",1
don't look natural.,1
lacks credibility and cannot withstand any objective scrutiny.,1
help of the Almighty God,1
attacked without hesitation.,1
"as soon as possible,",1
gives a clue,1
China's tremendous development potential.,1
provoked by the fact,1
must have been under orders,1
policy of terror and death,1
not an isolated incident.,1
demonstrated great skill,1
It is another matter to launch into scandal or anti-Americanism.,1
stand up to,1
but not democratic legitimacy.,1
is in accordance with,1
in order to escape,1
"nothing seemed more ""normal"" than to settle in someone else's territory.",1
"will mark the entire world,",1
shown no inclination,1
just empty rhetoric.,1
has not sent,0
"We must strike, we must march, we must show that we are not goats.",1
an air of indignation,1
"Unlike other experts,",1
may be convenient,1
have crafted out of this,1
It seems likely,1
"strange as it may seem,",1
only half as wild.,1
wrote a critical comment,1
The only way to peace,1
no such forces,1
a historic success,1
entirely run counter to the aspirations,1
of more misery,1
neither simple nor minor.,1
touched such heights,1
"axis of evil""",1
Nor is there any worry,1
"did not ""specifically"" talk",0
the absolute right in all cases.,1
will not say,0
nothing other than,1
fell in line with,1
"acquires special relevance this year,",1
has a point,1
"widespread"" problem of torture",1
"getting strong criticism, denunciation, and rejection",1
in order to,1
all the while,1
has largely ignored,1
largely keeping silent.,1
do not agree,1
"If you want to think the worst about things, you can,",1
used to further his electoral chances.,1
raised the pitch,1
America's new game plan,1
as much as,1
unable to understand,1
Give Them Rights,1
was not clear,1
awfully grave and pressing,1
he inevitably had to leave,1
actually went far enough.,1
There is no way,1
will show whether,1
"destined to collapse,",1
"treating people this way,",1
will be unable to attain the most basic,1
engage in talks,0
"let the law take its course,",1
it can't suddenly forget,1
yardstick for progress,1
carefully tread the path,1
strong sense of justice,1
as if everything there were going fine.,1
took a very hard line,1
there is consensus,1
"l, bacteriological, or nuclear w",1
until they saw,1
immediate trial for alleged crimes,1
would be fully tested,1
cramped and spartan,1
"equivalent of a sleepy little fishing village,",1
"not look very good""",1
Out of all,1
pointed the finger,1
has not actively supported,1
not in conformity with,1
that will result in the creation of more jobs,1
"subjected to repressive Israeli measures,",1
"in any event,",1
"history has shown time and again,",1
The same and worse,1
"some unpalatable measures,",1
This reminds one of a witty remark,1
"spirit of cooperation and understanding,",1
has turned into an axis of evil itself a,1
a contest between immovable forces:,1
was made prominent,1
the demands presented,1
has always resolutely opposed,1
sense of danger,1
be commented on,0
"the fight against terrorism, violence and intrigues.",1
"to rethink, to set priorities, to understand",1
does not wish,1
"laden with threats,",1
increasingly heated debate,1
"axis of evil""",1
has been following Argentina's national accounting with a magnifying glass,1
It follows therefore,1
do not agree,1
demonstrations and rallies against,1
in order to end occupation and settlement in their territories,1
supposedly model democracy like the USA can trample on the law to such an extent.,1
is not expected,1
despite the ramifications,1
"atmosphere of hate,",1
"Notwithstanding the above,",1
trying to harass,1
imperialist war maniacs,1
told journalists in a stout and rare public defence of,1
no support for,1
as well as,1
"was ""substantial concern""",1
lack of sincerity,1
to make Palestine a vassal state,1
resorting exclusively to,1
a political stratagem,1
don't need to tell,0
war against terrorism will not end,1
has been giving indications,1
such a false,1
opened a new path,1
more dangerous enemies at home than elsewhere.,1
has been on edge,1
was clearly emphasized,1
"simultaneously raises apprehensions and resentment,",1
Cold War heritage.,1
should not be,1
"a man of peace,",1
"to put it mildly""",1
resolution that was put forward,0
even if not always,1
"devoted to promoting and safeguarding human rights and fundamental freedoms,",1
readiness to assist,1
those who seek to attack and destroy law and order and legitimate government.,1
not even 50 percent,1
made to appear just.,1
are nonetheless concerned.,1
is particularly opposed,1
world's sole superpower,1
such a report,1
"which was a way of saying,",1
surrounded to the point of strangulation.,1
"by the same token,",1
As a lesson to others!,1
as long as,1
have not formed a sufficiently strong alliance,1
"was heard ""with interest and attention,",1
which stood in the way of honest negotiations.,1
"batted an eyelid,",1
It is another matter,1
totally lack planning and administrative control.,1
even the worst criminals have the right,1
focused its attention,1
"march on the presidential palace,",1
the public affairs show,1
is growing increasingly unilateralist,1
"better than anybody could have hoped for""",1
this or that,1
must now deal with,1
interpretation of good and evil.,1
"But so far,",1
could have very significant consequences,1
continue to key up tensions,1
had this to say:,1
utilizing force in an inappropriate volume.,1
do not want to yield,1
across the land,1
"quality of ""knowingness""",1
"were, and still are, hoping",1
unconditionally and without delay,1
Although some things have gone wrong,1
more restrained and responsible,1
is like delivering a message,1
was initially launched,1
damaging to the state's interests.,1
ve talked to,0
should be fully guaranteed,1
No figure has been provided,0
threatened to choke,1
gain more knowledge,1
should at least,1
because he is not part of the non-WASP humanity),1
Swelling the population of envirocrats in Ottawa means that the sole beneficiary is the federal government.,1
under the excuse of fighting terrorism,1
"if Rummy booked these tough guys into a Motel 6, they'd complain that there's no room service.",1
the world will not be easily fooled,1
made numerous revelations,0
oneupmanship of rudeness,1
current spiral of violence,1
working around the clock,1
resulted in many people being killed or tortured that didn't need to be.,1
stuck for 18 months on ground zero.,1
is more interested,1
the magnitude of the threat they pose,1
to the surprise,1
directive is issued,0
most atrocious human rights violations,1
"If I do not save them, I do not save myself.",1
long called for,1
"even if contradictory,",1
peace will not be gained through war.,1
made the request,1
it is an important step,1
"more hospitable climes,",1
no longer has any binding procedure,1
will have trouble wriggling out of the need to explain and justify,1
most inclined to help,1
"Of course, she knew who should learn a lesson from this situation,",1
very despicable act.,1
would therefore not be an impartial observer.,1
We don't need,1
"extremely clear, categorical, and decisive:",1
not in the self-interests,1
pretending to forget,1
important new development.,1
looked at Budyko with interest:,1
taking away from,1
have to take their responsibility,1
it should show it in its treatment,1
may be happening,1
No one has the right to wage war against the history of this nation.,1
given Sharon a free hand.,1
stop his repression,1
is now condemned,1
how it will play its hand,1
issued the fatwa,1
"toy with"" the world in palms of their hands.",1
You will have people saying,1
will be no need,1
due to this,1
But also back then there were people who maintained that the treatment was almost overly humane.,1
This is because,1
a dysfunctional space program.,1
violate human rights,1
"who is ordinarily so sure of himself and of his jokes,",1
"Well, heaven without the 72 virgins.",1
annual report issued,0
our full support,1
claims to defend.,1
good versus evil,1
took China's rising military threat,1
forces acting as American agents.,1
paint a bad picture,1
"took a strong stand,",1
to buckle down,1
how long it can still justify,1
"would violate international standards prohibiting ""cruel, inhuman or degrading"" treatment.",1
were openly supporting,1
tone of unification,1
they also know quite well,1
tyrannical tactics are at an end.,1
would not be harmed.,1
At the least,1
put most of the blame,1
this and that,1
a significant and successful strike,1
does not mean,1
It's injustice that breeds hatred and revolt.,1
oppression and supremacy,1
"takes a side""",1
"studied from every aspect,",1
In view of,1
served the interests,1
more information than a trillion,1
until ex-President Carlos Menem changed course,1
its support for,1
"""a peaceful environment""",1
is not worried.,1
as a result of,1
"in the guise of its so-called war on terror,",1
involves some contradictions.,1
was unwise enough,1
to be enemies,1
I'm up to my ears,1
repeated his stereotyped allegations against,1
we would still,1
the fact that,1
will not resort,1
has proven to be,1
will be able,1
"put them out of their misery,",1
realize their national aspirations,1
don't think it is a wise thing,1
Argentines were obsessed with their past triumphs.,1
"second side in the US axis is Israel,",1
are extremely concerned,1
"so-called Great Satan,",1
even more competitive,1
does not provide the security,1
struggling to merely distance themselves,1
"the last of the old African nationalists who rode to power on the colonial winds of change,",1
the continent's growth pole.,1
at the very least,1
can only rise to meet it,1
"axis of evil,",1
more leisurely pace,1
cannot be solved by Washington's arbitrary decision.,1
"most disturbing of all,",1
message and warning by,1
"could be worked on,",1
"can no longer stand shoulder to shoulder""",1
will have to pour a lot of money,1
does not consider,1
it did not apply even to black people held in jail in the southern United States until a few years ago.,1
pressure upon pressure,1
"On this count,",1
going to the dogs.,1
all necessary steps,1
has no love lost,1
tried to justify,1
country of enormous potential,1
would act if,1
the visit has achieved positive and successful results.,1
"A little calm is needed,",1
are often tainted with a significant degree of hypocrisy.,1
positive and optimistic views,1
"history of crimes against humanity,",1
"is beginning to work,",1
pre-eminently a nation of laws-,1
"as friends or not evil,",1
They used to rely,1
but after that what happens?,1
the United States would be capable,1
"not Edmund Stoiber, nor the Union, but Germany as a whole.",1
on the basis of suspicious links,1
under the pretext,1
only hints at his inclinations to gain more power.,1
Refuses to Recognize,1
breathless armchair hyperbole.,1
Taiwan is an inseparable part of China.,1
tried for several hours to persuade,1
made it clear,1
are not expected,1
"huge casualties and property losses,",1
The extent to which,1
to stem the roots of terrorism.,1
expected to protect,1
only deserves rejection,1
"were not reported,",0
made it clear,1
are being kept in cages,1
"it is obsolete, it does not work",1
like giant bright orange flies.,1
"blinding eyeglasses, masks incapacitating the mouth and nose, ear-splitting ear phones)",1
more seriously than anyone would have thought,1
the reality and the statistics of the international credit agencies.,1
"in the first place,",1
The remarks of,0
This our conscience ought not to permit us.,1
was especially satisfied,1
signed off on,1
playing soccer with their heads.,1
power of the globalization were stronger,1
early signs of,1
stood with the US,1
cannot condone more than anything,1
"just as the opposition has rights,",1
lead to questions,1
to live in friendship and cordiality,1
No more than that.,1
were not so devastating,1
as long as,1
"in the world,",1
"does not, of course, guarantee success",1
intricate international game,1
a lot of negative points,1
One must not,1
"has long premeditated,",1
such an excuse,1
would be no dialogue,1
will remove you violently.,1
"They can run but they cannot hide,",1
grand strategy to target,1
the more dismissive outlook,1
has long been known,1
in a statement welcomes,1
humane and reasonable,1
"rose high among big powers, too.",1
should certainly be concerned,1
"In spite of all this,",1
what he called,1
"had the advantage for Washington of weakening OPEC,",1
"very important consensus,",1
a long road ahead of us.,1
not for skyjackers,1
"axis of evil,",1
free and fair.,1
It can safely be claimed,1
has held the high goal,1
on the rise,1
"suffering from some intoxication,",1
one of the possible fates,1
will serve as an occasion,1
should forge unity,1
symbol of power,1
should be considered,1
spoke out against,1
"However, the ends",1
"was quite neat and tidy,",1
has subsequently criticized,1
share a hatred,1
consecrate violence and counter violence.,1
is but a signboard used by the United States.,1
"valued ally and friend,",1
on the basis of that country's attitude,1
But it is precisely,1
controlling the world of politics globally.,1
"neither good nor bad, just incorrigible.",1
will eventually happen,1
to make the call,1
"barefoot, wearing sandals and in the snow,",1
"however we move forward into the future,",1
"With some effort, he pins the flailing child down on the changing table only to discover there are no diapers in the house.",1
at the expense of the world's security and stability.,1
could bring about a confrontation for power.,1
"loss of credibility,",1
NATO remains vital,1
"In the end,",1
has taken a stand in support,1
smear their own faces.,1
did not aim,1
fairly good prospects,1
is greatly responsible,1
requires an exceptionally broad and committed,1
will be invited,1
can actually enhance our competitiveness,1
has written the name of Moscow on the registration page of the American side.,1
appeared designed to reassure,1
"Quite a lot,",1
"Despite widespread fatigue caused by successive austerity drives,",1
apparently as a face-saving gesture,1
are still nostalgic,1
tried to limit the damage.,1
reiterating the evidence:,1
"common enemy of all civilized men and women,",1
will be tarnished,1
will only reap sporadic but painful retaliatory responses,1
should be clear,1
the first step to finding a compromise,1
"deteriorating with each passing day,",1
does not justify all the means.,1
not to mention,1
"create stumbling blocks,",1
"continued violence and aggression,",1
ensure instability or militancy,1
has always sought,1
"such a concept ""gets us nowhere.",1
gave free rein,1
the abuse of human rights is rampant,1
the refusal to grant,1
preservation of democracy and human rights,1
went further and compared,1
is to permit decay.,1
has been raising artificial slogans,1
it will ring with hypocrisy.,1
refusal to respect,1
only throw the terrorist groups off balance for a time.,1
is still taking the cool approach,1
remain lagging behind.,1
would not pose a threat,1
are less important,1
All was not lost,1
filed a complaint,1
must be said,1
"sharp international rebuke,",1
Perhaps the most important characteristic,1
"that ""axis of evil"" statement.",1
every sector's possibilities,1
"I will take my risk and vote,",1
The last thing,1
threatening the world's peace.,1
"the US imperialist war maniacs' conspiracy,",1
only one battle,1
without fear or favour.,1
A Valentine's Day gift for the polluters.,1
it is no longer a joke.,1
got the message,1
"was, in itself, sufficient",1
ardor was cooled,1
"up to the courts,",1
has struck friendships,1
is not entitled,1
has formally recognized,1
cruel and inhuman punishment.,1
emphasize the government's sovereignty,1
succeeded in defeating,1
still far from equal.,1
grief and anguish,1
ghastly and barbaric act of terrorism,1
with only sparse information,1
expect to support,1
forestalling further oil price declines.,1
"democracy exhausted all its generosity,",1
have called on,1
would press ahead,1
continues to call for,1
does not rule out,1
"because so far,",1
perennially divisive issue of Taiwan,1
already allows a clear pattern,1
pinned the tag,1
anything quite like this was envisioned,1
"no one to speak to,",1
somewhat softens its tone,1
let them stay in denial.,1
"not free and fair,",1
reminiscent of the torture centres,1
either they fail outright,1
to give a written reply,0
fantasy of a world kingdom,1
must be strictly,1
as punishment for not voting the correct way,1
an Altamont-like level of violence.,1
do not possess the necessary expertise,1
"an expression of a higher form of justice,",1
has not yet commented,0
What is South African President Thabo Mbeki's point,1
thats the meaning,1
appeared to be fully aware,1
as close as,1
Chavez was right,1
good and evil,1
"with typical understatement,",1
should be put on trial.,1
sitting on the fence d,1
takes the view,1
to the extent,1
shouldn't go against the current.,1
But it is evident,1
"more fundamental problem,",1
has tended to undermine the growth of a human rights culture,1
required a more mature approach.,1
for a while.,1
"that would be independent,",1
"says it should have a free hand to storm the Palestinian areas; assassinate or arrest Palestinian citizens; demolish homes, headquarters, and establishments; uproot thousands of trees; and besiege cities and villages as it likes.",1
has a point,1
were also uncertain,1
a nonsense term,1
are willing to fight,1
have been obsessed,1
life of humankind.,1
is difficult to place blame,1
grim statistics trotted out,1
shows the strength of,1
was not transparent,1
It proved that the will of the people is stronger than any force or arrogance of power.,1
"shackled like wild animals""",1
to officially report,0
vindicated for himself,1
went on to say,0
has put West Asia on the brink of another war.,1
has left little or no room for doubt,1
"to maintain calm, to keep faith, to continue working on the road toward democracy, freedom and peace,",1
fervently escalates a campaign of bludgeoning its citizens,1
must win support.,1
have far more reasons for a union,1
a sign of,1
