sentence,subjective
<propernoun> speaks of <weak_subj> and then fuel <weak_subj>,1
those of u who <weak_subj> with an iphone <propernoun> tablet device or a desktop computer <weak_subj> to <strongsubj> <strongsubj> about everyone be connect,1
he be her son,0
<propernoun> <propernoun> project call for a <number> story community center include a mosque performance art center gym swim pool and other public space,0
for <number> week there be no water in <weak_subj> of <propernoun>,0
he also receive an honorary degree from <properadj> <propernoun> <propernoun> in <propernoun> <propernoun> <propernoun> where an endowment for <properadj> study be in his name and he also receive an honorary doctorate from the <propernoun> of <propernoun> <propernoun> at <propernoun>,0
both <strongsubj> <weak_subj> stake test where teacher and school be evaluate base <weak_subj> on the academic performance of student and reward accordingly,0
the <weak_subj> be describe a an <properadj> <properadj> man in his late <number> or early <number> who be about <number> foot <number> inch <weak_subj> and <number> pound,0
eighteen people have be select to serve on the jury in the <weak_subj> <weak_subj> <number> woman and <number> men,0
<propernoun> say <propernoun> and the <propernoun> have agree to focus on <number> <weak_subj> measure that <weak_subj> be implement in a <number> month time line,0
proceeding be set to resume <propernoun> at <propernoun> <propernoun> <propernoun> in south <propernoun>,0
german official <weak_subj> <propernoun> <propernoun> be an accessory to <number> murder in a <propernoun> <weak_subj> camp,0
but free almost all of the <weak_subj> <weak_subj> prisoner now in circumstance that <strongsubj> be endorse by <propernoun> public <strongsubj> mean there be <number> <weak_subj> <strongsubj> to be deal with in the final settlement,0
investigator in the <propernoun> state say <propernoun> drug and rap a <number> year old girl in the 1970s,0
<propernoun> say she <strongsubj> <weak_subj> of <propernoun> and it image,0
of course it change my life,1
neighbor tell police they be alert to the <weak_subj> but by then it be <weak_subj> late to save her,0
additionally the military ruler name a <weak_subj> council to oversee national <weak_subj> and foreign policy while also declare it <weak_subj> maintain control of all military affair,0
the <propernoun> military have say <number> <propernoun> troop who be work with the <propernoun> <propernoun> be under investigation for miss curfew and allege misconduct at the <properadj> hotel where <propernoun> <propernoun> agent be say to have bring prostitute,0
<propernoun> wrap up his <number> day visit to the <propernoun> capital <propernoun> tell an audience of <properadj> business leader that <propernoun> be seek closer tie and greater <weak_subj> with the <propernoun> state on a range of issue,0
at the invitation of former <propernoun> <propernoun> <propernoun> she visit <propernoun> <propernoun> where <propernoun> prevalence among woman age <number> to <number> year be <number> time higher than that of men of the same age,0
<propernoun> and <propernoun> battle to <weak_subj> each other,1
a <propernoun> <strongsubj> sentence <propernoun> to <number> year in <weak_subj> for hurt the image of the police,0
at <weak_subj> <number> syrians have die,0
no <strongsubj> that <propernoun> <propernoun> <strongsubj> <weak_subj> on,1
but this year the global economic <weak_subj> be take it <weak_subj>,1
the <propernoun> <propernoun> military have be on an <weak_subj> to <weak_subj> to finish off the ethnic <propernoun> insurgency that have be fight since <year> for an <weak_subj> state in the northeast of the country,0
each board be require to commission an <weak_subj> annual audit then send a copy of that audit to the state,0
there be now <number> internally <weak_subj> people and <number> refugee a a result of the <weak_subj> the council say,0
<propernoun> join the marine in <year> out of <weak_subj> school,0
on weekend ranger visit to leave chop wood for people to <weak_subj> campfire on the beach,0
many she know have go into the health <weak_subj> industry or social work <weak_subj> they can continue to <weak_subj> for others,0
official be expect people to go on <number> <number> journey <number> <number> more than last year,0
many be <weak_subj> to finish school either due to financial <weak_subj> or out of <strongsubj>,0
the <strongsubj> of the <weak_subj> be that this be someone who be <strongsubj> of the <weak_subj> he receive,1
in <propernoun> the <propernoun> <propernoun> <propernoun> publish an analysis of exist data on antibiotic <weak_subj> bacteria contain in meat sell in supermarket,0
and police say the child be <properadj> and have <properadj> passport,0
afterward the e mail <weak_subj> the men decide to ask <propernoun> to stop bring child from his <weak_subj> into the locker room at the school,0
the <number> year old <weak_subj> be recapture after be spot multiple time swim around <propernoun> <propernoun>,0
<weak_subj> wind be forecast a the <number> <weak_subj> fleet battle the <propernoun> <propernoun> and the <strongsubj> <propernoun> <propernoun>,0
what be some other thing on the list you <strongsubj>,1
the <strongsubj> also accuse <number> men of <strongsubj> to report the <weak_subj> the release say,0
that <strongsubj> <weak_subj> you <strongsubj> have hear be <propernoun> <propernoun> shriek in <strongsubj> at the <weak_subj> of a <properadj> <properadj> president,1
the company do not face any charge,0
with more than <number> state under winter <weak_subj> warning or blizzard warning <strongsubj> traffic have come to a <weak_subj> in some place,0
and then it happen,0
<propernoun> agree,0
vinas state he be also instructed how to prepare and place fuse how to test battery how to use voltmeter and how to build circuitry for a <weak_subj>,0
<propernoun> founder and entrepreneur <propernoun> <propernoun> say he want to make money and do <weak_subj> at the same time,0
the biggest price <propernoun> have pay be the <weak_subj> of <strongsubj> talent,1
numerous witness report see the pair in <propernoun> and surround area over the past <number> week,0
yet <weak_subj> <strongsubj> <weak_subj> a <propernoun> <weak_subj> that there be <weak_subj> stem from the post mining effort to <weak_subj> the ecosystem,1
for private citizen find to be in <weak_subj> of the secrecy standard penalty can range from <weak_subj> of <weak_subj> clearance to <weak_subj> prosecution <weak_subj> to jail time,0
<propernoun> <propernoun> <propernoun> <propernoun> <propernoun> <propernoun> contribute to this report,0
outside <propernoun> <propernoun> <number> a musician from <propernoun> <propernoun> who travel from <propernoun> to vote be <weak_subj> rip up his <properadj> passport,1
<propernoun> airlines come in second place with <number> <number> in fee <number> <number> in reservation cancellation change fee and nearly <number> <number> in baggage fee,0
<propernoun> <propernoun> who be <strongsubj> suspect of set off a <weak_subj> during the <year> <propernoun> have die,0
<propernoun> be provide <weak_subj> for <number> <properadj> refugee but the rest of the world <weak_subj> to do it share <propernoun> say,0
but more than <number> year after his <weak_subj> in <year> she say the <propernoun> <propernoun> <propernoun> be demand she <strongsubj> more than <number> in <weak_subj> the government shell out a part of an insurance policy he pay into,0
<weak_subj> the far <strongsubj> <properadj> <propernoun> <propernoun> have be <strongsubj> to talk about the <weak_subj> of a carbon tax and anti tax <strongsubj> <propernoun> <propernoun> have flirt with the <weak_subj>,1
a search of the hotel then find no sign of <propernoun> include a trip to the roof with a police search dog <propernoun> say,0
that journey <strongsubj> <strongsubj> be <weak_subj> a many challenge await,1
but the freezing weather be go to stick around,0
<weak_subj> far a the nuclear issue be <strongsubj> the only <weak_subj> and <weak_subj> way to make <strongsubj> the <propernoun> <propernoun> do not develop a nuclear weapon program remain a multilateral approach through the <propernoun> <propernoun> <propernoun> <propernoun> and gear toward a regional disarmament,0
<propernoun> <propernoun> work independently of candidate,0
the people do not <weak_subj> the government to <strongsubj> their promise,1
in <year> about <number> be kill in a quake near the <propernoun> <propernoun>,0
this be a <strongsubj> for the preservation of our culture way of life and the land we <strongsubj>,1
<strongsubj> <strongsubj> they get to <weak_subj> presidential nominee,0
the group have be <weak_subj> in <propernoun> <propernoun> for year wag an arm campaign that initially aim to turn <propernoun> into a fundamentalist <propernoun> state accord to the <propernoun> on <propernoun> <propernoun>,0
by fish for the <strongsubj> <weak_subj> <strongsubj> the bycatch <strongsubj> <strongsubj> be a bunch of other <strongsubj> specie that have never have a history of munch on people,0
all plane inbound for the airport be be divert and no plane be allow to take off,0
there be now over <number> <propernoun> <propernoun> food bank across the <propernoun> at <number> <weak_subj> opening at the rate of <number> a week a people <strongsubj> to make end meet in a <strongsubj> <weak_subj> of public service cut and <weak_subj> standard of living,1
this bailout be a <strongsubj> <weak_subj>,1
the remains be <strongsubj> <weak_subj> old to <weak_subj> any recent activity he say,0
<propernoun> join another retire <weak_subj> <propernoun> <propernoun> in his recent <weak_subj> visit to <propernoun> <propernoun>,1
the <propernoun> <propernoun> <propernoun> say <strongsubj> <weak_subj> arctic <strongsubj> <strongsubj> <weak_subj> for expansion of the ice coverage in the coming day,0
<strongsubj> be the subject of score of article and have write <number> autobiography himself the tale of his life often vary depend on the time the setting and the <weak_subj> teller,0
<propernoun> and freeze rain be forecast from the <propernoun> <propernoun> to the mid <propernoun> region,0
<propernoun> say it <weak_subj> <propernoun> that the <propernoun> <propernoun> <propernoun> have disband the <propernoun> and that governmental <weak_subj> force have seize control of the <propernoun> headquarters,0
the <weak_subj> box store have collaborate on capsule collection with design powerhouse <strongsubj> <propernoun> <propernoun> <propernoun> <propernoun> <propernoun> <propernoun> <propernoun> <propernoun> and <propernoun> <propernoun>,0
the gathering — run by the <propernoun> <propernoun> <propernoun> a <weak_subj> outfit that train activist and operative in the field of data digital and organize — have blossom since it <strongsubj> inception in <year>,1
couple form between an <properadj> man and a <weak_subj> wife top the median combined earnings list for the period study between <year> and <year> with about <number> the study say,0
<number> others subsequently drop out,0
the <propernoun> <propernoun> note that the <propernoun> <propernoun> have <strongsubj> some limit on speech include restriction on thing <strongsubj> child pornography,0
the medical community <weak_subj> <weak_subj> <strongsubj> research on fetal <weak_subj> rate he say,0
<propernoun> wind and the <weak_subj> <weak_subj> run to the finish on the <propernoun> <propernoun> leave the outcome in <strongsubj> to the <weak_subj> end <weak_subj> before the <strongsubj>,1
<propernoun> <propernoun> put it prepare for the <strongsubj> and pray for the <strongsubj>,0
the botched <weak_subj> injection catapult the issue of <propernoun> capital punishment <weak_subj> into the international spotlight raise new question about the drug be use and the constitutional <weak_subj> <weak_subj> <strongsubj> and <weak_subj> punishment,1
<propernoun> <propernoun> claim the indictment be retribution for her <weak_subj> <strongsubj> of the way <number> <propernoun> <propernoun> disburse the fund,1
and sometimes it show up in print and now with social medium,0
<propernoun> also contend his family have be ranch in the <propernoun> <propernoun> on the <propernoun> range since <number> <strongsubj> before the <propernoun> <weak_subj> exist and before the tortoise be declare endanger,1
many republican include <weak_subj> <year> presidential candidate <propernoun> <propernoun> <propernoun> <propernoun> <propernoun> have <strongsubj> insist that the <propernoun> <propernoun> era extension of emergency federal <weak_subj> deters job hunting and be <weak_subj> a the economy rebound and unemployment decline,1
a <weak_subj> swath of the <propernoun> be black out in <strongsubj> of <number> <weak_subj> copyright bill be consider in <propernoun>,0
<strongsubj> <weak_subj> temperature stretch from the <propernoun> to <propernoun> <propernoun> <strongsubj> <weak_subj> into the <propernoun> <propernoun>,1
his parent be <propernoun> survivor,0
his <weak_subj> have argue that he never <strongsubj> order the killing of the indigenous group,0
<propernoun> mango and papaya tree be also on the ground,0
kardashian <number> stop in <propernoun> <propernoun> a part of a <propernoun> <propernoun> promotional tour for <propernoun> of <propernoun> a franchise create and own by businessman <propernoun> <propernoun>,0
authority have say the militant group be behind attack that have kill score of people in recent year,0
this be a first since alcohol have never be serve before in the <propernoun> <propernoun>,0
<strongsubj> combine with an <weak_subj> work schedule and a new <strongsubj> keep the pound on <strongsubj> multiple attempt at diet,1
and if a man hit you once he <strongsubj> hit you again,1
whether this be the case or not remain to be see,1
<propernoun> do not cover that issue in his comment,1
he invoke <weak_subj> immunity,0
<propernoun> note that because <propernoun> be relatively new dispute that have come up have be settle,0
all cruise line ring in the <propernoun> <propernoun> with pomp and ceremony but a few go the extra mile,1
<propernoun> obtain copy of the e mail,0
<propernoun> note that there may be a delay between the time when the video be available and when the transcript be publish,0
before the incident in <propernoun> the <propernoun> <propernoun> <propernoun> a be normally the case send a letter to the government seek permission to travel to <propernoun> for the tour,0
the book <strongsubj> be adapt for the screen by <number> day of <propernoun> and the <propernoun> now writers <propernoun> <propernoun> and <propernoun> <propernoun>,0
we be <strongsubj> from environmental pollution,1
the plane hit turbulence shortly after breakfast be serve and the result be culinary <strongsubj>,1
the location the <propernoun> <propernoun> be in northwest arizona near the <propernoun> and <propernoun> border,0
according to an <propernoun> blog post the number of incident be project to reach <number> by the end of the year compare to <strongsubj> <number> in <year> a rise of more than <number>,0
<weak_subj> with a rock bottom corporate tax rate some of the firm use tax efficiency to not <weak_subj> pay that on their <properadj> sale,1
the giantess who give her name to the region be also credit with create it <weak_subj> <weak_subj> feature the <properadj> <propernoun>,1
all of the young men be <weak_subj> athletic and <weak_subj> student,1
to get a day in <strongsubj> require an <strongsubj> if you can <weak_subj> <number> or <strongsubj> and <strongsubj>,0
wind that <weak_subj> effort to <weak_subj> the spill die <weak_subj> <propernoun> make cleanup work <weak_subj> <propernoun> <propernoun> <propernoun> <propernoun> <propernoun> <propernoun> say,0
he be schedule to <weak_subj> in federal <strongsubj> in <propernoun> on <propernoun>,0
but <weak_subj> with more searcher and equipment and calmer weather the effort <strongsubj> <weak_subj> face <strongsubj> challenge,1
i <strongsubj> he have to find more opportunity to demonstrate to the <properadj> people who he be,1
but that be <strongsubj> what she do when during a subsequent interview also in the <number> she reveal that <propernoun> have take and pass a polygraph test,1
there be also a shop <weak_subj> for men call <weak_subj> that be <weak_subj> <strongsubj>,1
<propernoun> and <propernoun> force be also face a recent increase of attack in <propernoun> which <propernoun> and other <propernoun> military official pin on al <propernoun> <weak_subj> to again foment sectarian violence,1
may respond accord to the witness that the girl <strongsubj> what she be do,0
the ship have <number> doctor include <number> surgeon and <number> nurse he say,0
<propernoun> state police have the phone,0
on those document <propernoun> use a triangular signature of dot and letter that resemble inscription find on gravestone of <properadj> cemetery in <propernoun>,0
<propernoun> <weak_subj> <weak_subj> deputy <weak_subj> to <propernoun> backtrack and overturn it,1
some <number> <propernoun> suspect or convict be in <properadj> jail and <number> allege <weak_subj> leader of the group be arrest last year,0
the <weak_subj> promise to tell the story of a decorated female officer who rise through the rank of the <propernoun> <propernoun> <propernoun> <propernoun> while allegedly hide a <weak_subj> secret she be get away with <weak_subj>,1
they be seal off the <weak_subj> scene a helicopter whir overhead,0
<weak_subj> anti fracking movie <propernoun> and <propernoun> <propernoun> have perpetuate many <strongsubj> claim that have be widely debunk,1
not <strongsubj> this <weak_subj> come about the time they yank the product off the shelf,1
<propernoun> finish their season <weak_subj> but end up a a no,1
<propernoun> member have return to their <propernoun> hotel follow a <weak_subj> last <propernoun>,0
we be hero when we serve a example and <weak_subj> each other,1
the <weak_subj> of military action be <weak_subj> <weak_subj> <weak_subj> in get ally to take economic action that be <strongsubj> to their own national <weak_subj>,1
earlier protester barricade road with stone and block access to and from the <propernoun> neighborhood where <propernoun> <propernoun> <propernoun> often preach,0
some <weak_subj> to self medicate with alcohol or drug,0
the architecture be <weak_subj> the greenery be <weak_subj> and the staff at the <strongsubj> desk be <strongsubj>,1
and that go for your <propernoun> earpiece <weak_subj>,1
a number of area along the border continue to experience a <weak_subj> growth in <weak_subj> with robbery homicide <strongsubj> theft and carjackings <weak_subj> during the past year nationwide the <weak_subj> say,0
earlier <propernoun> <strongsubj> <propernoun> <propernoun> have concede a <weak_subj> when he trip <propernoun> <propernoun> in the area,0
the judge <strongsubj> <strongsubj> if the remain photo include those where the child have not be identify <strongsubj> be give to the <weak_subj>,0
these <strongsubj> woman sacrifice <weak_subj> to keep u <weak_subj>,1
in addition to the killing <propernoun> admit to the attempted assassination of <propernoun> magazine publisher <propernoun> <propernoun> in <year> and <weak_subj> <weak_subj> leader <propernoun> <propernoun> in <year>,0
<propernoun> <propernoun> <propernoun> and <propernoun> <propernoun> contribute to this report,0
<propernoun> and <number> of her child be reunite <propernoun> with <number> of her other child and her mother <propernoun> say <propernoun>,0
<strongsubj> the <weak_subj> from these event exceed <number> <number>,0
he be a <weak_subj> figure because he be the first socialist leader ever elect in the hemisphere,0
people a <strongsubj> a del <propernoun> and his gang <strongsubj> all the <strongsubj> we can give them,1
according to some other <weak_subj> i <strongsubj> narrate for some other channel there be approximately <number> <number> specie on the planet give or take <number> <number>,0
<propernoun> appear to have criticize the joint military exercise last week,0
separately the <propernoun> on <propernoun> announce it be cancel all the <strongsubj> show it <propernoun> angel <propernoun> <propernoun> <propernoun> have schedule for the rest of the year,0
and what <strongsubj> thing to socialize around than use it to identify new product deal and scoop,1
their <weak_subj> <weak_subj> that <weak_subj> policy innovation be <weak_subj> unless we make the political system <strongsubj> be <number> that <weak_subj> be <strongsubj> remember,1
a attention for that <propernoun> page grow a compete blog with a more conservative ideology come into be,1
people with a history of drug <weak_subj> account for almost <number> denial,0
<propernoun> <propernoun> may be indict in the next few week on charge that include manslaughter and abandon ship before his passenger and other <propernoun> executive and crewmembers may also face <weak_subj>,0
outside <propernoun> <propernoun> steer u away from what we <weak_subj> <weak_subj> be our first chocolate hit,1
<number> <weak_subj> give by the administration for the aerial campaign be to <weak_subj> military adviser previously send to <propernoun> to work with <propernoun> and <propernoun> force,0
sailor at the <properadj> fishing port of <propernoun> say they have see a spike in the number of boat <weak_subj> of migrant depart on the <weak_subj> <number> to <number> hour journey to lampedusa about <number> kilometer <number> mile or <number> nautical mile away,0
unlike <propernoun> <propernoun> say it have find no evidence that any user information be compromise,0
the pup be recover <weak_subj> along the coast at the <propernoun> <propernoun> <propernoun> in <propernoun> <propernoun>,0
how can we <strongsubj> for global <weak_subj> and resilience unless we invest now in sexual and reproductive health and <weak_subj>,1
the anticipation of complete the climb be generate <strongsubj> with family member head to the mountain,1
<strongsubj> them all for be <strongsubj> and <weak_subj> them to keep in <weak_subj>,1
flight to crimea from <propernoun> <propernoun> and several other city have be suspend for the rest of the week with only those originate from <propernoun> land,0
the <number> nation argue that <weak_subj> in it watered <weak_subj> form without economic sanction the propose resolution <weak_subj> have lead to military intervention similar to the <propernoun> operation to <weak_subj> anti government protester in <propernoun>,1
a third physician review those finding and endorse their conclusion,0
and to boot for the first time since <year> a <propernoun> ambassador be kill in a terrorist <weak_subj> in <propernoun>,0
but the <properadj> connection to space be <weak_subj> older than that milestone,1
the <strongsubj> be that no other minority group in <propernoun> history have see more <weak_subj> toward <weak_subj> more rapidly than gay people have,1
the <weak_subj> image be allegedly collect at <number> minute interval during the chat,0
they have invent a monitor that gather <weak_subj> time data from water well use sonar,0
but <strongsubj> <propernoun> <strongsubj> fix the <weak_subj> or <strongsubj> it <strongsubj> check the box,1
the <weak_subj> <weak_subj> in the <propernoun> case underscore that while <propernoun> terrorist do pose a <weak_subj> to <propernoun> service member those with other type of <weak_subj> <weak_subj> also pose a similar <strongsubj> of <weak_subj> to <propernoun> government official and <properadj> law enforcement,1
<propernoun> speak publicly for the first time about her <strongsubj> at a news conference on <propernoun>,0
the <propernoun> <propernoun> jump into the same sex marriage <strongsubj> again decide <propernoun> to hear <weak_subj> this spring on the question of whether state have the <strongsubj> to ban same sex couple from get marry,1
an officer and the <weak_subj> be wound accord to the police chief,0
it <strongsubj> be a tough one,1
these road now <strongsubj> to be closely monitor there <weak_subj> to be share of information and the <strongsubj> border network <strongsubj> to be target,1
his first <number> victim be <properadj> journalist,0
after all <propernoun> be convict base on text message about miscarriage induce drug not evidence she have use or <weak_subj> purchase <weak_subj> drug,1
during his spell in the <propernoun> <propernoun> <propernoun> which end at <weak_subj> money <propernoun> <propernoun> he saw at first hand the trend towards club use ever more foreign import to supplement their rank,1
more <weak_subj> <weak_subj> drive be also available,0
last month a <properadj> government regional official announce the plan <strongsubj> for late this year have be delay until early <year> the state run news agency <propernoun> report,0
<weak_subj> visitation level for the first quarter of <year> have remain <weak_subj> accord to the <propernoun> <propernoun> <propernoun> <propernoun> and visitor <propernoun> which spokeswoman <propernoun> <propernoun> attribute to meeting and convention <propernoun> <propernoun> and marketing effort to promote the city a a <weak_subj> destination compare with other <weak_subj> <properadj> city,1
a <number> year <weak_subj> with <propernoun> end prematurely after <number> season follow a souring of <weak_subj> with team boss <propernoun> <propernoun> and his driving partner <propernoun> <propernoun>,0
the <propernoun> <propernoun> <propernoun> be forecast more than <number> inch of snow and wind up to <number> mph in the <propernoun> and <propernoun> <propernoun> area,0
<weak_subj> <weak_subj> <propernoun> supporter do not <weak_subj> the <propernoun> administration on enforcement <weak_subj> on secure the <properadj> border and there be <strongsubj> <weak_subj> to <strongsubj> this <strongsubj> <strongsubj> change,1
her father <propernoun> jokingly rue the day she <weak_subj> to talk,1
other <propernoun> member act impressed but <strongsubj> and a <strongsubj> <weak_subj> moment ensue in which the <propernoun> fighter make the <weak_subj> say that it be <strongsubj> they be there and saw it,1
the <propernoun> government be form in <propernoun> <number> month after an <weak_subj> national election,0
<propernoun> be <weak_subj> from the waist <weak_subj> after police exchange fire with him,0
a <year> <propernoun> <propernoun> study find that <number> state and the <propernoun> of <propernoun> have law that go beyond <propernoun>,0
there be some <strongsubj> among the accredited photographer that <propernoun> and <propernoun> <strongsubj> now become <weak_subj> more <strongsubj> of the camera but the palace say the couple be determine to carry on with the tour a plan,1
a crowd of onlooker can be see in the background,0
the <propernoun> <propernoun> use organic and <weak_subj> ingredient with a health conscious mindset,0
but <weak_subj> liberty group have push the <propernoun> <propernoun> to publicly disclose any use,0
<propernoun> pirate have kill <number> and take <number> crew <weak_subj> in <year> accord to the report,0
instead he argue we <weak_subj> <weak_subj> to find <strongsubj> before act collectively to put an end to <strongsubj>,0
the body be find at <number> be <propernoun> <weak_subj> in a forest about <number> yard from the house <propernoun> be rent accord to <propernoun>,0
<propernoun> <propernoun> be make up of former ally of <propernoun> once a leader of the <propernoun> movement that briefly hold <weak_subj> in <propernoun> in <year>,0
an autopsy <strongsubj> now determine how the <strongsubj> be deliver and whether he die before or after birth <propernoun> say,0
bryant <propernoun> <propernoun> say he spend time in the mountain of <propernoun> with al <propernoun> member,0
according to the <propernoun> <propernoun> <propernoun> the government lead by a general do not <weak_subj> control the countryside,0
the <weak_subj> of the widening <weak_subj> <weak_subj> gap or the <strongsubj> thereof have be discuss far <weak_subj> than the number soup,1
<propernoun> and his dad be drive home when the <weak_subj> hit,0
that be <strongsubj> news but <propernoun> have be <weak_subj> <weak_subj> in achieve <weak_subj> with other <weak_subj> <weak_subj> because it have not take the measure of the share past,1
both family now have brand new home and can start the process of rebuild their life,1
<propernoun> also hop for some more <weak_subj> to be take with these design,0
now in her <number> <propernoun> <propernoun> be change that attend elementary school and <strongsubj> a generation,1
justice <propernoun> <propernoun> <propernoun> and <propernoun> <propernoun> dissent,0
it be an <weak_subj> metaphor because <weak_subj> <weak_subj> analyst say the clock be tick on the <propernoun> administration a it first and <weak_subj> only term in office wind <weak_subj>,1
<propernoun> <strongsubj> your <weak_subj>,1
stem be advise by his attorney not to attend the council meeting accord to <propernoun> affiliate <propernoun>,0
<propernoun> chuckle,0
in the meantime <propernoun> say the <propernoun> state be work on multiple front,0
the <weak_subj> investigation begin on <propernoun> <number> <propernoun> say,0
<propernoun> make mass cost <weak_subj> product <propernoun> state consumer buy them,0
and you <strongsubj> if people start talk about homemade remedy fashion from bleach <strongsubj> click off and see a doc,1
i remember the <properadj> family member who be <strongsubj> <weak_subj> to <weak_subj> to take their quest for answer public and be drag out of the <weak_subj> room in <propernoun> <propernoun> <strongsubj> and cry,1
the <weak_subj> of guard a family recipe secret be <number> the boy know how to play,1
<strongsubj> a <weak_subj> it do,1
touma a <number> year veteran of the <propernoun> have serve with the <propernoun> <propernoun> <propernoun> <propernoun> <propernoun> in <propernoun> <propernoun> and in <propernoun> <propernoun> <propernoun> <propernoun> before her stint at <propernoun> <propernoun>,0
<propernoun> do not <strongsubj> what to do,0
they <strongsubj> target <propernoun> shrine which they <strongsubj> be sacrilegious,0
<weak_subj> <weak_subj> hunters mainly from the <propernoun> state be pick off elephant in their <strongsubj> to bag the biggest tusk and trophy and rise within the rank of the global trophy hunt fraternity,1
after that time <propernoun> <strongsubj> no longer pay those dealer for warranty work,0
other analyst be not convince that <propernoun> be go after <propernoun> <strongsubj> yet,0
the seat allocation have be a <weak_subj> sticking <weak_subj> for the <strongsubj> which want to <weak_subj> it have the <weak_subj> to <strongsubj> <weak_subj> decision,0
the <propernoun> <propernoun> be clear for employee to come <weak_subj> to get their belonging but inspector ask people to <weak_subj> their time inside the building while engineer continue to work around the <weak_subj>,0
<propernoun> correspondent <propernoun> <propernoun> say iranians take to the street across their country to <strongsubj>,0
these attack cast in <weak_subj> <strongsubj> a trend that <weak_subj> greater attention the <weak_subj> and <weak_subj> participation of woman in <weak_subj> movement,1
<propernoun> say it be <weak_subj> to select firearm for law enforcement on anything other than what be <strongsubj> for police officer,1
the <propernoun> government have portray <propernoun> a the <strongsubj> <strongsubj> cop a man who be pay million by the <propernoun> drug cartel in <propernoun> to <weak_subj> cocaine and money shipment,1
<propernoun> <number> year to the month after <propernoun> be bear <propernoun> speak with <propernoun> and <propernoun> <propernoun> <propernoun> of <propernoun> <propernoun> <propernoun> the company that manage the <weak_subj> licensing <weak_subj> to the <weak_subj>,0
on <propernoun> prosecutor go over all the evidence and witness they have and give a summation of the case <weak_subj> van der <propernoun>,0
we do <strongsubj> he be a carpenter <weak_subj> <strongsubj> <propernoun> be buff,1
the hospital release a letter late <propernoun> sent by chief executive <propernoun> <propernoun> to lawmaker <propernoun> <propernoun> who have be support the <propernoun> family,0
televising it also <weak_subj> <weak_subj> fulfill a campaign <strongsubj> by <propernoun> that health <weak_subj> negotiation <weak_subj> be broadcast <weak_subj>,1
the militia fight for control of the airport from the city of <propernoun> and <propernoun> be among the <weak_subj> <strongsubj> arm in the country,1
but you can never design a <strongsubj> protocol,1
but <propernoun> <propernoun> level <strongsubj> <number> minute later after <weak_subj> work by <propernoun> <propernoun> earn a <weak_subj> that put <propernoun> <number> point ahead of <propernoun> in fourth place and extend their unbeaten home run to <number> match,1
<propernoun> <propernoun> reject the finding of mass graves a <strongsubj> from the west and call for a <number> week unilateral cease fire in the state say the government <weak_subj> <strongsubj> the situation after that period,0
<propernoun> <propernoun> follow closely along with <number>,1
the <number> want to use their <weak_subj> in <weak_subj> energy to provide a service that people <weak_subj> <strongsubj> <strongsubj>,1
what happen next be not what <propernoun> or <propernoun> <weak_subj> have anticipate or want,1
<propernoun> a <properadj> executive who spend <number> year with <propernoun> before he be name the first foreign president last <propernoun> lead a public campaign to fire the exist <propernoun> board and return to company management,0
<weak_subj> with <propernoun> in <strongsubj> and <propernoun> <strongsubj> all time <weak_subj> <weak_subj> rating a <propernoun> <propernoun> seat <weak_subj> have <weak_subj>,1
the soldier <weak_subj> <propernoun> become part of the national army through that <weak_subj>,0
when she get out of the <weak_subj> she hear a woman cry and saw the <weak_subj> of her home be destroy,0
<propernoun> de <propernoun> take <number> wicket for <number> on his debut for <propernoun> <propernoun> the <strongsubj> figure record by any bowler in <propernoun> cricket in <year>,0
<propernoun> <propernoun> be an attorney who run the <propernoun> <propernoun> <propernoun> for <propernoun> <propernoun>,0
the <propernoun> have sideline <propernoun> who be on leave with pay while he handle the legal <weak_subj>,0
prosecutor drop rape and other charge in exchange for the <weak_subj> <weak_subj>,0
the status of <propernoun> citizen who <strongsubj> <strongsubj> government policy regard <properadj> <weak_subj> be steadily erode,1
but these day some retail chain be give away generic <propernoun> while the rest be charge <weak_subj> <number> cent a pill,0
<propernoun> <propernoun> <propernoun> say that while the federal law in question do not <weak_subj> mention <weak_subj> car chase they <strongsubj> be the <strongsubj> of <weak_subj> that deserve to be treat more <strongsubj>,1
in <year> <propernoun> name him <number> of the <number> people to watch in the next century,0
rancher and farmer have join force with tribal community and create the unified coalition in oppose the construction of the pipeline that <weak_subj> <weak_subj> tar sand oil through their land from <propernoun> to <propernoun>,1
in <propernoun> <year> the ever tour <propernoun> cancel an <propernoun> <propernoun> concert but that be due to <weak_subj> condition on the road into the city,0
among the type of game <propernoun> <strongsubj> work with include those that involve sword bow and arrow gun punch and <weak_subj> more,0
the <propernoun> <strongsubj> work to remind both the <properadj> government and the armed <strongsubj> of their obligation to <strongsubj> international humanitarian law and share it analysis of what be occur with both side,0
in <year> he negotiate the release of <propernoun> <propernoun> an <properadj> <properadj> businessman detain in <propernoun> for more than <number> year on <weak_subj> of support an anti regime group,0
<propernoun> say he hash out the <weak_subj> <propernoun> with former <propernoun> <propernoun> <propernoun> <propernoun> who direct the <propernoun> <propernoun> for the <propernoun> of <propernoun>,0
they all offer a <weak_subj> nutrition profile,1
the campaign in the <number> <propernoun> which cover <propernoun> and have a <weak_subj> <properadj> <properadj> population be dominate by race,1
<propernoun> <propernoun> be <strongsubj> in the half pipe,1
my <strongsubj> be that many institution <strongsubj> eventually alter how they <weak_subj> people who <strongsubj> to self track,1
<propernoun> be appoint <weak_subj> <weak_subj> last week amid <weak_subj> tension on the <properadj> peninsula follow an exchange of gunfire between the <number> side,1
<strongsubj> many of the police and military leader in this region be appoint by <propernoun> and do not <weak_subj> to be <weak_subj> <weak_subj> to the new government,1
shortly after his election to the <propernoun> <propernoun> <propernoun> buy a house for <number> below the asking price,0
he return to the <propernoun> state in <propernoun> <year>,0
in the <propernoun> for instance the average blue chip boss can earn up to a <strongsubj> <number> time the salary of their ordinary worker,1
they be our aunt and uncle grandparent daughter son neighbor our doctor and minister our <strongsubj> <weak_subj> and co worker,1
i <strongsubj> them to be fulfil,1
<weak_subj> i ask some folk who <weak_subj> <strongsubj> the parent of <propernoun> <number>,0
<propernoun> chief <propernoun> <propernoun> <weak_subj> express <strongsubj> say he be <strongsubj> by report of arrest and <weak_subj>,1
those vie to <weak_subj> <propernoun> on the <properadj> side be pounce,1
while observer continue to <strongsubj> a person with a <weak_subj> <weak_subj> of the situation appear on <propernoun> <propernoun> morning,1
in the case of <propernoun> <propernoun> <number> a <propernoun> <number> miss since <propernoun> a search of an area capture by <propernoun> satellite image that seem to pinpoint the crash site turn up nothing,0
specimen from <number> be test and <propernoun> be rule out in all <number> case,0
in <propernoun> the <propernoun> <propernoun> <propernoun> issue a travel <weak_subj> for <propernoun> because of <propernoun> activity,0
he have be <strongsubj> embrace by all those who follow the <propernoun> <propernoun> across the country,1
for instance he start the inaugural parade when government official member of <propernoun> <propernoun> unit and <weak_subj> citizen escort him to the ceremony,0
<propernoun> <propernoun> have both <weak_subj> <properadj> <propernoun> and <properadj> population but <propernoun> of <properadj> <properadj> and <properadj> heritage focus on <weak_subj> resident and neighborhood,0
it start to pick up a bit,1
all be <propernoun> <weak_subj>,0
her mother and then her partner buy her clothes,0
an <propernoun> base journal <properadj> <propernoun> suggest that <propernoun> <weak_subj> cap it uranium <weak_subj> at <percentage> percent a grade that can be use for nuclear <weak_subj> but not for nuclear weapon in exchange for ease sanction,0
<propernoun> <propernoun> <propernoun> be create by a team of journalist and educator who <strongsubj> the <propernoun> <propernoun> <propernoun> <propernoun> national standard in different subject area and state standard when produce the <weak_subj> and curriculum,0
<propernoun> be among more than <number> <properadj> national the government believe fight in <propernoun> and <propernoun>,0
since <propernoun> <year> at <weak_subj> <number> individual have die a the result of an encounter with <propernoun> <propernoun> and <propernoun> <propernoun> official say the <strongsubj> group <propernoun> <propernoun> community <propernoun>,0
the official say <propernoun> do not report the information to police or authority,0
the student involve be both male the district say,0
<propernoun> <propernoun> say <propernoun> it <weak_subj> lift a ban on foreign food agency in <weak_subj> hit area under it control,0
<propernoun> <propernoun> choose to <weak_subj> the <propernoun> <propernoun> in <propernoun> <propernoun> on the anniversary of <propernoun> because of that symbolic <weak_subj> <strongsubj> the <weak_subj> driver license he rent the truck with have the date of issuance a <number> <propernoun> <year> the date of the <propernoun> <propernoun> fire,0
he have campaign <weak_subj> the <weak_subj> dolphin trade with his organization the <propernoun> <propernoun> and also feature in the <propernoun>,0
that same year a <propernoun> woman be briefly jail at a suburban <propernoun> <propernoun> courthouse after refuse to remove her hijab in <strongsubj>,0
both be catholic but from contrast tradition,1
he pass the <propernoun> medical board exam <strongsubj> <number> month after be accept into the program,0
on <propernoun> where people post resume information we find that people <strongsubj> <weak_subj> about their past responsibility and skill than in a <weak_subj> paper base resume,1
<strongsubj> the others he be order not to be involve in the safety of film crew,0
i <strongsubj> the new home at a cost of <strongsubj> <number> <weak_subj> <strongsubj> change their life,1
<propernoun> respond with a <number> page report argue in part that he have not violate the <propernoun> <propernoun> <propernoun>,0
<propernoun> say he be <weak_subj> to push ahead and form a government without <propernoun> if <weak_subj>,1
<weak_subj> <propernoun> speak on the radio <propernoun> say <weak_subj> the commissioner announce a permanent cease fire the <propernoun> <strongsubj> meet again after the <number> day truce expire and <weak_subj> whether it <strongsubj> be extend,0
in that case <number> lawyer who argue opposite side of the landmark <year> <propernoun> v <propernoun> case which decide that presidential election <propernoun> <propernoun> <propernoun> and <propernoun> <propernoun> <propernoun> be unite in push for legal <weak_subj> of same sex marriage,0
italian <propernoun> <propernoun> be third fastest to join them on the front row on his yamaha,0
<propernoun> make similar <strongsubj> say the weapon have go to snezhnoe a rebel stronghold <weak_subj> to where <propernoun> come <weak_subj>,0
i be <strongsubj> <strongsubj> with the iron and the <weak_subj> play,1
where be the smoking gun the poster asks,1
his new <propernoun> through <propernoun> gig <strongsubj> <weak_subj> him to keep his <strongsubj> of see them off to class until they head to college,1
<propernoun> run and be arrest after a <number> hour manhunt,0
the couple say they spend <number> to ship <propernoun> on the <number> hour flight,0
before the acquisition the accused bank have <number> branch in <propernoun> and have grow in recent year from asset of <number> <number> in <year> to <number> <number> in <year>,0
<propernoun> official say no violation of federal explosive law be discover but add that chemical storage rule may have be violate,0
in the past it have be report he wear a cyanide capsule around his neck to swallow and <weak_subj> himself <strongsubj> than <weak_subj> capture,0
<propernoun> <propernoun> be the <propernoun> who no longer have to face <propernoun> <propernoun>,1
<propernoun> <propernoun> the wife of <propernoun> leader <propernoun> <propernoun> have be a <weak_subj> for female <weak_subj> in <propernoun> for more than <number> decade now,1
<propernoun> be schedule for <propernoun>,0
i start <strongsubj> <weak_subj>,1
<propernoun> seem to be <strongsubj> of this <strongsubj> which be why she have assemble a team of veteran political operative to manage her campaign,0
a recent survey show that <propernoun> <strongsubj> be <strongsubj>,1
a a single mother with <number> other young child the biological mother <strongsubj> she have no choice but to give her daughter up for adoption say a legal brief file by her lawyer,0
<propernoun> be show a a man with <weak_subj> goal and <weak_subj> arm method and a <weak_subj> pragmatism when it come to decide what <weak_subj> be do when,1
he reach out to alcorn to offer his online <weak_subj> and experience to the effort,0
by the next summer <propernoun> say she pay a total of <number> euros in bribe accord to the documentary,0
<propernoun> <weak_subj> <number> others injured gunman <weak_subj> police say,0
the country be determine to <weak_subj> <propernoun> but require that <propernoun> meet it commitment he say add that the other member of the euro zone <weak_subj> not <weak_subj> the euro to be destroy,0
take your pick,1
people watch from the bridge itself or observe from behind the safety of a drink umbrella at <number> of the few restaurant with a <strongsubj>,0
<strongsubj> a commonly distribute app for <propernoun> call <propernoun> <strongsubj> make hack <weak_subj> through the handset itself,0
for <propernoun> diplomats <number> of the challenge be to work out what <strongsubj> amount to a <weak_subj> <weak_subj> and what <strongsubj> be a scam,0
and <propernoun> <weak_subj> opt to continue a program for some who be bring to the <propernoun> state a kids,0
the <propernoun> <propernoun> <weak_subj> experience heavy rain and coastal flooding next week a <propernoun> approach the area,0
<propernoun> choreographer <propernoun> <propernoun> have enter a rehab facility but no detail have be make public about what treatment he be seek,0
the reason for take <weak_subj> a small share of the aviation market have be the same for decade <weak_subj> infrastructure stall liberalization <weak_subj> tax and fuel charge,1
<propernoun> have undergone several surgery and radiation treatment in <propernoun> in the past year and a half,0
the <strongsubj> be about an alleged <weak_subj> that occur in a <propernoun> <propernoun> hotel <propernoun> morning police say,0
the military say earlier <propernoun> that <number> body have be recover,0
we have see this self aggrandize spectacle of people <strongsubj> check movie with <number> recent film,1
the meeting which be be hold in <propernoun> be schedule to resume next week,0
but recycle in <propernoun> be <weak_subj> <weak_subj> work,1
if you see me in bar in about <number> year time stop me,1
but we also <strongsubj> our leader to connect the dot,1
we use the <propernoun> currency,0
the <weak_subj> be expect to intensify <propernoun> a it move northeast into the <propernoun> and upper <propernoun> <propernoun>,0
for them the chance to <strongsubj> be hear <weak_subj> the greater <weak_subj>,1
<propernoun> <propernoun> write in a post,0
but i <strongsubj> this <strongsubj> be a <weak_subj> <weak_subj> and get bigger over time,1
for a while he get by with a <weak_subj> setup that trigger a bass drum noise when he hit a <weak_subj> pad with a drumstick,0
by <number> year old child <strongsubj> the <weak_subj> between <strongsubj> and reality <weak_subj> they be more <weak_subj> to be frighten by televised news coverage of event <weak_subj> a kidnappings murder and <weak_subj> say <propernoun> <propernoun> professor of at <propernoun> of <propernoun> <propernoun> who be not involve with the study,0
<propernoun> seem undeterred by any of these consequence,1
these day the trend be <weak_subj> <weak_subj> toward professional manager executive who swap industry a they <strongsubj>,1
the parking lot be underwater,0
<strongsubj> be know about what cause tnbc,0
at <weak_subj> than <number> foot <weak_subj> it <strongsubj> <strongsubj> in <weak_subj> garage save rent on hangar space,0
the <propernoun> <propernoun> and <propernoun> <propernoun> a state agency that oversee the <propernoun> have approve spending hundred of thousand of dollar to replace the feeder cable,0
usually autism be diagnose at around <number> <propernoun> say,0
at <number> <weak_subj> <properadj> <propernoun> <propernoun> <propernoun> of <propernoun> give the <propernoun> leader <strongsubj> <weak_subj> to take a <weak_subj> breath before speaking,1
after the parliamentary vote <propernoun> <strongsubj> <weak_subj> his <weak_subj> to <propernoun> <propernoun> <propernoun> who <strongsubj> then begin consultation with lawmaker to <weak_subj> whether to form a government or call for election,0
<propernoun> with the <weak_subj> <weak_subj> impairment in social interaction and in their <weak_subj> to communicate,0
the case be under investigation by <propernoun> <propernoun> <propernoun> a unit within <propernoun>,0
the <strongsubj> of specific <weak_subj> how <weak_subj> the <propernoun> be <weak_subj> to investigate <propernoun> the law enforcement official say,0
she <strongsubj> about meet her <weak_subj> <weak_subj> during her later year and think about sell her house to finance her expense,0
he say a reporter for the <propernoun> <propernoun> <strongsubj> choose the case record the newspaper want to see from a list,0
but the <properadj> <propernoun> of <propernoun> be urge member to <strongsubj> the advertisement,0
first come the <strongsubj> with <propernoun> address the <weak_subj> in his first sentence by accept <strongsubj> <weak_subj> <weak_subj> <strongsubj> he say last week he <strongsubj> nothing about it,1
the remain <percentage> percent <weak_subj> <weak_subj> item <strongsubj> weapon ammunition and other <strongsubj> equipment come in by <strongsubj>,0
they argue the <propernoun> <weak_subj> have some <weak_subj> to <weak_subj> a change to obamacare on that measure,0
he write the book by blink his left eyelid,0
<strongsubj> <weak_subj> <propernoun> <propernoun> her soul patch dad and the <weak_subj> <propernoun> movie machine humming along,1
they have be suspend by <propernoun> and be due in <strongsubj> later this month,0
it <strongsubj> term publishing and political impact be unknown for now <strongsubj> a <propernoun> move out of the mainstream medium <strongsubj> publicity machine and into more <strongsubj> <weak_subj> political terrain the <weak_subj> for <weak_subj> on both front <weak_subj> exponentially,1
it be <strongsubj> <strongsubj>,1
<propernoun> <propernoun> be about a mile from <propernoun> <number> mile southeast from the epicenter of the quake,0
some guy have recipe that you <weak_subj> mix together <number> or <number> <propernoun> and have a <strongsubj> <weak_subj> meal if you have heat and the time to cook it,1
for the record no one have ever or <strongsubj> ever speak for me but me,1
there be other <strongsubj> statistic to <strongsubj>,1
<propernoun> for <propernoun> <strongsubj> help all of u <weak_subj> those of u who do not participate in the program or work in the auto industry,1
this apply equally to <propernoun> now,1
after it declaration of autonomy <propernoun> accuse the <propernoun> of be in league with al <propernoun> and of wreck a <weak_subj> <strongsubj> for <propernoun> <weak_subj> in <propernoun>,1
she have a <number> figure salary a an executive with <propernoun> <propernoun> a <propernoun> and a <number> bedroom house in <weak_subj> <propernoun> <propernoun>,0
<propernoun> say sanction <weak_subj> <propernoun> <weak_subj> continue and <weak_subj> strengthen if <propernoun> continue to advance it nuclear program during negotiation,0
the parent have deny the <strongsubj> in the lawsuit and call the case <strongsubj>,0
with <propernoun> strain to recapitalise it bank and <properadj> reform in <strongsubj> <propernoun> <propernoun> on <propernoun> signal that <propernoun> <propernoun> <weak_subj> use his <propernoun> visit to <strongsubj> <propernoun> <propernoun> to take <weak_subj> step to pull the eurozone <weak_subj> from the brink of <strongsubj>,1
in a <strongsubj> world a woman <strongsubj> from <weak_subj> <weak_subj> be <weak_subj> to get a prescription from her doctor go to a pharmacy acquire her medical marijuana go home and recuperate from her last round of chemotherapy,1
across <propernoun> prefecture crew be scrap away contaminate soil acre by acre,0
earlier international <weak_subj> envoy <propernoun> <propernoun> say the <weak_subj> be at a <strongsubj>,0
this <weak_subj> have be the <weak_subj> first <weak_subj> <weak_subj> for the midfielder to <weak_subj> celebrate his goal in the <propernoun> <propernoun> in the style he do but <strongsubj> for him there be several more,1
in non <weak_subj> crime the <propernoun> say property <weak_subj> decline <number>,0
a new report on <weak_subj> school dropout in the <propernoun> state call for a national re enrollment strategy,0
youtube which allow user to upload and share video have be ban periodically in other country a <weak_subj>,0
<propernoun> <propernoun> do be <number> year old,0
<weak_subj> if you <weak_subj> in the middle of the city you can get to a forest in a short time but you <weak_subj> have that <weak_subj> city <strongsubj>,1
<propernoun> <propernoun> <propernoun> <propernoun> want to provide the <strongsubj> experience for the user and <weak_subj> the <propernoun> logo be initially place to be <strongsubj> <weak_subj> to onlooker,0
<propernoun> detail be not forthcoming,1
the political force that generate <strongsubj> <weak_subj> in <propernoun> be <strongsubj> root and <weak_subj> to change,1
without the <weak_subj> and experience that <strongsubj> spacecraft operation provide the <propernoun> be far <weak_subj> <weak_subj> to be on a <strongsubj> downhill slide to <strongsubj>,1
the bombing kill <number> <propernoun> sailor,0
after the surgery <strongsubj> <propernoun> <weak_subj> quickly,0
within hour of the quake the volunteer become de facto nursing assistant after word spread that <propernoun> <propernoun> <propernoun> be serve a a makeshift triage center,0
the hair have a <weak_subj> band that <propernoun> testify have only be see in hair remain in the scalp of a decomposing body,0
along with a <propernoun> representative the hearing invited testimony from the <propernoun> and the <propernoun> of <propernoun> <propernoun> a professor and an official from the <properadj> <properadj> <propernoun>,0
the <number> woman gather their belonging and leave the hotel authority say,0
due to combat injury remain be often <weak_subj> to identify and official have <strongsubj> acknowledge that <propernoun> do retain some human remain and part that be <weak_subj> damage they be not <weak_subj> to identify,0
we <strongsubj> him to <weak_subj> to set an example for the world of how a man can mark his <number>,1
the <properadj> president offer a <strongsubj> equal to <number> for information that allow authority to identify and capture those <weak_subj> for the act of vandalism and attack <weak_subj> <weak_subj> force,0
there seem to be <strongsubj> <strongsubj> among unit leader in the <number> <number> lar who have be train and watch their troop grow in skill and <strongsubj> in recent month,1
in exchange the organization not only help to shape young mind to <weak_subj> the cause but get write <weak_subj> from the local community to set aside a patch of land for conservation purpose a stretch that <strongsubj> be <weak_subj> form hunt logging and unplanned agriculture,1
they be both <propernoun> <propernoun> speak ethnic afghans who over the year have be persecute and discriminate <weak_subj>,0
it be available on the pc <propernoun> <number> <propernoun> <number> <propernoun> <propernoun> <number> and <propernoun>,0
british designer <propernoun> <propernoun> create a <weak_subj> sculpture out of palm leaf with the <weak_subj> of <propernoun> artisan at the recent <propernoun> <propernoun> <propernoun> <propernoun>,0
the military government in <propernoun> hold <propernoun> <propernoun> under house arrest from <year> to <year> and again from <year> to <year>,0
opening his computer he show me page after page of <strongsubj>,1
if the <weak_subj> result in a call be overturn the manager be grant a second <weak_subj>,0
he be approach a margin of <strongsubj> last see by <propernoun> <propernoun> <propernoun> in his <year> re election,0
the sticking point involve how <weak_subj> to spend on what a <weak_subj> a the broader policy issue of who get deport and how <weak_subj>,1
he hide it at first but i soon realize <propernoun> be in <weak_subj> <strongsubj>,1
shriners <propernoun> be a health <weak_subj> system that give child <weak_subj> treatment for burn spinal cord injury orthopedic condition and cleft lip and palate accord to it <propernoun> site,0
it be <weak_subj> by the military for it fire <weak_subj> and breathable property,0
<propernoun> batsman <propernoun> <propernoun> be announce a the <strongsubj> <weak_subj> of the series,0
he have also say he plan to announce an immigration overhaul after the midterm election,0
<propernoun> have be <strongsubj> <propernoun> to <weak_subj> it currency to <strongsubj> more freely,1
in response she say that the <strongsubj> of the data be <number> of it strength,0
since it foundation in <year> the <properadj> <propernoun> <propernoun> have inspire officially registered sister party in <number> country include <propernoun> the <propernoun> <propernoun> <propernoun> and <propernoun>,1
<propernoun> say police receive tip on a many a <number> <weak_subj> or miss woman who be identify by other people call and e mail about the photo,0
it have the longest drop the steepest drop and go faster than any other wooden coaster,0
<propernoun> and <weak_subj> but with an <weak_subj> selection of apps <propernoun> <propernoun> <number> have struggle but <weak_subj> grown since make it debut a year ago,1
the agency have be work to get refugee out of <weak_subj> zone and to provide them with <weak_subj> drinking water sanitation and <strongsubj> supply,0
oftentimes the violence be not incidental,1
i <strongsubj> to <strongsubj> that the path of <weak_subj> be convergent,1
the airport expect a new <propernoun> <number> opening in <year> for <propernoun> <propernoun> and <propernoun> in <year> to bring <number> <number> passenger a year,0
these number <weak_subj> represent an increase in use among americans or <weak_subj> an increase in the number of people who <strongsubj> <propernoun> report use of the drug on a national survey,1
they begin add new post about the relationship only after the <number> day be up,0
the <propernoun> see <propernoun> a <strongsubj> but they see no alternative to accept it <strongsubj> he say,0
director <propernoun> <propernoun> vividly recall his teenage self watch <propernoun> during the <number> in an almost permanent state of <strongsubj>,1
a <strongsubj> bit of background help to explain,1
many people appear to be <strongsubj> from the tear gas,1
technician determine that the gunpowder be <weak_subj> <weak_subj>,0
i <strongsubj> <strongsubj> you <weak_subj> <weak_subj>,1
they be <strongsubj> and i be <weak_subj>,1
the main thing be she want everyone to <strongsubj> <weak_subj>,1
at <number> <propernoun> <propernoun> be the second oldest <propernoun> incumbent run for re election this year,0
motorist <weak_subj> stop top off their tank and only pump the amount of gas they <strongsubj>,1
a <propernoun> newspaper report <propernoun> that an <propernoun> agent have arrive in the country in connection with the investigation,0
and the president have show no sign that he <strongsubj> <strongsubj> to <weak_subj> that he <weak_subj> <weak_subj> and <weak_subj> the country,1
<strongsubj> the <number> <number> attack warrant <strongsubj> attention,1
the <propernoun> <propernoun> be <number> of the few opportunity democrat see a a race in which they <weak_subj> pick up a <propernoun> seat and <weak_subj> maintain their majority in the chamber,1
the <propernoun> <strongsubj> be schedule to last <number> day with a vote expect late on <propernoun>,0
<propernoun> <strongsubj> keep work until <propernoun> <number> meeting with pastor from <propernoun> <propernoun> bishop and the visit president of <propernoun> <propernoun> and other country accord to the <propernoun> <weak_subj> office,0
ticketmaster pioneer online ticket sale a <weak_subj> convenience that do away with <strongsubj> line at the box office,1
investigating <propernoun> <propernoun> <propernoun> rule <propernoun> there be <weak_subj> evidence to unconditionally detain both men,0
but <strongsubj> it all come <weak_subj> to likability something that <propernoun> <weak_subj> outrank <propernoun> on,1
<propernoun> manager <propernoun> <propernoun> saw his team <strongsubj> a quartet of <strongsubj> goal but he <weak_subj> not <strongsubj> their <weak_subj> to the cause,1
some <number> fuel unit to be <strongsubj> rest in a cooling pool within the damage <propernoun> <number> building,0
export of tea coffee vegetable and flower be <weak_subj> earner for the country with agriculture make up about a fifth of the total economy,0
the <propernoun> enact <weak_subj> tariff during the <propernoun> <propernoun> and many trading partner retaliate,0
the body of <propernoun> <propernoun> <propernoun> and <propernoun> <propernoun> <propernoun> deputy public investigator and secretary of public safety in <propernoun> <propernoun> <propernoun> be find in early <propernoun>,0
bynes have <strongsubj> a bit of legal <strongsubj> and some <strongsubj> tweet in which she attack fellow celebs,1
the offense be a federal <weak_subj> both in the <propernoun> state and in <propernoun> he say and <weak_subj> be prosecute in either location <weak_subj> that <strongsubj> be determine later,0
occupying <propernoun> and raise tension in eastern <propernoun> to prevent <propernoun> from <strongsubj> toward more <properadj> <weak_subj> be a <weak_subj> priority for the <propernoun>,1
they own a handful of newspaper and <strongsubj> magazine and if they combine their audience they <weak_subj> match <strongsubj> a tenth of the audience of <strongsubj> <number> television news network,0
designed by float architecture specialist dutch docklands the propose site be <strongsubj> a <number> minute speedboat ride from <propernoun> capital <propernoun> and <strongsubj> offer <number> hole of golf set upon <number> interlinked island,0
<propernoun> <propernoun> and <propernoun> <propernoun> be on the scene a source with firsthand <strongsubj> of the incident say,0
the cost be cover by a federal grant,0
<propernoun> <propernoun> keep search,0
according to market research shopper prefer <properadj> and <properadj> oil <strongsubj> <number> of <properadj> olive oil be extra virgin compare to <number> in <propernoun>,0
<propernoun> <propernoun> watcher and <propernoun> official say the recent <strongsubj> of <strongsubj> language from <propernoun> <propernoun> under it young leader <propernoun> <propernoun> <propernoun> make the situation on the <properadj> <propernoun> more <strongsubj> and <weak_subj>,1
some of the kidnappers jump into the water recapture <propernoun> and return him to the lifeboat accord to the official,0
the <propernoun> and <propernoun> <propernoun> <propernoun> last year award a <number> grant to fund the development of graphene prophylactic,0
it be also <propernoun> that pave road and build bridge,0
<propernoun> <propernoun> tell <propernoun> that authority receive a tip <propernoun> suggest that another car be at the scene race the porsche when it slam into a <weak_subj> pole and burst into flame,0
<propernoun> who represent <propernoun> in <number> match want to ingrain a similar <weak_subj> of go beyond the boundary to his <propernoun> charge,0
on <propernoun> <propernoun> republican promise to <weak_subj> every legislative action until the <propernoun> have move to fund the government and extend tax cut,0
the mall <weak_subj> be the deadliest <strongsubj> <weak_subj> in <propernoun> since al <propernoun> blow up the <propernoun> <propernoun> there in <year> kill <number> people,0
<number> <weak_subj> also <strongsubj> that <weak_subj> <weak_subj> stretch the logic to an <strongsubj> and inapplicable <strongsubj>,1
the goal <propernoun> say be not only to <weak_subj> the <weak_subj> see again but also to lead a <strongsubj> life,0
he say dog have figure out how to read human behavior and human <weak_subj> <strongsubj> than any other specie have <weak_subj> chimpanzee,1
at a time when his <weak_subj> be settle <weak_subj> with family the <weak_subj> surfing pin up boy be <weak_subj> score <strongsubj> <number> on the international circuit,1
the affidavit also indicate <propernoun> <propernoun> and <propernoun> make <propernoun> withdrawal on <propernoun> <number> to purchase drug,0
the <strongsubj> express in this commentary be solely those of <propernoun> <propernoun> <propernoun>,0
<propernoun> be in an <strongsubj> over the <weak_subj> which <weak_subj> have global implication,1
state epidemiologist <weak_subj> have make those phone call a <strongsubj> time ago she say since every day that pass her memory and those of other mother start to fade about what their habit be during pregnancy,1
he have say the rock the ship <weak_subj> be not indicate on his chart of the area,0
<propernoun> debate the issue on his twitter account where he deny call <propernoun> a <strongsubj>,0
this service support in store tap to pay payment from your phone via near field communication technology a <weak_subj> a purchase on the web,0
it also decline a <propernoun> interview to respond to the claim,0
with genuinely <weak_subj> class player <weak_subj> a <propernoun> <propernoun> <propernoun> <propernoun> and <propernoun> <propernoun> in the squad this be a quality of <strongsubj> <propernoun> have yet to face this tournament,1
during his speech <propernoun> tout change in the health <weak_subj> system already pass in his month old administration a part of the <properadj> <propernoun> and <propernoun> <propernoun>,1
the tower <propernoun> <propernoun> peak near <propernoun> be a <strongsubj> of the <strongsubj> scenery along our route,1
the advent of the digital camera he say have make his job <weak_subj>,0
<number> of those include a <year> case in which an employee solicit a prostitute who be <strongsubj> an undercover police officer,0
<propernoun> die in <propernoun> <propernoun> after a short <weak_subj> the publishing house <propernoun> <propernoun> announce on behalf of his family,0
<propernoun> leave a wife and <number> son age <number> <number> <number> and <number> month,0
neither man <weak_subj> be reach by <propernoun> on <propernoun> for <weak_subj> on the charge,0
but <propernoun> leave his at the <propernoun> village,0
<propernoun> have work with <propernoun> on mental health legislation but be not a <weak_subj> confidant,0
in an address to parliament that last nearly <number> minute <propernoun> <number> frequently return to the theme of <weak_subj> <weak_subj> and <weak_subj> for <propernoun> and vow to preserve the territorial <strongsubj> of the country,0
that be say the <weak_subj> in <propernoun> be throw more fuel into an already burning fire,1
<propernoun> say <propernoun> <weak_subj> be <weak_subj> to operate for between <number> and <number> year <weak_subj> only by the amount of fuel it have to maintain orbit and the <weak_subj> of the electronics to <weak_subj> up to the <strongsubj> space environment,0
the <number> charity give sizeable fund to cage,0
<number> year <weak_subj> the road,0
never <strongsubj> at <weak_subj> in these situation <propernoun> mill about for <number> minute or <weak_subj> keep a few foot between herself and the <weak_subj> before walk <weak_subj> into the <weak_subj> barn,1
the <weak_subj> and it player be also socially <strongsubj> of cause and <weak_subj> in <weak_subj> life community,0
acupuncture be <number> of the <weak_subj> <weak_subj> of all <weak_subj> treatment,0
if we have bother to recognize how <weak_subj> our world be it <weak_subj> be harder for people to dismiss place <strongsubj> the <propernoun> <propernoun>,1
in the <propernoun> clash which be reportedly set off by a <strongsubj> between a <propernoun> <weak_subj> shop owner and <number> <propernoun> seller rioter set fire to house school and mosque prompt thousand of resident to flee their home,0
it be the second time <propernoun> <propernoun> have cancel a plan visit by king,0
a we go out a second car come,0
<propernoun> access in <propernoun> be restore <propernoun> after a <weak_subj> outage that last more than <number> hour,0
he be sentence in <propernoun> to <number> month of probation and a <number> day suspend sentence after a bench <weak_subj> he have appeal that ruling and a jury <weak_subj> be schedule for <propernoun>,0
<propernoun> and <propernoun> <propernoun> <propernoun> <propernoun> who work together to draft legislation to commission the bust be among speaker who pay <strongsubj> to the late <propernoun> <propernoun> <propernoun> former chairwoman of the <propernoun> who spearhead the effort for the <propernoun> memorial,0
he say the regime be gasp it last breath and the protester <strongsubj> continue seek <weak_subj> change and <strongsubj> any sort of violence,0
a <weak_subj> <strongsubj> anywhere be a <weak_subj> to everywhere now,1
<weak_subj> <weak_subj> <weak_subj> caution to the wind and snip the tag on scarf <strongsubj> blouse and any other wardrobe piece with an unsightly label,1
wind weaken to <number> mph by <propernoun> night,0
he stay in the <propernoun> <propernoun> until <year> then spend a few year in the electronics business before open a <weak_subj> and do some accounting,0
the <strongsubj> violence in decade take place in <propernoun> <year> when riot in <propernoun> between <propernoun> and <propernoun> <propernoun> kill some <number> people and injured <number>,0
<propernoun> <propernoun> manage editor of <propernoun> say <propernoun> may have go <weak_subj> far with his antic this time,1
but <strongsubj> <strongsubj> of the procedure say it be not medically <weak_subj> and carry the <weak_subj> of complication and <strongsubj>,0
he say <propernoun> have approach him,0
a <properadj> <propernoun> <propernoun> source tell <propernoun> that <propernoun> enter <propernoun> on <propernoun> <number> arrive at the <propernoun> airport on a flight from <propernoun> with a man,0
official at the <propernoun> say the photograph be from more than <number> <weak_subj> investigation between <year> and <year> and <weak_subj> military personnel allegedly abuse detainees,0
<weak_subj> there be few program to <weak_subj> them when they be <weak_subj> old to receive therapy through the <weak_subj> system,0
while i <strongsubj> that this new <strongsubj> <strongsubj> put an end to mass screen i be not <weak_subj>,1
in <propernoun> <propernoun> a woman be kill in a car accident after the <weak_subj> dump <number> inch of snow on the town of <propernoun> say <propernoun> <propernoun> <propernoun> a spokeswoman for <propernoun>,0
<propernoun> say <weak_subj> issue be be address include effort to contact people who enrol online to make <strongsubj> they follow up with the company they choose to confirm their policy and pay for them,0
his last theater performance come this year a a member of the <propernoun> <propernoun> <propernoun> of <propernoun> <propernoun>,0
there be also casket shape <strongsubj> <propernoun> <propernoun> bottle and airplane,0
both the attack <propernoun> take place during the overnight hour that previously <weak_subj> have be subject to curfew,0
it cost more than <number> <number> to build and every <properadj> soldier serve in <propernoun> <strongsubj> do his or her training here,0
<propernoun> <propernoun> <propernoun> <propernoun> <propernoun> <propernoun> note the board which weigh <weak_subj> than <number> pound be user <strongsubj>,0
<propernoun> admit a <weak_subj> in <propernoun> when <number> month after be indict again he plead <weak_subj> to <weak_subj> to act a an agent of a foreign government and <weak_subj> to commit international money laundering a part of an <weak_subj> with federal prosecutor,0
the <weak_subj> stay <weak_subj> by extract <weak_subj> instead of create it,1
the flight attendant have ask them if the plane be in <propernoun>,0
resident of <propernoun> be now leave to piece together what remain of their small town,1
<strongsubj> those discussion the current talk involve delegation from <propernoun> and the <number> permanent member of the <propernoun> <propernoun> <propernoun> the <propernoun> state <propernoun> <propernoun> <propernoun> <propernoun> and <propernoun> plus <propernoun> in what be know a the <propernoun>,0
her oscar represent the only <number> ever win by a <propernoun> film,0
<propernoun> be never my thing,1
they gain medium attention and remind everyone of their <weak_subj> week after report that the <propernoun> be in <strongsubj> after a <weak_subj> faction <weak_subj> from the group in <propernoun>,1
<propernoun> be watch late on in the test by her husband <propernoun> <propernoun> who be a minority shareholder in the <propernoun> team and director of the <propernoun> <propernoun> team,0
in <propernoun> <propernoun> a campaign to win similar legislation in that <weak_subj> ridden state be <strongsubj> a handful of vote from passage,1
and i <strongsubj> <propernoun> and i want her to be in this movie,1
nearly <number> third of woman say they <weak_subj> change their contraception method if cost be not an issue,0
<propernoun> <strongsubj> pay an initial <number> <number> for the <number> year old forward who <strongsubj> undergo a medical on <propernoun> and sign a <number> year contract,0
historically there be a <strongsubj> <weak_subj> of military involvement in infrastructure project go <weak_subj> to the <propernoun> day,1
earlier celebration of <propernoun> probably lend it a <weak_subj> edge,1
the image depict a young lady feed <propernoun> and <weak_subj> lovingly wipe ketchup from his face,1
the thing she do may have be <weak_subj> but the way that she do them cleave the country in <number>,1
there be no formal penalty for those who do not get the vaccine but people in the military be require to receive it accord to the <properadj> <propernoun> <propernoun> <propernoun>,0
<weak_subj> story do not <strongsubj> <weak_subj> the victim they be also generally <strongsubj>,1
over the past week at <weak_subj> <number> <strongsubj> tale surface at separate airport,1
<propernoun> say during a <weak_subj> tv interview,0
sixteen <propernoun> men some with tie to convict terrorist be indict <propernoun> in the alleged <weak_subj> that span <propernoun> <propernoun> <propernoun> <propernoun> <propernoun> and <propernoun> <propernoun> state,1
the <number> year old <propernoun> <propernoun> win journalist have write and direct a <weak_subj> film about the immigration <strongsubj> a broken system the separation of family and his own life story,1
it have build a reusable spacecraft and flown it more than <number> time,0
amateur video shot by demonstrator show clash and a number of protester with <strongsubj> and <weak_subj> <weak_subj> injury include some with <weak_subj> gunshot <weak_subj>,0
with that wake up call people take the forecast <strongsubj> this time,1
<strongsubj> the incipient canonization of these <number> pope do <weak_subj> out a <weak_subj>,1
<strongsubj> the letdown of <weak_subj> <propernoun> be not his biological daughter <propernoun> say he enjoy introduce her a his daughter at <propernoun> event <strongsubj> the <propernoun> <propernoun> <propernoun> party,1
<propernoun> or beige they blend into the wall and only get notice when someone <weak_subj> to change the temperature,1
recovery effort by more than <number> deputy and volunteer involve collect and preserve the remain the sheriff say,0
voter <strongsubj> elect governor in the state of <propernoun> <propernoun> <propernoun> <propernoun> <propernoun> and <propernoun>,0
local resident resent <weak_subj> <weak_subj> treatment,1
dozen of officer be currently be investigate under a new government system to <weak_subj> into <weak_subj> <strongsubj> he say,0
today animal remain the biggest user of the <propernoun> <propernoun> of <propernoun> prod along by the farmer who also use it to deliver produce to local family,0
and they along with the choice people in <propernoun> make be no <strongsubj> part of the story,1
it make century old historical claim on the region,0
<strongsubj>,1
before the race at the <propernoun> <propernoun> team driver and official be plan a host of tribute to the passenger,0
this time he waive his <strongsubj> to an attorney and write a detailed <strongsubj>,0
there be also a <weak_subj> of doctor who <weak_subj> with <propernoun> in the region <propernoun> say,0
<propernoun> <number> have face the <weak_subj> of up to a <number> year <weak_subj> term,0
the movement have meet with congressman and senator with <propernoun> and with the candidate who compete to <weak_subj> him,0
<propernoun> be pour resource into ensure that the <propernoun> <propernoun> see a a flagship project of <propernoun> <propernoun> <propernoun> go off without <weak_subj>,1
in the early hour of <propernoun> <number> <year> <propernoun> <propernoun> be gun <weak_subj> near a pile of construction <weak_subj> in an industrial park,0
his body be find the next day,0
the issue <strongsubj> on flashpoints old and new between the administration and it <strongsubj> <strongsubj> conservative republican seek to depict <propernoun> a a <weak_subj> leader <weak_subj> by political <strongsubj> for his <weak_subj>,1
instead of use paper ticket to pass through a barrier passenger <weak_subj> use an <propernoun> radio frequency identification system to transfer from tram to train,0
and <number> hour later it be <weak_subj> out,0
in the video <propernoun> <number> be see kneel next to a man dress in <weak_subj> who speak with what expert say be a <weak_subj> <properadj> accent,0
she have <number> adopt son accord to the ministry,0
<propernoun> be recently serve with a subpoena in the <propernoun> <propernoun> <propernoun> case by an investigative committee seek <weak_subj> document,0
that say <propernoun> <propernoun> add the <weak_subj> immigrant face an uphill <weak_subj>,0
meanwhile <propernoun> study zoology at <propernoun> <propernoun> <propernoun> of <propernoun> and somehow <strongsubj> in <strongsubj> with photography,1
the meeting be the first leg of a tour of the <propernoun> <propernoun> and <propernoun> by <propernoun> that <strongsubj> include visit to u ally <propernoun> and <propernoun>,0
of course,1
during the career week student <strongsubj> visit business and prospective employer <strongsubj> visit classroom,0
the initial <weak_subj> release about the crash of a <propernoun> <propernoun> <propernoun> <propernoun> <number> in eastern <propernoun> say both member of the <strongsubj> crew eject from the jet before it crash,0
<propernoun> indicate that the ship have comply with <properadj> <properadj> regulation require it to disclose the content of the cargo it be carry,0
<propernoun> <propernoun> flee the country in mid <propernoun> after a <weak_subj> that leave at <weak_subj> <number> people <weak_subj> and <number> wound a <weak_subj> <propernoun> human <weak_subj> <weak_subj> say last month,0
sign designer <strongsubj> create some <strongsubj> and <weak_subj> work in the year before <propernoun> <propernoun> <propernoun>,1
<propernoun> <strongsubj> <strongsubj> <propernoun> be shield <propernoun> at the height of his re election campaign during which there be time that he trumpet <propernoun> success in combat <weak_subj> include the <weak_subj> of al <propernoun> leader <propernoun> bin <propernoun> in <year>,1
<propernoun> say <propernoun> cop by stash score of newspaper clipping on the <year> shoot into a suitcase,0
this past year <propernoun> <propernoun> <weak_subj> begin a <weak_subj> with <propernoun> take side with the rebel to unseat an <strongsubj> <strongsubj> man in <propernoun> <propernoun>,1
others <weak_subj> <strongsubj> equally strongly that now that the material be out news medium and website owner have the <strongsubj> to publish the material,1
<propernoun> have be fire and charge with <weak_subj> in the <weak_subj> of <number> year old <propernoun> <propernoun>,0
adviser say the young <propernoun> be inspire by his interaction with church and community group,0
i have try new activity and push myself beyond my physical <weak_subj> zone,1
on a <weak_subj> street in the <propernoun> city of <propernoun> a <weak_subj> kill at <weak_subj> <number> people and wound <number> the ministry say,0
instead it pay him <number> to <weak_subj> his job,0
my son <strongsubj> get pick by the <propernoun> <propernoun> <propernoun> to fly <propernoun> <number> <weak_subj> the aviation <weak_subj> be continue into the third generation,0
the <number> time king of the copper market <weak_subj> have <propernoun> buy <weak_subj> quantity of copper and store it for awhile in order to create an <weak_subj> <weak_subj> of the <strongsubj> metal <strongsubj> drive up <strongsubj> before release smaller amount of copper on commodity market at <strongsubj> <weak_subj> price,1
yet by <year> <weak_subj> <number> year after what <weak_subj> have be the <strongsubj> day of his life <propernoun> be a broken <weak_subj> man who have <weak_subj> his granddaughter to drug and who have a reputation for <propernoun> frequent strip club and get robbed,1
<propernoun> and <propernoun> historically the last to <strongsubj> the new year revel in be the first to party this time round after skip west across the international dateline miss out on <propernoun> <number> <strongsubj> in the process in a <weak_subj> intend to <weak_subj> trade,1
but <weak_subj> with <weak_subj> in <propernoun> the <propernoun> state and it <weak_subj> cannot contain the <propernoun> <propernoun> for <strongsubj> when it have a <weak_subj> <weak_subj> zone in <propernoun> into which it fighter can <weak_subj> <weak_subj> to rest regroup and <weak_subj> again,0
<propernoun> <strongsubj> <propernoun> <propernoun> say his client <propernoun> <propernoun> <propernoun> <strongsubj> <strongsubj> <weak_subj> in <propernoun> <propernoun> <propernoun> <propernoun> <propernoun> on <propernoun> a part of a <weak_subj> <strongsubj> <strongsubj> he <weak_subj> not divulge the detail of the <weak_subj>,0
but while this be a <weak_subj> amount it <strongsubj> <weak_subj> quickly be surpass by the cost of <propernoun> military operation,1
in <strongsubj> i <weak_subj> make the <weak_subj> that—after watch the debt ceiling debacle—it <weak_subj> be <strongsubj> to <strongsubj> anything other than <strongsubj> for <propernoun>,1
<strongsubj> image from the scene show panic men woman and child push and trample with nowhere to go a police <weak_subj> control of the crowd,1
expert <strongsubj> over whether <propernoun> <weak_subj> have step aside and let a <weak_subj> prosecutor handle the case,0
but the <number> year old who have spend the past <number> year in charge of <propernoun> have change his <strongsubj> follow a number of recent <strongsubj> incident,0
for physician this research be a new piece of information they can pass on to those patient,0
<propernoun> take over a commissioner and he say he never saw any sign of change or <strongsubj> from <propernoun>,0
she marry my father in the <number> and on <propernoun> <number> <year> we end up in <propernoun> province where my father be make to work until he die,0
<propernoun> be tout an <propernoun> style message of change pledging to raise the minimum wage and <strongsubj> hiring through agency or on temporary contract,1
a <number> year old <properadj> man have be arrest in the <propernoun> de <propernoun> suburb of <propernoun> accord to the police statement release <propernoun>,0
<propernoun> have repeatedly denounce <properadj> <propernoun> al <propernoun> publicly call on him to step <weak_subj> after <strongsubj> him of massacre his own people,0
residence of the <weak_subj> <weak_subj> and some government minister be loot witness say,0
<propernoun> <propernoun> be hang for rap and attempt to <weak_subj> an <number> year old <propernoun> girl,0
the company that manufacture the toy <propernoun> <propernoun> <propernoun> have since be sell,0
<propernoun> <propernoun> and <propernoun> <propernoun> be also attach to executive produce,0
<propernoun> <propernoun> an attorney represent the family of both men shoot by police say <propernoun> be shoot <number> to <number> time,0
few urban legend continue to capture the <strongsubj> <strongsubj> the disappearance of a union boss with a <weak_subj> past,1
